Report_Number, Iceberg_Number, X_Value, Y_Value, Z_Value
12, R12I18, 122,0275, -19,49027, -10
12, R12I18, 122,5101, -22,60869, -10
12, R12I18, 121,582, -25,83851, -10
12, R12I18, 120,5054, -28,84557, -10
12, R12I18, 47,37057, 42,50727, -25
12, R12I18, 49,96926, 40,94807, -25
12, R12I18, 52,56797, 39,24034, -25
12, R12I18, 55,16666, 37,42126, -25
12, R12I18, 57,54261, 35,56505, -25
12, R12I18, 60,4012, 34,33993, -25
12, R12I18, 63,44537, 33,30046, -25
12, R12I18, 66,63805, 32,4466, -25
12, R12I18, 69,97924, 31,81549, -25
12, R12I18, 73,24619, 30,99875, -25
12, R12I18, 76,14191, 29,81079, -25
12, R12I18, 78,62921, 27,80607, -25
12, R12I18, 81,26503, 26,09836, -25
12, R12I18, 84,19785, 25,02175, -25
12, R12I18, 87,39053, 23,8709, -25
12, R12I18, 90,21197, 22,79429, -25
12, R12I18, 92,84783, 21,30932, -25
12, R12I18, 93,99867, 18,48788, -25
12, R12I18, 92,47659, 15,88919, -25
12, R12I18, 94,1843, 13,3276, -25
12, R12I18, 96,78299, 11,47139, -25
12, R12I18, 99,67866, 10,65465, -25
12, R12I18, 102,7971, 10,13492, -25
12, R12I18, 106,1012, 9,986417, -25
12, R12I18, 109,7022, 9,392437, -25
12, R12I18, 112,8949, 8,390078, -25
12, R12I18, 114,8996, 6,051252, -25
12, R12I18, 116,496, 3,489668, -25
12, R12I18, 118,3151, 0,4454732, -25
12, R12I18, 120,2084, -2,561584, -25
12, R12I18, 122,2131, -5,754285, -25
12, R12I18, 124,3663, -8,761343, -25
12, R12I18, 125,8513, -11,36004, -25
12, R12I18, 127,4105, -14,07011, -25
12, R12I18, 129,0811, -16,66881, -25
12, R12I18, 130,3434, -18,37654, -25
12, R12I18, 130,529, -20,86385, -25
12, R12I18, 125,2944, -19,37888, -30
12, R12I18, 126,5938, -22,72006, -30
12, R12I18, 126,1483, -26,32112, -30
12, R12I18, 125,2944, -29,25395, -30
12, R12I18, 124,3292, -32,14964, -30
12, R12I18, 123,1783, -35,86206, -30
12, R12I18, 122,4359, -39,57449, -30
12, R12I18, 122,0275, -42,58156, -30
12, R12I18, 121,6563, -46,07124, -30
12, R12I18, 121,0623, -49,2268, -30
12, R12I18, 120,5796, -52,67936, -30
12, R12I18, 120,097, -55,76068, -30
12, R12I18, 119,7629, -59,25036, -30
12, R12I18, 119,5401, -62,81429, -30
12, R12I18, 119,1689, -66,45247, -30
12, R12I18, 118,7605, -69,90503, -30
12, R12I18, 118,2037, -73,17196, -30
12, R12I18, 117,3499, -76,32752, -30
12, R12I18, 115,5308, -79,74297, -30
12, R12I18, 113,0434, -81,7848, -30
12, R12I18, 109,1453, -82,23029, -30
12, R12I18, 105,4701, -82,52728, -30
12, R12I18, 102,0175, -82,49016, -30
12, R12I18, 98,71344, -82,63865, -30
12, R12I18, 95,74349, -82,82427, -30
12, R12I18, 92,32808, -82,8614, -30
12, R12I18, 89,17252, -82,67578, -30
12, R12I18, 85,75706, -82,63865, -30
12, R12I18, 82,1189, -82,26741, -30
12, R12I18, 79,11185, -81,7848, -30
12, R12I18, 75,84489, -80,89381, -30
12, R12I18, 72,42947, -80,67107, -30
12, R12I18, 69,23676, -80,2627, -30
12, R12I18, 65,89557, -78,96335, -30
12, R12I18, 62,85139, -77,96099, -30
12, R12I18, 59,54733, -76,69877, -30
12, R12I18, 56,80014, -75,47367, -30
12, R12I18, 53,3847, -74,06294, -30
12, R12I18, 50,34051, -72,7636, -30
12, R12I18, 47,51907, -71,31575, -30
12, R12I18, 44,40062, -69,38528, -30
12, R12I18, 41,2822, -67,45483, -30
12, R12I18, 38,31226, -65,52436, -30
12, R12I18, 35,60217, -63,5939, -30
12, R12I18, 32,8921, -61,66344, -30
12, R12I18, 30,55327, -59,73297, -30
12, R12I18, 27,50908, -58,3965, -30
12, R12I18, 24,50202, -57,95101, -30
12, R12I18, 21,45783, -57,76539, -30
12, R12I18, 17,7454, -57,54264, -30
12, R12I18, 14,58984, -56,46604, -30
12, R12I18, 11,99114, -54,90681, -30
12, R12I18, 8,835573, -53,0506, -30
12, R12I18, 6,496748, -50,93452, -30
12, R12I18, 4,677649, -48,07595, -30
12, R12I18, 3,192679, -44,88326, -30
12, R12I18, 2,004697, -42,13607, -30
12, R12I18, 0,6311172, -39,426, -30
12, R12I18, -0,3341275, -36,04769, -30
12, R12I18, -0,2598745, -32,7065, -30
12, R12I18, 0,5939794, -29,84793, -30
12, R12I18, 3,118426, -27,21211, -30
12, R12I18, 5,717125, -24,9104, -30
12, R12I18, 7,573339, -22,3117, -30
12, R12I18, 7,833213, -19,19325, -30
12, R12I18, 5,234514, -16,70595, -30
12, R12I18, 2,524446, -15,10958, -30
12, R12I18, -7,425308E-02, -13,66175, -30
12, R12I18, -2,932827, -12,43666, -30
12, R12I18, -6,051252, -11,02591, -30
12, R12I18, -8,612837, -9,39246, -30
12, R12I18, -10,69179, -7,239256, -30
12, R12I18, -10,17206, -4,30643, -30
12, R12I18, -8,464331, -1,596362, -30
12, R12I18, -10,06069, 1,039475, -30
12, R12I18, -12,88213, 2,524446, -30
12, R12I18, -15,85207, 3,898026, -30
12, R12I18, -16,78018, 6,942222, -30
12, R12I18, -13,66173, 7,944582, -30
12, R12I18, -10,09781, 8,575699, -30
12, R12I18, -7,202119, 9,503805, -30
12, R12I18, -4,120808, 10,24629, -30
12, R12I18, -0,7053703, 10,39477, -30
12, R12I18, 2,487331, 10,28341, -30
12, R12I18, 5,791378, 10,5804, -30
12, R12I18, 9,021194, 12,28813, -30
12, R12I18, 10,84029, 14,99819, -30
12, R12I18, 11,1744, 17,96814, -30
12, R12I18, 10,61753, 20,90096, -30
12, R12I18, 10,84029, 23,98227, -30
12, R12I18, 12,69651, 26,76659, -30
12, R12I18, 14,73834, 29,77365, -30
12, R12I18, 16,5203, 32,14961, -30
12, R12I18, 19,5645, 34,37707, -30
12, R12I18, 22,53444, 35,60217, -30
12, R12I18, 25,87563, 36,41891, -30
12, R12I18, 28,95694, 37,16139, -30
12, R12I18, 32,52085, 37,68112, -30
12, R12I18, 36,0848, 38,20087, -30
12, R12I18, 39,4631, 38,46074, -30
12, R12I18, 43,02702, 38,75773, -30
12, R12I18, 46,33109, 38,79485, -30
12, R12I18, 49,59802, 38,05236, -30
12, R12I18, 51,89973, 36,01052, -30
12, R12I18, 54,57269, 33,74595, -30
12, R12I18, 57,35698, 32,55797, -30
12, R12I18, 60,58682, 32,22387, -30
12, R12I18, 63,81662, 31,85262, -30
12, R12I18, 65,33871, 28,80843, -30
12, R12I18, 66,04408, 25,46725, -30
12, R12I18, 67,60332, 22,60867, -30
12, R12I18, 70,87023, 22,08892, -30
12, R12I18, 73,98868, 22,31168, -30
12, R12I18, 77,44125, 23,35116, -30
12, R12I18, 80,37404, 24,13076, -30
12, R12I18, 83,82661, 24,16789, -30
12, R12I18, 87,13068, 23,2769, -30
12, R12I18, 89,72938, 21,68056, -30
12, R12I18, 92,32808, 19,63873, -30
12, R12I18, 93,2933, 16,74304, -30
12, R12I18, 93,85017, 13,66173, -30
12, R12I18, 95,74349, 11,10015, -30
12, R12I18, 98,75055, 9,912164, -30
12, R12I18, 102,0175, 10,09778, -30
12, R12I18, 105,4701, 9,76368, -30
12, R12I18, 108,4771, 8,35294, -30
12, R12I18, 110,8902, 6,199736, -30
12, R12I18, 113,0063, 3,898026, -30
12, R12I18, 116,0133, 2,561561, -30
12, R12I18, 117,8324, -0,2227592, -30
12, R12I18, 118,612, -3,192701, -30
12, R12I18, 121,7305, -4,30643, -30
12, R12I18, 123,3269, -7,053635, -30
12, R12I18, 122,3616, -10,2092, -30
12, R12I18, 122,5101, -13,32762, -30
12, R12I18, 124,7004, -15,44371, -30
12, R12I18, 125,6656, -16,81732, -30
12, R12I18, 125,2944, -19,37888, -30
12, R12I18, 164,3492, -19,19325, -35
12, R12I18, 166,2054, -21,56922, -35
12, R12I18, 168,8783, -23,12844, -35
12, R12I18, 170,1034, -25,87563, -35
12, R12I18, 170,8459, -29,51382, -35
12, R12I18, 170,9944, -32,7065, -35
12, R12I18, 170,6974, -35,67644, -35
12, R12I18, 169,9921, -38,83201, -35
12, R12I18, 169,0268, -41,95044, -35
12, R12I18, 167,6532, -44,99464, -35
12, R12I18, 165,9455, -48,07595, -35
12, R12I18, 164,0893, -50,86027, -35
12, R12I18, 162,1217, -53,23622, -35
12, R12I18, 159,82, -55,5008, -35
12, R12I18, 157,3327, -57,76539, -35
12, R12I18, 154,9196, -59,69585, -35
12, R12I18, 151,7269, -61,84906, -35
12, R12I18, 149,2025, -63,63102, -35
12, R12I18, 146,2325, -65,59861, -35
12, R12I18, 143,7081, -67,56619, -35
12, R12I18, 119,0947, -31,74128, -10
12, R12I18, 116,6074, -33,82023, -10
12, R12I18, 113,7488, -35,67644, -10
12, R12I18, 110,7046, -36,75306, -10
12, R12I18, 107,7347, -38,05241, -10
12, R12I18, 104,9874, -40,0571, -10
12, R12I18, 102,9085, -42,43307, -10
12, R12I18, 101,4606, -45,14314, -10
12, R12I18, 99,71582, -48,07595, -10
12, R12I18, 97,89672, -50,8974, -10
12, R12I18, 95,29802, -53,12485, -10
12, R12I18, 92,25381, -53,97871, -10
12, R12I18, 89,02401, -53,86734, -10
12, R12I18, 85,53432, -53,71885, -10
12, R12I18, 82,34164, -53,86734, -10
12, R12I18, 79,18607, -53,79309, -10
12, R12I18, 75,65927, -54,23858, -10
12, R12I18, 72,80072, -55,09243, -10
12, R12I18, 69,86789, -55,6493, -10
12, R12I18, 66,67522, -56,13192, -10
12, R12I18, 63,7795, -57,0229, -10
12, R12I18, 60,80956, -57,95101, -10
12, R12I18, 57,46838, -58,95337, -10
12, R12I18, 54,20144, -59,25036, -10
12, R12I18, 51,00874, -59,73297, -10
12, R12I18, 48,00169, -60,8467, -10
12, R12I18, 46,8137, -63,5939, -10
12, R12I18, 47,48194, -66,78658, -10
12, R12I18, 49,33815, -69,12542, -10
12, R12I18, 50,56327, -72,13248, -10
12, R12I18, 50,22914, -75,54791, -10
12, R12I18, 49,44954, -78,85197, -10
12, R12I18, 47,51907, -81,45067, -10
12, R12I18, 44,17789, -81,30218, -10
12, R12I18, 41,39357, -79,55734, -10
12, R12I18, 37,79251, -78,81486, -10
12, R12I18, 34,48844, -77,8125, -10
12, R12I18, 31,18439, -75,88203, -10
12, R12I18, 28,84557, -73,9887, -10
12, R12I18, 26,58097, -72,02111, -10
12, R12I18, 23,90802, -69,75652, -10
12, R12I18, 21,23509, -67,19495, -10
12, R12I18, 19,00763, -65,07887, -10
12, R12I18, 16,5203, -62,59155, -10
12, R12I18, 14,21859, -60,47546, -10
12, R12I18, 11,84263, -57,98814, -10
12, R12I18, 9,355322, -55,42656, -10
12, R12I18, 7,350602, -53,12485, -10
12, R12I18, 5,38302, -50,30341, -10
12, R12I18, 3,415438, -47,70471, -10
12, R12I18, 1,225097, -44,88326, -10
12, R12I18, -0,5197489, -42,21032, -10
12, R12I18, -1,70773, -39,05474, -10
12, R12I18, -2,078973, -35,93632, -10
12, R12I18, -1,819099, -32,74362, -10
12, R12I18, -0,8909917, -28,91982, -10
12, R12I18, 0,5939794, -25,57864, -10
12, R12I18, 2,264572, -22,64583, -10
12, R12I18, 3,638175, -19,93574, -10
12, R12I18, 5,123146, -16,78018, -10
12, R12I18, 6,348242, -13,51325, -10
12, R12I18, 7,202096, -10,43194, -10
12, R12I18, 6,905106, -7,165003, -10
12, R12I18, 5,68001, -4,083693, -10
12, R12I18, 4,343545, -1,410741, -10
12, R12I18, 2,37594, 1,150844, -10
12, R12I18, -0,2598745, 3,526783, -10
12, R12I18, -2,932827, 5,642872, -10
12, R12I18, -5,568642, 7,499085, -10
12, R12I18, -8,612837, 9,281046, -10
12, R12I18, -11,06303, 11,58276, -10
12, R12I18, -12,28815, 14,62695, -10
12, R12I18, -12,77076, 18,37649, -10
12, R12I18, -12,32526, 21,94044, -10
12, R12I18, -11,47141, 24,94749, -10
12, R12I18, -10,17206, 28,10306, -10
12, R12I18, -8,427216, 31,36999, -10
12, R12I18, -6,68237, 34,63694, -10
12, R12I18, -5,420158, 37,38413, -10
12, R12I18, -3,675313, 40,87382, -10
12, R12I18, -1,930467, 43,621, -10
12, R12I18, 0, 46,36821, -10
12, R12I18, 2,227457, 48,92979, -10
12, R12I18, 4,789018, 51,82548, -10
12, R12I18, 7,053613, 53,97868, -10
12, R12I18, 9,76368, 56,05763, -10
12, R12I18, 12,58512, 57,76537, -10
12, R12I18, 15,9263, 58,21086, -10
12, R12I18, 19,00763, 57,91385, -10
12, R12I18, 22,12606, 57,2085, -10
12, R12I18, 25,13314, 56,80012, -10
12, R12I18, 28,02883, 58,09947, -10
12, R12I18, 30,92452, 59,10183, -10
12, R12I18, 33,82021, 60,10419, -10
12, R12I18, 36,93866, 61,0323, -10
12, R12I18, 40,20559, 61,73767, -10
12, R12I18, 43,84376, 61,84903, -10
12, R12I18, 46,88795, 61,51491, -10
12, R12I18, 50,34051, 60,51255, -10
12, R12I18, 53,79306, 58,99046, -10
12, R12I18, 56,83726, 57,69111, -10
12, R12I18, 59,54733, 56,24326, -10
12, R12I18, 62,18314, 54,4613, -10
12, R12I18, 64,74472, 52,82784, -10
12, R12I18, 67,56616, 51,083, -10
12, R12I18, 70,20202, 49,48666, -10
12, R12I18, 72,98634, 47,44482, -10
12, R12I18, 75,36226, 45,4401, -10
12, R12I18, 78,14658, 44,17786, -10
12, R12I18, 80,89378, 45,8856, -10
12, R12I18, 83,82661, 47,33343, -10
12, R12I18, 87,01929, 47,40768, -10
12, R12I18, 90,13774, 46,2197, -10
12, R12I18, 92,95918, 44,47488, -10
12, R12I18, 95,22375, 42,43304, -10
12, R12I18, 97,82245, 39,87146, -10
12, R12I18, 99,86428, 36,93863, -10
12, R12I18, 100,978, 33,59745, -10
12, R12I18, 102,0546, 30,66464, -10
12, R12I18, 102,3887, 27,6947, -10
12, R12I18, 102,4259, 24,61339, -10
12, R12I18, 101,9433, 21,53206, -10
12, R12I18, 100,9409, 18,11664, -10
12, R12I18, 99,86428, 14,88683, -10
12, R12I18, 98,82483, 11,5085, -10
12, R12I18, 98,67632, 8,390078, -10
12, R12I18, 100,5696, 6,088367, -10
12, R12I18, 103,7252, 4,38066, -10
12, R12I18, 106,4353, 2,969919, -10
12, R12I18, 109,2567, 1,262212, -10
12, R12I18, 112,1896, -0,4826337, -10
12, R12I18, 115,2709, -2,00472, -10
12, R12I18, 117,8324, -4,157924, -10
12, R12I18, 120,2084, -6,422518, -10
12, R12I18, 121,4335, -9,206839, -10
12, R12I18, 122,176, -12,62228, -10
12, R12I18, 122,2502, -15,85207, -10
12, R12I18, 122,176, -17,18856, -10
12, R12I18, 122,0275, -19,49027, -10
12, R12I18, 127,2991, -18,37654, -15
12, R12I18, 127,7818, -21,3836, -15
12, R12I18, 128,8212, -24,46491, -15
12, R12I18, 129,4152, -27,5091, -15
12, R12I18, 129,7122, -30,62755, -15
12, R12I18, 129,5637, -33,70886, -15
12, R12I18, 128,1159, -36,79017, -15
12, R12I18, 126,4081, -39,68586, -15
12, R12I18, 123,9208, -42,21032, -15
12, R12I18, 121,5449, -43,99228, -15
12, R12I18, 118,6492, -45,51438, -15
12, R12I18, 115,5679, -47,14784, -15
12, R12I18, 112,3752, -48,52145, -15
12, R12I18, 108,9597, -49,2268, -15
12, R12I18, 105,5814, -49,59805, -15
12, R12I18, 102,1289, -50,00642, -15
12, R12I18, 99,04756, -50,37766, -15
12, R12I18, 95,96623, -50,4519, -15
12, R12I18, 92,73643, -50,67465, -15
12, R12I18, 89,69227, -51,12014, -15
12, R12I18, 86,49954, -51,00877, -15
12, R12I18, 83,04701, -50,67465, -15
12, R12I18, 79,66871, -50,52615, -15
12, R12I18, 75,84489, -50,15491, -15
12, R12I18, 72,28097, -49,6723, -15
12, R12I18, 69,27391, -49,07831, -15
12, R12I18, 65,5986, -48,2987, -15
12, R12I18, 62,40592, -47,55621, -15
12, R12I18, 59,51021, -46,66523, -15
12, R12I18, 56,4289, -45,77425, -15
12, R12I18, 53,08772, -44,69764, -15
12, R12I18, 49,89501, -43,28692, -15
12, R12I18, 46,92507, -41,91332, -15
12, R12I18, 44,17789, -40,46547, -15
12, R12I18, 41,2822, -38,53502, -15
12, R12I18, 38,75773, -36,82729, -15
12, R12I18, 35,89918, -34,89684, -15
12, R12I18, 33,78309, -32,74362, -15
12, R12I18, 31,81551, -30,36768, -15
12, R12I18, 29,92216, -27,69472, -15
12, R12I18, 28,73418, -24,57627, -15
12, R12I18, 28,25157, -21,56922, -15
12, R12I18, 28,43719, -18,22803, -15
12, R12I18, 29,36529, -15,07247, -15
12, R12I18, 30,36765, -12,17678, -15
12, R12I18, 31,03588, -8,984079, -15
12, R12I18, 30,55327, -6,051275, -15
12, R12I18, 28,02883, -4,454936, -15
12, R12I18, 25,24451, -2,858574, -15
12, R12I18, 22,01469, -2,30171, -15
12, R12I18, 18,93338, -2,078973, -15
12, R12I18, 15,74068, -1,299372, -15
12, R12I18, 12,88213, -3,713787E-02, -15
12, R12I18, 10,32054, 1,967582, -15
12, R12I18, 8,018834, 4,195039, -15
12, R12I18, 6,014137, 6,682347, -15
12, R12I18, 4,269292, 9,503805, -15
12, R12I18, 2,598699, 12,43661, -15
12, R12I18, 1,113728, 15,07245, -15
12, R12I18, -1,410718, 16,89152, -15
12, R12I18, -4,603419, 17,7454, -15
12, R12I18, -7,647614, 18,525, -15
12, R12I18, -9,540943, 20,97519, -15
12, R12I18, -8,909826, 23,98227, -15
12, R12I18, -7,350602, 26,80371, -15
12, R12I18, -5,345905, 29,29104, -15
12, R12I18, -3,489691, 31,74123, -15
12, R12I18, -2,00472, 34,59981, -15
12, R12I18, -0,8167386, 37,34701, -15
12, R12I18, 0,2598745, 40,35407, -15
12, R12I18, 1,930467, 42,91565, -15
12, R12I18, 4,640534, 44,47488, -15
12, R12I18, 7,796098, 44,84612, -15
12, R12I18, 10,80315, 44,14075, -15
12, R12I18, 13,84735, 43,13839, -15
12, R12I18, 17,11428, 43,06414, -15
12, R12I18, 19,86149, 44,43774, -15
12, R12I18, 22,53444, 45,95985, -15
12, R12I18, 25,76423, 46,55383, -15
12, R12I18, 28,65995, 45,25448, -15
12, R12I18, 31,40713, 44,10363, -15
12, R12I18, 34,45132, 45,18023, -15
12, R12I18, 36,67878, 42,76715, -15
12, R12I18, 39,4631, 43,80662, -15
12, R12I18, 40,61395, 46,6652, -15
12, R12I18, 42,73003, 44,51199, -15
12, R12I18, 45,40298, 46,44246, -15
12, R12I18, 48,70705, 46,85082, -15
12, R12I18, 51,78836, 45,69997, -15
12, R12I18, 54,05294, 43,50963, -15
12, R12I18, 56,57738, 41,9133, -15
12, R12I18, 59,73295, 41,13369, -15
12, R12I18, 62,51727, 39,79721, -15
12, R12I18, 64,819, 37,644, -15
12, R12I18, 66,34109, 34,85968, -15
12, R12I18, 67,49193, 32,11248, -15
12, R12I18, 69,16252, 29,43955, -15
12, R12I18, 71,94685, 27,95457, -15
12, R12I18, 74,9539, 26,91508, -15
12, R12I18, 76,99574, 24,68762, -15
12, R12I18, 77,84961, 21,64345, -15
12, R12I18, 78,59209, 18,67351, -15
12, R12I18, 79,55732, 15,44369, -15
12, R12I18, 81,26503, 12,65937, -15
12, R12I18, 83,75238, 11,02589, -15
12, R12I18, 86,23969, 9,206816, -15
12, R12I18, 88,76416, 7,573339, -15
12, R12I18, 91,58559, 5,902746, -15
12, R12I18, 94,62977, 4,677649, -15
12, R12I18, 97,56259, 3,935164, -15
12, R12I18, 100,8295, 4,009417, -15
12, R12I18, 103,2426, 5,865631, -15
12, R12I18, 105,4329, 8,278709, -15
12, R12I18, 107,7718, 10,20915, -15
12, R12I18, 110,7417, 9,726542, -15
12, R12I18, 113,1919, 7,944582, -15
12, R12I18, 114,9739, 5,568619, -15
12, R12I18, 117,2385, 2,710068, -15
12, R12I18, 119,4288, 0,1113683, -15
12, R12I18, 121,6563, -2,71009, -15
12, R12I18, 123,3269, -5,568664, -15
12, R12I18, 124,8489, -8,68709, -15
12, R12I18, 125,8884, -11,65703, -15
12, R12I18, 126,668, -15,10958, -15
12, R12I18, 126,7794, -15,66645, -15
12, R12I18, 127,2991, -18,37654, -15
12, R12I18, 139,9214, -19,34176, -20
12, R12I18, 141,1094, -22,49733, -20
12, R12I18, 139,9585, -25,50438, -20
12, R12I18, 137,6568, -27,39773, -20
12, R12I18, 135,021, -28,91982, -20
12, R12I18, 132,1996, -29,99643, -20
12, R12I18, 129,1925, -30,99879, -20
12, R12I18, 126,1854, -32,59513, -20
12, R12I18, 123,2897, -34,26572, -20
12, R12I18, 120,394, -35,41657, -20
12, R12I18, 117,387, -36,12194, -20
12, R12I18, 114,6769, -38,20089, -20
12, R12I18, 112,7835, -40,57685, -20
12, R12I18, 111,5956, -43,36117, -20
12, R12I18, 109,034, -45,14314, -20
12, R12I18, 105,7299, -43,99228, -20
12, R12I18, 103,0941, -42,54443, -20
12, R12I18, 100,0871, -41,5792, -20
12, R12I18, 97,07996, -41,95044, -20
12, R12I18, 94,1843, -42,73006, -20
12, R12I18, 91,28858, -44,28928, -20
12, R12I18, 88,50426, -46,25686, -20
12, R12I18, 85,79421, -47,92746, -20
12, R12I18, 82,93562, -48,96693, -20
12, R12I18, 79,96568, -49,59805, -20
12, R12I18, 76,9215, -49,6723, -20
12, R12I18, 73,98868, -49,00406, -20
12, R12I18, 70,61037, -49,11544, -20
12, R12I18, 67,1578, -50,04354, -20
12, R12I18, 64,00224, -51,26864, -20
12, R12I18, 61,32931, -52,60511, -20
12, R12I18, 57,98812, -54,12721, -20
12, R12I18, 55,0553, -55,12956, -20
12, R12I18, 52,15961, -56,28041, -20
12, R12I18, 48,70705, -57,65402, -20
12, R12I18, 45,58861, -58,69349, -20
12, R12I18, 42,24742, -59,99284, -20
12, R12I18, 39,38885, -61,18082, -20
12, R12I18, 36,19617, -61,70056, -20
12, R12I18, 32,8921, -61,84906, -20
12, R12I18, 29,66228, -61,40356, -20
12, R12I18, 26,65523, -60,88382, -20
12, R12I18, 23,16553, -59,95572, -20
12, R12I18, 19,97286, -58,69349, -20
12, R12I18, 16,81729, -57,0229, -20
12, R12I18, 13,95872, -55,38943, -20
12, R12I18, 11,24865, -53,97871, -20
12, R12I18, 8,278709, -52,12249, -20
12, R12I18, 5,457273, -50,00642, -20
12, R12I18, 3,155563, -47,89033, -20
12, R12I18, 1,00236, -45,18026, -20
12, R12I18, -0,9281069, -42,21032, -20
12, R12I18, -2,264595, -39,53736, -20
12, R12I18, -3,341185, -36,41893, -20
12, R12I18, -3,972302, -32,89212, -20
12, R12I18, -3,229817, -29,58805, -20
12, R12I18, -1,781961, -26,24687, -20
12, R12I18, -7,425308E-02, -23,12844, -20
12, R12I18, 0,2227366, -19,60164, -20
12, R12I18, -1,781961, -17,07719, -20
12, R12I18, -4,677672, -15,7407, -20
12, R12I18, -7,647614, -14,07011, -20
12, R12I18, -10,72892, -12,58514, -20
12, R12I18, -13,55036, -11,13731, -20
12, R12I18, -15,1467, -8,130225, -20
12, R12I18, -14,10723, -4,789041, -20
12, R12I18, -14,47847, -1,819099, -20
12, R12I18, -17,00291, -0,1485062, -20
12, R12I18, -19,78724, 1,633455, -20
12, R12I18, -22,49733, 3,563921, -20
12, R12I18, -24,7619, 5,494388, -20
12, R12I18, -26,87799, 8,093087, -20
12, R12I18, -27,28634, 11,43427, -20
12, R12I18, -26,39537, 14,32996, -20
12, R12I18, -23,8709, 17,2999, -20
12, R12I18, -21,3836, 19,63873, -20
12, R12I18, -19,15614, 21,64345, -20
12, R12I18, -16,63167, 23,98227, -20
12, R12I18, -14,21859, 26,17259, -20
12, R12I18, -11,91691, 28,40005, -20
12, R12I18, -9,837934, 30,92452, -20
12, R12I18, -8,055972, 33,78307, -20
12, R12I18, -6,496748, 36,90152, -20
12, R12I18, -4,937524, 39,68584, -20
12, R12I18, -3,155563, 42,47016, -20
12, R12I18, -1,187981, 44,80898, -20
12, R12I18, 1,707708, 45,69997, -20
12, R12I18, 4,974639, 45,77423, -20
12, R12I18, 8,278709, 45,62572, -20
12, R12I18, 11,43427, 45,47721, -20
12, R12I18, 14,10723, 46,96218, -20
12, R12I18, 16,44605, 49,00402, -20
12, R12I18, 19,41599, 50,22914, -20
12, R12I18, 22,42305, 49,11541, -20
12, R12I18, 25,02175, 47,37057, -20
12, R12I18, 28,1402, 48,33579, -20
12, R12I18, 31,77837, 49,37526, -20
12, R12I18, 34,97107, 50,00638, -20
12, R12I18, 37,68114, 51,63986, -20
12, R12I18, 40,27984, 54,16431, -20
12, R12I18, 43,65814, 54,4613, -20
12, R12I18, 46,40535, 52,38234, -20
12, R12I18, 48,70705, 50,34051, -20
12, R12I18, 51,04588, 47,89029, -20
12, R12I18, 53,34759, 45,69997, -20
12, R12I18, 55,50079, 43,58389, -20
12, R12I18, 58,09947, 41,43068, -20
12, R12I18, 60,69817, 39,50022, -20
12, R12I18, 63,29687, 37,45838, -20
12, R12I18, 66,2297, 36,30754, -20
12, R12I18, 69,42237, 35,60217, -20
12, R12I18, 72,65221, 34,37707, -20
12, R12I18, 75,65927, 33,07772, -20
12, R12I18, 78,70345, 31,62987, -20
12, R12I18, 81,85901, 29,92216, -20
12, R12I18, 84,71761, 28,32582, -20
12, R12I18, 87,27919, 26,65523, -20
12, R12I18, 90,02634, 24,72476, -20
12, R12I18, 92,43942, 22,9428, -20
12, R12I18, 94,96389, 21,34644, -20
12, R12I18, 97,82245, 19,52736, -20
12, R12I18, 99,08468, 16,3718, -20
12, R12I18, 99,41881, 12,99347, -20
12, R12I18, 100,4211, 10,06067, -20
12, R12I18, 103,0941, 8,278709, -20
12, R12I18, 106,1383, 8,130203, -20
12, R12I18, 109,1453, 8,278709, -20
12, R12I18, 112,1153, 7,016475, -20
12, R12I18, 114,3799, 4,232154, -20
12, R12I18, 117,4241, 2,67293, -20
12, R12I18, 120,394, 1,07659, -20
12, R12I18, 123,2897, -0,594002, -20
12, R12I18, 126,2225, -1,967605, -20
12, R12I18, 128,6356, -3,972302, -20
12, R12I18, 131,2715, -6,236897, -20
12, R12I18, 132,942, -8,946964, -20
12, R12I18, 134,6126, -11,84265, -20
12, R12I18, 136,0233, -14,66411, -20
12, R12I18, 137,4712, -17,59692, -20
12, R12I18, 137,6939, -18,04241, -20
12, R12I18, 139,9214, -19,34176, -20
12, R12I18, 130,529, -20,86385, -25
12, R12I18, 132,2738, -23,49969, -25
12, R12I18, 133,5731, -26,24687, -25
12, R12I18, 134,8354, -29,1797, -25
12, R12I18, 135,6892, -32,14964, -25
12, R12I18, 136,3575, -35,3052, -25
12, R12I18, 136,8772, -38,75776, -25
12, R12I18, 137,3598, -42,0247, -25
12, R12I18, 137,7682, -45,5515, -25
12, R12I18, 137,5454, -49,00406, -25
12, R12I18, 136,6916, -52,15962, -25
12, R12I18, 135,6521, -55,35231, -25
12, R12I18, 134,3899, -58,76775, -25
12, R12I18, 133,0534, -61,70056, -25
12, R12I18, 131,4942, -64,93037, -25
12, R12I18, 129,7865, -67,8632, -25
12, R12I18, 127,6704, -70,83314, -25
12, R12I18, 125,7399, -73,09771, -25
12, R12I18, 122,9927, -75,36229, -25
12, R12I18, 120,691, -77,29276, -25
12, R12I18, 119,6887, -80,29983, -25
12, R12I18, 121,0623, -83,04702, -25
12, R12I18, 120,5425, -86,0912, -25
12, R12I18, 117,2013, -86,75945, -25
12, R12I18, 113,3775, -87,01931, -25
12, R12I18, 109,9992, -86,72232, -25
12, R12I18, 106,3239, -86,35108, -25
12, R12I18, 102,7229, -86,61095, -25
12, R12I18, 99,23318, -86,87082, -25
12, R12I18, 95,92912, -87,6133, -25
12, R12I18, 92,21669, -88,17017, -25
12, R12I18, 88,727, -88,80128, -25
12, R12I18, 85,71994, -89,50665, -25
12, R12I18, 82,67577, -89,65514, -25
12, R12I18, 79,55732, -89,80363, -25
12, R12I18, 76,55026, -89,61801, -25
12, R12I18, 73,06057, -88,83841, -25
12, R12I18, 70,27625, -87,20493, -25
12, R12I18, 67,04646, -85,6086, -25
12, R12I18, 63,85373, -83,78951, -25
12, R12I18, 60,88379, -82,04466, -25
12, R12I18, 57,76539, -80,29983, -25
12, R12I18, 54,83256, -78,36936, -25
12, R12I18, 51,86262, -76,2904, -25
12, R12I18, 49,30103, -74,7683, -25
12, R12I18, 46,55383, -73,13483, -25
12, R12I18, 44,47488, -70,72176, -25
12, R12I18, 41,69056, -69,27391, -25
12, R12I18, 38,72062, -68,4943, -25
12, R12I18, 35,52794, -67,45483, -25
12, R12I18, 32,40949, -66,45247, -25
12, R12I18, 29,47666, -64,78188, -25
12, R12I18, 26,58097, -63,22266, -25
12, R12I18, 23,35116, -62,0718, -25
12, R12I18, 20,45547, -61,29219, -25
12, R12I18, 17,33704, -60,43834, -25
12, R12I18, 14,25571, -59,17611, -25
12, R12I18, 11,80552, -57,39415, -25
12, R12I18, 9,132563, -54,79544, -25
12, R12I18, 7,090728, -51,75125, -25
12, R12I18, 5,457273, -48,85556, -25
12, R12I18, 3,898049, -45,62574, -25
12, R12I18, 2,37594, -42,58156, -25
12, R12I18, 0,8167386, -39,79724, -25
12, R12I18, 0, -36,79017, -25
12, R12I18, -0,1485062, -33,67172, -25
12, R12I18, 0, -30,07069, -25
12, R12I18, 0,6311172, -27,06361, -25
12, R12I18, 0,890969, -23,83379, -25
12, R12I18, -1,076613, -21,19798, -25
12, R12I18, -3,675313, -19,26751, -25
12, R12I18, -6,496748, -17,52266, -25
12, R12I18, -9,429575, -15,66645, -25
12, R12I18, -12,02827, -14,18148, -25
12, R12I18, -15,1467, -12,62228, -25
12, R12I18, -18,00527, -10,84029, -25
12, R12I18, -19,15614, -7,981742, -25
12, R12I18, -18,04241, -4,937547, -25
12, R12I18, -17,44841, -1,967605, -25
12, R12I18, -19,60161, 0,1113683, -25
12, R12I18, -22,60869, 1,002337, -25
12, R12I18, -25,43013, 2,07895, -25
12, R12I18, -28,10308, 3,563921, -25
12, R12I18, -30,18203, 5,902746, -25
12, R12I18, -30,7389, 9,021194, -25
12, R12I18, -29,55094, 11,87975, -25
12, R12I18, -27,65759, 14,36708, -25
12, R12I18, -25,50438, 16,48317, -25
12, R12I18, -23,23981, 19,00761, -25
12, R12I18, -21,42071, 21,64345, -25
12, R12I18, -19,60161, 24,09364, -25
12, R12I18, -16,63167, 23,83377, -25
12, R12I18, -13,55036, 23,46252, -25
12, R12I18, -10,65467, 24,61339, -25
12, R12I18, -8,427216, 27,21209, -25
12, R12I18, -6,051252, 29,25393, -25
12, R12I18, -2,969942, 30,51614, -25
12, R12I18, 0,1856214, 31,55561, -25
12, R12I18, 2,598699, 33,78307, -25
12, R12I18, 3,007057, 36,97577, -25
12, R12I18, 4,38066, 39,68584, -25
12, R12I18, 7,016475, 41,24506, -25
12, R12I18, 10,35766, 42,28454, -25
12, R12I18, 13,55036, 43,21264, -25
12, R12I18, 16,92866, 44,28926, -25
12, R12I18, 20,15848, 45,25448, -25
12, R12I18, 23,38829, 45,77423, -25
12, R12I18, 26,39535, 46,62808, -25
12, R12I18, 29,40243, 47,70467, -25
12, R12I18, 32,59511, 47,63044, -25
12, R12I18, 35,45368, 45,92271, -25
12, R12I18, 38,86912, 46,25684, -25
12, R12I18, 42,0618, 45,8856, -25
12, R12I18, 44,84612, 44,215, -25
12, R12I18, 140,7381, -69,38528, -35
12, R12I18, 137,8424, -71,01876, -35
12, R12I18, 134,6126, -72,39235, -35
12, R12I18, 131,4571, -73,65457, -35
12, R12I18, 128,5614, -74,58268, -35
12, R12I18, 125,5914, -75,62217, -35
12, R12I18, 122,5101, -76,62451, -35
12, R12I18, 119,503, -78,77773, -35
12, R12I18, 116,9043, -80,29983, -35
12, R12I18, 114,0087, -81,74767, -35
12, R12I18, 111,1872, -83,12126, -35
12, R12I18, 108,4029, -84,60623, -35
12, R12I18, 105,1731, -85,38585, -35
12, R12I18, 101,9433, -85,75709, -35
12, R12I18, 98,82483, -85,68285, -35
12, R12I18, 95,78061, -85,20023, -35
12, R12I18, 92,62505, -84,60623, -35
12, R12I18, 89,54376, -83,90088, -35
12, R12I18, 86,75944, -82,8614, -35
12, R12I18, 83,67811, -81,82191, -35
12, R12I18, 80,59682, -80,81956, -35
12, R12I18, 77,29275, -79,22321, -35
12, R12I18, 74,43415, -77,84962, -35
12, R12I18, 71,53848, -75,99341, -35
12, R12I18, 68,79128, -74,6198, -35
12, R12I18, 65,96984, -73,43184, -35
12, R12I18, 62,62866, -71,76125, -35
12, R12I18, 59,6216, -70,42477, -35
12, R12I18, 56,4289, -68,86555, -35
12, R12I18, 53,42182, -67,38057, -35
12, R12I18, 50,60038, -65,70998, -35
12, R12I18, 47,7047, -64,26214, -35
12, R12I18, 44,95749, -62,70291, -35
12, R12I18, 42,39593, -60,77246, -35
12, R12I18, 39,68584, -58,32225, -35
12, R12I18, 37,3099, -56,28041, -35
12, R12I18, 34,78545, -54,64695, -35
12, R12I18, 32,00113, -52,86498, -35
12, R12I18, 29,10542, -51,30577, -35
12, R12I18, 26,13548, -50,63752, -35
12, R12I18, 23,05417, -50,63752, -35
12, R12I18, 19,41599, -50,86027, -35
12, R12I18, 15,81493, -51,23151, -35
12, R12I18, 12,51089, -51,78838, -35
12, R12I18, 9,429552, -52,08538, -35
12, R12I18, 5,902746, -52,19675, -35
12, R12I18, 2,821436, -52,34524, -35
12, R12I18, -0,5568641, -51,67701, -35
12, R12I18, -3,452553, -50,34053, -35
12, R12I18, -5,160284, -47,77896, -35
12, R12I18, -5,197399, -44,4749, -35
12, R12I18, -4,120808, -40,72535, -35
12, R12I18, -3,155563, -37,53266, -35
12, R12I18, -4,492051, -34,78545, -35
12, R12I18, -7,016497, -33,07774, -35
12, R12I18, -10,09781, -31,77839, -35
12, R12I18, -12,77076, -30,44193, -35
12, R12I18, -15,66645, -28,88271, -35
12, R12I18, -18,82201, -27,43485, -35
12, R12I18, -21,64345, -25,87563, -35
12, R12I18, -23,79667, -23,5368, -35
12, R12I18, -24,46491, -20,23275, -35
12, R12I18, -25,13314, -17,22567, -35
12, R12I18, -26,43249, -14,44135, -35
12, R12I18, -27,5091, -11,13731, -35
12, R12I18, -28,32582, -8,055972, -35
12, R12I18, -28,62283, -4,863294, -35
12, R12I18, -28,06597, -1,893352, -35
12, R12I18, -25,76426, 0,5197263, -35
12, R12I18, -22,60869, 1,967582, -35
12, R12I18, -19,30462, 3,155541, -35
12, R12I18, -16,29757, 4,417775, -35
12, R12I18, -13,21626, 5,939861, -35
12, R12I18, -10,24631, 7,350602, -35
12, R12I18, -7,164981, 8,649952, -35
12, R12I18, -3,823796, 10,09778, -35
12, R12I18, -0,7796234, 11,28577, -35
12, R12I18, 2,264572, 12,84499, -35
12, R12I18, 4,751903, 15,10956, -35
12, R12I18, 6,571002, 17,7454, -35
12, R12I18, 7,796098, 20,52972, -35
12, R12I18, 8,612837, 23,7224, -35
12, R12I18, 8,724205, 26,80371, -35
12, R12I18, 8,315825, 29,81079, -35
12, R12I18, 7,981719, 32,81785, -35
12, R12I18, 7,313487, 36,04766, -35
12, R12I18, 6,608117, 39,16609, -35
12, R12I18, 6,162621, 42,17317, -35
12, R12I18, 6,014137, 45,66284, -35
12, R12I18, 6,199759, 48,66992, -35
12, R12I18, 6,979359, 51,75123, -35
12, R12I18, 8,538584, 54,98104, -35
12, R12I18, 10,65467, 57,2085, -35
12, R12I18, 13,81024, 58,24797, -35
12, R12I18, 17,07717, 58,4336, -35
12, R12I18, 20,26985, 58,4336, -35
12, R12I18, 23,20267, 59,17608, -35
12, R12I18, 25,5415, 61,0323, -35
12, R12I18, 27,84321, 63,85373, -35
12, R12I18, 29,55091, 66,30395, -35
12, R12I18, 31,5185, 68,67989, -35
12, R12I18, 34,37707, 70,16486, -35
12, R12I18, 37,86676, 70,42474, -35
12, R12I18, 40,91096, 69,42237, -35
12, R12I18, 43,62103, 67,90028, -35
12, R12I18, 46,66522, 66,19258, -35
12, R12I18, 49,4124, 64,26212, -35
12, R12I18, 52,04824, 62,22028, -35
12, R12I18, 54,20144, 59,73295, -35
12, R12I18, 56,46601, 57,654, -35
12, R12I18, 59,06474, 56,20614, -35
12, R12I18, 62,07179, 54,90679, -35
12, R12I18, 65,22736, 54,05294, -35
12, R12I18, 68,71705, 53,12483, -35
12, R12I18, 72,13246, 52,53083, -35
12, R12I18, 75,10241, 52,0111, -35
12, R12I18, 78,25797, 51,49135, -35
12, R12I18, 81,48776, 51,083, -35
12, R12I18, 84,5691, 50,86024, -35
12, R12I18, 87,76177, 50,6375, -35
12, R12I18, 91,28858, 50,41476, -35
12, R12I18, 94,92678, 50,45188, -35
12, R12I18, 97,89672, 50,37762, -35
12, R12I18, 101,4978, 50,04352, -35
12, R12I18, 105,0988, 49,59802, -35
12, R12I18, 108,2544, 49,00402, -35
12, R12I18, 111,113, 48,11305, -35
12, R12I18, 114,0829, 47,2592, -35
12, R12I18, 117,3127, 46,55383, -35
12, R12I18, 120,2826, 45,69997, -35
12, R12I18, 123,2155, 44,80898, -35
12, R12I18, 126,0369, 43,36115, -35
12, R12I18, 128,1901, 41,17081, -35
12, R12I18, 130,1577, 38,49786, -35
12, R12I18, 130,0835, 35,23092, -35
12, R12I18, 128,6728, 32,52085, -35
12, R12I18, 126,5195, 30,2934, -35
12, R12I18, 125,5543, 27,47194, -35
12, R12I18, 126,0741, 24,42777, -35
12, R12I18, 127,5961, 21,49494, -35
12, R12I18, 129,9721, 19,49022, -35
12, R12I18, 132,6079, 17,26277, -35
12, R12I18, 135,5779, 15,62931, -35
12, R12I18, 138,2508, 14,25571, -35
12, R12I18, 141,2578, 12,95636, -35
12, R12I18, 144,1907, 11,47139, -35
12, R12I18, 146,9379, 10,24629, -35
12, R12I18, 149,6108, 8,76132, -35
12, R12I18, 152,655, 7,75896, -35
12, R12I18, 153,843, 4,863271, -35
12, R12I18, 154,9196, 2,07895, -35
12, R12I18, 156,9243, -0,594002, -35
12, R12I18, 159,4116, -2,672952, -35
12, R12I18, 161,7505, -4,566304, -35
12, R12I18, 163,2726, -7,276372, -35
12, R12I18, 164,015, -10,24631, -35
12, R12I18, 164,2007, -13,32762, -35
12, R12I18, 163,6809, -16,29757, -35
12, R12I18, 163,6438, -16,70595, -35
12, R12I18, 164,3492, -19,19325, -35
12, R12I18, 134,5755, -18,71064, -40
12, R12I18, 134,9096, -21,86621, -40
12, R12I18, 134,8354, -24,98466, -40
12, R12I18, 134,0558, -27,91746, -40
12, R12I18, 133,6845, -31,03591, -40
12, R12I18, 133,0534, -34,04296, -40
12, R12I18, 132,2367, -37,08716, -40
12, R12I18, 131,3086, -40,09423, -40
12, R12I18, 130,2319, -43,39829, -40
12, R12I18, 129,0068, -46,55385, -40
12, R12I18, 127,6333, -49,74654, -40
12, R12I18, 126,4081, -52,60511, -40
12, R12I18, 125,1088, -55,38943, -40
12, R12I18, 123,8466, -58,17376, -40
12, R12I18, 122,2131, -61,21794, -40
12, R12I18, 120,2826, -64,11364, -40
12, R12I18, 118,4636, -67,15782, -40
12, R12I18, 116,7558, -70,42477, -40
12, R12I18, 115,0852, -72,94921, -40
12, R12I18, 113,1548, -75,43655, -40
12, R12I18, 111,113, -78,18374, -40
12, R12I18, 108,8484, -80,67107, -40
12, R12I18, 105,9898, -81,56205, -40
12, R12I18, 103,0198, -81,37643, -40
12, R12I18, 100,0128, -80,48545, -40
12, R12I18, 96,78299, -79,14897, -40
12, R12I18, 93,40469, -77,70113, -40
12, R12I18, 90,50898, -76,95864, -40
12, R12I18, 87,50192, -76,14191, -40
12, R12I18, 84,27209, -75,39942, -40
12, R12I18, 81,00517, -74,6198, -40
12, R12I18, 77,8125, -74,13719, -40
12, R12I18, 74,84255, -73,43184, -40
12, R12I18, 71,64983, -72,28098, -40
12, R12I18, 68,71705, -71,13013, -40
12, R12I18, 65,70995, -69,75652, -40
12, R12I18, 62,88851, -68,42006, -40
12, R12I18, 60,17847, -66,71234, -40
12, R12I18, 56,72589, -64,63338, -40
12, R12I18, 53,64458, -63,11128, -40
12, R12I18, 50,82312, -61,92331, -40
12, R12I18, 47,55619, -60,51258, -40
12, R12I18, 44,77187, -59,43598, -40
12, R12I18, 41,69056, -58,28513, -40
12, R12I18, 38,64636, -56,87441, -40
12, R12I18, 35,56505, -55,31518, -40
12, R12I18, 32,8921, -54,01583, -40
12, R12I18, 29,92216, -52,56799, -40
12, R12I18, 27,02647, -51,67701, -40
12, R12I18, 23,8709, -51,04589, -40
12, R12I18, 20,86385, -51,08302, -40
12, R12I18, 17,52266, -51,26864, -40
12, R12I18, 14,47847, -51,71413, -40
12, R12I18, 10,84029, -51,974, -40
12, R12I18, 7,276349, -52,12249, -40
12, R12I18, 4,306407, -52,271, -40
12, R12I18, 1,262212, -52,30811, -40
12, R12I18, -2,041835, -52,34524, -40
12, R12I18, -5,08603, -52,30811, -40
12, R12I18, -7,981719, -51,60276, -40
12, R12I18, -10,06069, -49,3753, -40
12, R12I18, -10,50617, -46,29399, -40
12, R12I18, -9,875072, -43,02705, -40
12, R12I18, -8,538584, -39,72299, -40
12, R12I18, -7,536223, -36,71592, -40
12, R12I18, -9,206816, -34,0801, -40
12, R12I18, -11,69415, -32,00113, -40
12, R12I18, -14,18148, -30,29342, -40
12, R12I18, -16,9658, -28,40009, -40
12, R12I18, -20,04711, -26,91512, -40
12, R12I18, -23,05419, -25,65289, -40
12, R12I18, -25,80137, -24,46491, -40
12, R12I18, -28,25159, -22,53444, -40
12, R12I18, -30,1078, -20,08425, -40
12, R12I18, -31,62989, -17,07719, -40
12, R12I18, -32,55799, -13,95874, -40
12, R12I18, -32,52088, -10,58044, -40
12, R12I18, -31,44427, -7,38774, -40
12, R12I18, -29,92218, -4,603419, -40
12, R12I18, -27,73184, -2,338848, -40
12, R12I18, -24,57627, -1,262234, -40
12, R12I18, -21,79195, -0,2227592, -40
12, R12I18, -18,63639, 0,5197263, -40
12, R12I18, -15,55508, 1,113706, -40
12, R12I18, -12,62225, 1,67057, -40
12, R12I18, -9,652311, 2,264572, -40
12, R12I18, -6,496748, 3,601037, -40
12, R12I18, -3,898049, 5,457251, -40
12, R12I18, -1,150866, 7,721845, -40
12, R12I18, 1,447833, 10,09778, -40
12, R12I18, 3,935164, 12,80785, -40
12, R12I18, 5,68001, 15,33232, -40
12, R12I18, 7,239234, 18,0795, -40
12, R12I18, 7,721845, 21,04945, -40
12, R12I18, 6,311127, 24,05653, -40
12, R12I18, 4,826156, 27,36057, -40
12, R12I18, 3,638175, 30,6275, -40
12, R12I18, 2,37594, 33,56033, -40
12, R12I18, 1,225097, 36,67878, -40
12, R12I18, 1,113728, 39,76009, -40
12, R12I18, 1,596339, 42,80429, -40
12, R12I18, 2,561561, 46,29395, -40
12, R12I18, 3,489668, 49,11541, -40
12, R12I18, 5,011777, 52,41946, -40
12, R12I18, 6,608117, 55,24092, -40
12, R12I18, 8,872688, 58,13661, -40
12, R12I18, 11,54564, 60,47543, -40
12, R12I18, 14,14434, 62,44302, -40
12, R12I18, 17,41127, 63,85373, -40
12, R12I18, 20,30698, 64,5591, -40
12, R12I18, 23,31404, 65,96982, -40
12, R12I18, 26,06125, 68,12302, -40
12, R12I18, 28,43719, 69,94212, -40
12, R12I18, 31,11014, 71,94685, -40
12, R12I18, 33,89446, 73,76591, -40
12, R12I18, 37,3099, 75,10241, -40
12, R12I18, 40,65108, 75,51077, -40
12, R12I18, 43,84376, 75,17664, -40
12, R12I18, 46,85084, 73,80305, -40
12, R12I18, 49,56091, 72,31808, -40
12, R12I18, 52,38234, 70,202, -40
12, R12I18, 54,94393, 67,97454, -40
12, R12I18, 57,87673, 65,82133, -40
12, R12I18, 60,58682, 63,48249, -40
12, R12I18, 63,25975, 61,25503, -40
12, R12I18, 65,82133, 59,73295, -40
12, R12I18, 68,86551, 58,50785, -40
12, R12I18, 71,64983, 56,6145, -40
12, R12I18, 73,61743, 53,75595, -40
12, R12I18, 74,99101, 50,67461, -40
12, R12I18, 75,91912, 47,5933, -40
12, R12I18, 76,40176, 44,40062, -40
12, R12I18, 77,21848, 41,50494, -40
12, R12I18, 79,3717, 39,42596, -40
12, R12I18, 82,34164, 38,46074, -40
12, R12I18, 85,23735, 39,53733, -40
12, R12I18, 87,91028, 41,35643, -40
12, R12I18, 90,5461, 43,02702, -40
12, R12I18, 93,44181, 44,73473, -40
12, R12I18, 96,63448, 45,77423, -40
12, R12I18, 99,60443, 44,84612, -40
12, R12I18, 100,0499, 41,4678, -40
12, R12I18, 100,6439, 38,53499, -40
12, R12I18, 101,1636, 35,60217, -40
12, R12I18, 102,6486, 32,48372, -40
12, R12I18, 104,5791, 30,03353, -40
12, R12I18, 106,658, 27,84318, -40
12, R12I18, 109,4795, 25,72712, -40
12, R12I18, 111,7069, 23,7224, -40
12, R12I18, 114,2685, 21,34644, -40
12, R12I18, 117,2013, 19,15612, -40
12, R12I18, 119,6144, 16,96578, -40
12, R12I18, 122,0646, 15,10956, -40
12, R12I18, 124,7004, 13,10487, -40
12, R12I18, 127,0393, 11,10015, -40
12, R12I18, 129,3038, 8,649952, -40
12, R12I18, 131,0116, 5,605757, -40
12, R12I18, 132,3852, 2,895689, -40
12, R12I18, 133,833, -0,3341275, -40
12, R12I18, 134,5013, -3,415438, -40
12, R12I18, 135,0952, -6,868014, -40
12, R12I18, 135,615, -10,58044, -40
12, R12I18, 135,8748, -13,77312, -40
12, R12I18, 136,0605, -16,74306, -40
12, R12I18, 134,5755, -18,71064, -40
12, R12I18, 84,53198, 53,90443, -45
12, R12I18, 85,46009, 50,93449, -45
12, R12I18, 85,38581, 47,48194, -45
12, R12I18, 85,01457, 44,215, -45
12, R12I18, 84,49487, 40,83668, -45
12, R12I18, 83,938, 37,53263, -45
12, R12I18, 83,34398, 34,48844, -45
12, R12I18, 82,67577, 31,18437, -45
12, R12I18, 81,9704, 27,80607, -45
12, R12I18, 80,9309, 24,61339, -45
12, R12I18, 79,85433, 21,53206, -45
12, R12I18, 78,59209, 18,82199, -45
12, R12I18, 76,99574, 15,62931, -45
12, R12I18, 75,32514, 12,32524, -45
12, R12I18, 73,54321, 9,281046, -45
12, R12I18, 71,64983, 6,45961, -45
12, R12I18, 69,86789, 3,972279, -45
12, R12I18, 67,90028, 1,336465, -45
12, R12I18, 65,74711, -1,076613, -45
12, R12I18, 63,48249, -3,452576, -45
12, R12I18, 60,88379, -5,457273, -45
12, R12I18, 58,02524, -7,202119, -45
12, R12I18, 55,61216, -8,984079, -45
12, R12I18, 52,82784, -11,39716, -45
12, R12I18, 49,82078, -13,69887, -45
12, R12I18, 46,96221, -15,10958, -45
12, R12I18, 44,215, -16,66881, -45
12, R12I18, 40,94807, -18,59928, -45
12, R12I18, 37,82962, -20,12136, -45
12, R12I18, 35,00819, -21,64347, -45
12, R12I18, 31,85262, -23,5368, -45
12, R12I18, 28,54856, -25,13314, -45
12, R12I18, 25,096, -26,65525, -45
12, R12I18, 21,86618, -27,91746, -45
12, R12I18, 18,59925, -28,91982, -45
12, R12I18, 15,48083, -29,99643, -45
12, R12I18, 12,51089, -30,96165, -45
12, R12I18, 9,021194, -31,51852, -45
12, R12I18, 5,531504, -31,55566, -45
12, R12I18, 2,710068, -30,5533, -45
12, R12I18, 0,3712428, -28,58572, -45
12, R12I18, -1,29935, -25,50438, -45
12, R12I18, -2,116088, -22,01471, -45
12, R12I18, -3,00708, -18,37654, -45
12, R12I18, -3,563944, -14,92396, -45
12, R12I18, -4,566281, -11,73129, -45
12, R12I18, -7,164981, -9,540943, -45
12, R12I18, -9,949302, -8,464354, -45
12, R12I18, -13,06775, -7,313487, -45
12, R12I18, -16,40894, -6,274012, -45
12, R12I18, -19,86149, -5,345905, -45
12, R12I18, -23,23981, -3,972302, -45
12, R12I18, -25,28164, -1,633477, -45
12, R12I18, -26,69236, 1,225097, -45
12, R12I18, -28,36296, 4,195039, -45
12, R12I18, -29,77367, 6,830853, -45
12, R12I18, -31,48138, 10,20915, -45
12, R12I18, -32,81787, 13,40185, -45
12, R12I18, -33,56036, 16,3718, -45
12, R12I18, -33,85735, 19,49022, -45
12, R12I18, -33,74598, 22,86855, -45
12, R12I18, -33,56036, 26,02411, -45
12, R12I18, -32,40949, 29,10542, -45
12, R12I18, -30,44191, 31,62987, -45
12, R12I18, -27,58333, 33,93158, -45
12, R12I18, -25,05889, 35,75068, -45
12, R12I18, -22,46019, 37,71825, -45
12, R12I18, -19,97286, 39,38885, -45
12, R12I18, -17,48555, 41,05944, -45
12, R12I18, -14,8126, 42,87852, -45
12, R12I18, -13,25337, 45,62572, -45
12, R12I18, -12,95638, 48,85554, -45
12, R12I18, -12,80788, 51,97396, -45
12, R12I18, -11,73129, 54,9439, -45
12, R12I18, -8,798458, 56,57738, -45
12, R12I18, -5,123146, 57,43124, -45
12, R12I18, -1,70773, 58,84195, -45
12, R12I18, 1,373603, 60,73531, -45
12, R12I18, 4,046533, 62,96276, -45
12, R12I18, 6,088367, 65,26447, -45
12, R12I18, 7,907466, 67,71467, -45
12, R12I18, 9,355322, 70,38762, -45
12, R12I18, 10,54328, 73,24619, -45
12, R12I18, 11,43427, 76,40176, -45
12, R12I18, 11,87977, 79,48306, -45
12, R12I18, 12,548, 82,82425, -45
12, R12I18, 13,10487, 85,94268, -45
12, R12I18, 13,9216, 89,39526, -45
12, R12I18, 14,99819, 92,6993, -45
12, R12I18, 16,59456, 96,00337, -45
12, R12I18, 18,26515, 98,75055, -45
12, R12I18, 20,12136, 101,3864, -45
12, R12I18, 22,08894, 103,9851, -45
12, R12I18, 24,61339, 105,7299, -45
12, R12I18, 27,62045, 105,5443, -45
12, R12I18, 30,33054, 104,1707, -45
12, R12I18, 33,30048, 105,2473, -45
12, R12I18, 35,60217, 107,9202, -45
12, R12I18, 37,79251, 110,5932, -45
12, R12I18, 39,87146, 112,9692, -45
12, R12I18, 42,87854, 113,0434, -45
12, R12I18, 44,58625, 110,2962, -45
12, R12I18, 46,66522, 107,8831, -45
12, R12I18, 49,78365, 107,7346, -45
12, R12I18, 52,6051, 106,1383, -45
12, R12I18, 54,75831, 104,0593, -45
12, R12I18, 56,83726, 101,5349, -45
12, R12I18, 58,69349, 98,86195, -45
12, R12I18, 60,66105, 96,15186, -45
12, R12I18, 62,51727, 93,70166, -45
12, R12I18, 64,4106, 91,21432, -45
12, R12I18, 66,74944, 88,94975, -45
12, R12I18, 69,31103, 86,7223, -45
12, R12I18, 71,83545, 83,90084, -45
12, R12I18, 73,84017, 80,96804, -45
12, R12I18, 75,80778, 78,25797, -45
12, R12I18, 77,96096, 75,32514, -45
12, R12I18, 79,70583, 71,94685, -45
12, R12I18, 80,96806, 69,05113, -45
12, R12I18, 82,19313, 65,52432, -45
12, R12I18, 82,97273, 62,14602, -45
12, R12I18, 83,64099, 58,73059, -45
12, R12I18, 83,90084, 56,24326, -45
12, R12I18, 84,53198, 53,90443, -45
12, R12I18, 80,03996, 54,05294, -50
12, R12I18, 80,85667, 50,93449, -50
12, R12I18, 81,59915, 47,33343, -50
12, R12I18, 81,85901, 44,215, -50
12, R12I18, 81,9704, 40,79956, -50
12, R12I18, 81,89616, 37,45838, -50
12, R12I18, 81,82189, 34,41418, -50
12, R12I18, 81,07941, 31,40713, -50
12, R12I18, 79,07468, 26,80371, -50
12, R12I18, 78,03523, 24,01939, -50
12, R12I18, 77,03285, 20,60395, -50
12, R12I18, 75,84489, 17,33702, -50
12, R12I18, 74,65694, 14,5527, -50
12, R12I18, 73,50604, 11,80552, -50
12, R12I18, 72,2067, 8,946941, -50
12, R12I18, 70,9445, 6,236874, -50
12, R12I18, 69,42237, 3,601037, -50
12, R12I18, 67,56616, 0,890969, -50
12, R12I18, 65,85845, -1,70773, -50
12, R12I18, 63,92801, -4,454936, -50
12, R12I18, 61,8119, -6,868014, -50
12, R12I18, 59,58444, -9,169701, -50
12, R12I18, 56,8744, -11,99116, -50
12, R12I18, 54,53555, -14,3671, -50
12, R12I18, 51,82548, -16,48319, -50
12, R12I18, 48,92979, -18,67353, -50
12, R12I18, 46,18259, -20,78962, -50
12, R12I18, 43,10128, -23,16556, -50
12, R12I18, 40,50257, -25,13314, -50
12, R12I18, 37,34701, -26,87799, -50
12, R12I18, 33,93158, -28,7342, -50
12, R12I18, 30,66464, -30,77603, -50
12, R12I18, 27,62045, -32,29814, -50
12, R12I18, 24,46488, -33,41187, -50
12, R12I18, 20,97522, -34,11722, -50
12, R12I18, 17,55978, -33,89448, -50
12, R12I18, 14,51558, -33,22625, -50
12, R12I18, 11,80552, -31,18441, -50
12, R12I18, 10,43191, -28,43721, -50
12, R12I18, 9,578058, -24,46491, -50
12, R12I18, 9,132563, -21,27223, -50
12, R12I18, 7,796098, -17,93104, -50
12, R12I18, 6,273989, -14,99822, -50
12, R12I18, 3,935164, -12,73364, -50
12, R12I18, 1,336465, -11,02591, -50
12, R12I18, -1,930467, -9,39246, -50
12, R12I18, -4,974662, -8,204478, -50
12, R12I18, -8,093087, -6,942244, -50
12, R12I18, -10,95166, -5,717148, -50
12, R12I18, -13,77312, -4,417798, -50
12, R12I18, -17,11431, -2,895712, -50
12, R12I18, -19,97286, -0,9652448, -50
12, R12I18, -21,60633, 1,707708, -50
12, R12I18, -23,8709, 4,677649, -50
12, R12I18, -25,46727, 7,313464, -50
12, R12I18, -26,84085, 10,24629, -50
12, R12I18, -27,5091, 13,21623, -50
12, R12I18, -28,40007, 16,07481, -50
12, R12I18, -29,29106, 18,9705, -50
12, R12I18, -28,91982, 22,64579, -50
12, R12I18, -27,95457, 26,09836, -50
12, R12I18, -26,02413, 28,65992, -50
12, R12I18, -23,23981, 30,18203, -50
12, R12I18, -21,90332, 33,70884, -50
12, R12I18, -21,49496, 37,08714, -50
12, R12I18, -19,97286, 39,98283, -50
12, R12I18, -17,29993, 41,83904, -50
12, R12I18, -14,8126, 44,0665, -50
12, R12I18, -12,84501, 46,47958, -50
12, R12I18, -11,47141, 49,78365, -50
12, R12I18, -10,58042, 52,82784, -50
12, R12I18, -9,318207, 55,68639, -50
12, R12I18, -7,09075, 57,76537, -50
12, R12I18, -4,492051, 59,58444, -50
12, R12I18, -2,00472, 61,25503, -50
12, R12I18, 0,890969, 63,03702, -50
12, R12I18, 3,266932, 64,81898, -50
12, R12I18, 5,68001, 66,86081, -50
12, R12I18, 8,427216, 69,19964, -50
12, R12I18, 10,28343, 71,87259, -50
12, R12I18, 11,36002, 74,73116, -50
12, R12I18, 11,58278, 77,7011, -50
12, R12I18, 10,61753, 81,07941, -50
12, R12I18, 9,76368, 84,01223, -50
12, R12I18, 9,578058, 87,09354, -50
12, R12I18, 10,24629, 90,88023, -50
12, R12I18, 11,61989, 93,66454, -50
12, R12I18, 14,62695, 95,11238, -50
12, R12I18, 17,26279, 97,04285, -50
12, R12I18, 18,9705, 99,56729, -50
12, R12I18, 20,67823, 102,3145, -50
12, R12I18, 22,31168, 104,8018, -50
12, R12I18, 24,87326, 106,5838, -50
12, R12I18, 27,84321, 107,0293, -50
12, R12I18, 31,25865, 107,8089, -50
12, R12I18, 34,52558, 109,8878, -50
12, R12I18, 37,16139, 112,1524, -50
12, R12I18, 39,72298, 113,8601, -50
12, R12I18, 42,8414, 113,6374, -50
12, R12I18, 44,25214, 110,9273, -50
12, R12I18, 46,85084, 108,9597, -50
12, R12I18, 49,89501, 108,44, -50
12, R12I18, 52,97635, 106,7694, -50
12, R12I18, 55,35229, 104,8018, -50
12, R12I18, 57,35698, 102,166, -50
12, R12I18, 58,87912, 99,53017, -50
12, R12I18, 60,99518, 96,70872, -50
12, R12I18, 63,29687, 94,11002, -50
12, R12I18, 65,4501, 91,36283, -50
12, R12I18, 67,08357, 88,80125, -50
12, R12I18, 69,19964, 85,79419, -50
12, R12I18, 70,72173, 82,78711, -50
12, R12I18, 72,02107, 80,11418, -50
12, R12I18, 73,3947, 76,77299, -50
12, R12I18, 74,76828, 73,80305, -50
12, R12I18, 76,25325, 70,35048, -50
12, R12I18, 77,5526, 67,38054, -50
12, R12I18, 78,62921, 63,89087, -50
12, R12I18, 79,5202, 60,77242, -50
12, R12I18, 80,07706, 57,654, -50
12, R12I18, 80,18842, 56,98574, -50
12, R12I18, 80,03996, 54,05294, -50
12, R12I18, 77,66399, 45,10597, -55
12, R12I18, 78,48071, 41,76479, -55
12, R12I18, 78,77772, 38,72062, -55
12, R12I18, 78,62921, 35,75068, -55
12, R12I18, 77,25563, 31,36999, -55
12, R12I18, 76,40176, 28,36293, -55
12, R12I18, 75,62215, 24,79901, -55
12, R12I18, 74,8054, 21,68056, -55
12, R12I18, 73,72883, 18,41363, -55
12, R12I18, 73,02345, 14,88683, -55
12, R12I18, 72,09535, 11,76838, -55
12, R12I18, 70,83311, 8,278709, -55
12, R12I18, 69,60799, 5,345882, -55
12, R12I18, 68,30865, 2,37594, -55
12, R12I18, 66,52671, -0,9281296, -55
12, R12I18, 64,89323, -4,120808, -55
12, R12I18, 63,11125, -7,016497, -55
12, R12I18, 61,06941, -9,949325, -55
12, R12I18, 59,39882, -12,43666, -55
12, R12I18, 57,39415, -14,84973, -55
12, R12I18, 54,86967, -17,48555, -55
12, R12I18, 52,4566, -19,93574, -55
12, R12I18, 50,04352, -22,05183, -55
12, R12I18, 47,44482, -24,05655, -55
12, R12I18, 44,95749, -26,1355, -55
12, R12I18, 42,54441, -27,91746, -55
12, R12I18, 39,61161, -29,73656, -55
12, R12I18, 37,01291, -31,22153, -55
12, R12I18, 34,15434, -32,52088, -55
12, R12I18, 31,11014, -33,82023, -55
12, R12I18, 27,76895, -35,19383, -55
12, R12I18, 24,35352, -36,41893, -55
12, R12I18, 21,08658, -37,23567, -55
12, R12I18, 17,85677, -37,68116, -55
12, R12I18, 14,47847, -38,12664, -55
12, R12I18, 10,58042, -38,42365, -55
12, R12I18, 7,016475, -38,49788, -55
12, R12I18, 4,009417, -38,16377, -55
12, R12I18, 1,039475, -37,38415, -55
12, R12I18, -2,413078, -36,23331, -55
12, R12I18, -5,234537, -35,08246, -55
12, R12I18, -8,167341, -33,33762, -55
12, R12I18, -10,72892, -31,40715, -55
12, R12I18, -12,80788, -28,99407, -55
12, R12I18, -14,40421, -26,02413, -55
12, R12I18, -15,48083, -22,83145, -55
12, R12I18, -16,59456, -19,5645, -55
12, R12I18, -18,00527, -16,70595, -55
12, R12I18, -19,63875, -14,03299, -55
12, R12I18, -21,64345, -11,69417, -55
12, R12I18, -23,79667, -9,206839, -55
12, R12I18, -25,61575, -6,682393, -55
12, R12I18, -27,21209, -4,083693, -55
12, R12I18, -27,95457, -0,6682551, -55
12, R12I18, -27,99171, 2,450193, -55
12, R12I18, -27,3606, 5,605757, -55
12, R12I18, -25,46727, 8,872688, -55
12, R12I18, -23,64817, 11,36002, -55
12, R12I18, -22,01469, 14,1072, -55
12, R12I18, -20,41835, 17,22565, -55
12, R12I18, -19,15614, 20,38121, -55
12, R12I18, -17,85679, 23,90802, -55
12, R12I18, -16,59456, 27,28632, -55
12, R12I18, -14,88685, 29,92216, -55
12, R12I18, -11,91691, 31,40713, -55
12, R12I18, -8,649952, 32,48372, -55
12, R12I18, -5,494388, 32,96635, -55
12, R12I18, -2,524446, 33,3376, -55
12, R12I18, 0,6311172, 33,56033, -55
12, R12I18, 3,749543, 34,45132, -55
12, R12I18, 5,828516, 36,64164, -55
12, R12I18, 5,38302, 39,94571, -55
12, R12I18, 3,526806, 42,28454, -55
12, R12I18, 1,373603, 44,88324, -55
12, R12I18, 0,8167386, 48,0388, -55
12, R12I18, 2,710068, 51,083, -55
12, R12I18, 4,826156, 53,64456, -55
12, R12I18, 6,830853, 56,68875, -55
12, R12I18, 8,76132, 59,43596, -55
12, R12I18, 10,87741, 62,44302, -55
12, R12I18, 12,88213, 65,11597, -55
12, R12I18, 15,18382, 67,3063, -55
12, R12I18, 18,15376, 69,68225, -55
12, R12I18, 20,78959, 71,38998, -55
12, R12I18, 23,75954, 72,54082, -55
12, R12I18, 27,50908, 73,06057, -55
12, R12I18, 30,92452, 72,98632, -55
12, R12I18, 33,96871, 72,87495, -55
12, R12I18, 37,27276, 72,46657, -55
12, R12I18, 40,35409, 70,79597, -55
12, R12I18, 42,61866, 68,5314, -55
12, R12I18, 44,99463, 65,93271, -55
12, R12I18, 46,88795, 63,07413, -55
12, R12I18, 49,00404, 60,17844, -55
12, R12I18, 50,89737, 57,69111, -55
12, R12I18, 52,6051, 55,20378, -55
12, R12I18, 55,68641, 54,31281, -55
12, R12I18, 58,91623, 55,24092, -55
12, R12I18, 61,77478, 56,13189, -55
12, R12I18, 65,00462, 56,50313, -55
12, R12I18, 68,1973, 56,54027, -55
12, R12I18, 71,13013, 55,12953, -55
12, R12I18, 73,09769, 52,86496, -55
12, R12I18, 74,54554, 50,04352, -55
12, R12I18, 75,882, 46,85082, -55
12, R12I18, 77,66399, 45,10597, -55
12, R12I18, 78,85195, 40,01997, -60
12, R12I18, 79,00046, 36,97577, -60
12, R12I18, 79,33458, 33,37471, -60
12, R12I18, 78,92622, 30,25626, -60
12, R12I18, 78,51782, 26,98933, -60
12, R12I18, 78,03523, 23,8709, -60
12, R12I18, 76,95862, 20,56684, -60
12, R12I18, 76,03051, 17,52264, -60
12, R12I18, 75,10241, 14,58984, -60
12, R12I18, 73,84017, 11,47139, -60
12, R12I18, 72,6151, 8,724182, -60
12, R12I18, 71,31575, 5,902746, -60
12, R12I18, 69,49665, 3,155541, -60
12, R12I18, 67,19492, 1,07659, -60
12, R12I18, 64,5591, -1,113751, -60
12, R12I18, 62,25742, -3,081333, -60
12, R12I18, 59,2132, -5,271652, -60
12, R12I18, 56,28039, -6,719508, -60
12, R12I18, 53,34759, -8,09311, -60
12, R12I18, 50,0064, -9,540943, -60
12, R12I18, 46,88795, -10,32057, -60
12, R12I18, 43,62103, -11,17442, -60
12, R12I18, 40,6882, -11,69417, -60
12, R12I18, 37,05002, -11,87979, -60
12, R12I18, 33,96871, -11,91691, -60
12, R12I18, 31,03588, -11,02591, -60
12, R12I18, 27,65759, -10,02358, -60
12, R12I18, 24,72476, -8,872711, -60
12, R12I18, 21,60633, -7,610499, -60
12, R12I18, 18,45077, -6,125528, -60
12, R12I18, 16,00055, -4,232177, -60
12, R12I18, 13,55036, -2,00472, -60
12, R12I18, 11,21154, 0,1484835, -60
12, R12I18, 8,315825, 2,227434, -60
12, R12I18, 5,457273, 3,563921, -60
12, R12I18, 2,227457, 4,38066, -60
12, R12I18, -0,4454958, 5,75424, -60
12, R12I18, -2,858574, 7,75896, -60
12, R12I18, -4,640534, 10,32054, -60
12, R12I18, -6,08839, 13,29049, -60
12, R12I18, -7,350602, 16,07481, -60
12, R12I18, -8,575722, 18,85913, -60
12, R12I18, -10,02355, 22,05181, -60
12, R12I18, -11,24865, 24,87324, -60
12, R12I18, -11,95402, 28,02881, -60
12, R12I18, -12,32526, 31,18437, -60
12, R12I18, -11,7684, 35,0453, -60
12, R12I18, -11,02591, 37,97813, -60
12, R12I18, -9,318207, 40,6882, -60
12, R12I18, -6,68237, 43,02702, -60
12, R12I18, -3,898049, 45,2916, -60
12, R12I18, -1,29935, 47,44482, -60
12, R12I18, 1,262212, 50,15489, -60
12, R12I18, 2,895689, 52,90207, -60
12, R12I18, 4,603396, 55,76064, -60
12, R12I18, 6,533864, 58,28509, -60
12, R12I18, 8,649952, 60,66105, -60
12, R12I18, 11,10015, 63,1855, -60
12, R12I18, 12,77074, 65,70995, -60
12, R12I18, 14,47847, 68,19728, -60
12, R12I18, 16,9658, 69,86787, -60
12, R12I18, 19,82435, 71,01874, -60
12, R12I18, 23,01705, 72,83781, -60
12, R12I18, 25,80137, 74,61977, -60
12, R12I18, 28,69706, 75,84489, -60
12, R12I18, 32,03825, 76,06763, -60
12, R12I18, 35,15669, 75,47365, -60
12, R12I18, 37,60689, 73,69167, -60
12, R12I18, 40,61395, 72,13246, -60
12, R12I18, 43,62103, 71,38998, -60
12, R12I18, 46,55383, 70,49899, -60
12, R12I18, 48,66992, 68,16016, -60
12, R12I18, 47,55619, 65,30159, -60
12, R12I18, 46,73945, 62,33165, -60
12, R12I18, 46,59097, 59,28745, -60
12, R12I18, 47,48194, 56,09477, -60
12, R12I18, 49,4124, 53,16195, -60
12, R12I18, 51,71411, 50,93449, -60
12, R12I18, 54,57269, 49,82076, -60
12, R12I18, 57,654, 51,93685, -60
12, R12I18, 60,2527, 53,79306, -60
12, R12I18, 63,18552, 55,31515, -60
12, R12I18, 66,2297, 56,42888, -60
12, R12I18, 69,23676, 56,46601, -60
12, R12I18, 72,2067, 55,24092, -60
12, R12I18, 74,69405, 53,01346, -60
12, R12I18, 76,66161, 50,6375, -60
12, R12I18, 78,10947, 47,89029, -60
12, R12I18, 78,92622, 44,58625, -60
12, R12I18, 78,96334, 42,91565, -60
12, R12I18, 78,85195, 40,01997, -60
12, R12I18, 50,11777, 30,18203, -65
12, R12I18, 50,0064, 27,13784, -65
12, R12I18, 49,11541, 23,7224, -65
12, R12I18, 48,22442, 20,75246, -65
12, R12I18, 47,22208, 17,81963, -65
12, R12I18, 45,95985, 14,47845, -65
12, R12I18, 44,69762, 11,58276, -65
12, R12I18, 43,36115, 8,687067, -65
12, R12I18, 41,72767, 5,271629, -65
12, R12I18, 39,94571, 2,413055, -65
12, R12I18, 37,71825, 0,1484835, -65
12, R12I18, 35,34232, -1,744846, -65
12, R12I18, 31,96399, -2,00472, -65
12, R12I18, 28,9198, -1,633477, -65
12, R12I18, 25,72712, -0,7053703, -65
12, R12I18, 22,46019, 0,3712201, -65
12, R12I18, 19,67587, 1,819076, -65
12, R12I18, 17,11428, 3,67529, -65
12, R12I18, 13,9216, 4,343522, -65
12, R12I18, 10,61753, 4,937524, -65
12, R12I18, 7,796098, 6,051252, -65
12, R12I18, 5,420135, 7,870328, -65
12, R12I18, 3,786681, 10,80315, -65
12, R12I18, 1,07659, 12,58512, -65
12, R12I18, -1,893352, 14,21859, -65
12, R12I18, -4,900409, 15,62931, -65
12, R12I18, -7,461993, 18,00525, -65
12, R12I18, -8,575722, 20,82671, -65
12, R12I18, -8,204478, 24,502, -65
12, R12I18, -7,239234, 27,6947, -65
12, R12I18, -5,865631, 30,36765, -65
12, R12I18, -3,898049, 32,96635, -65
12, R12I18, -1,410718, 35,08242, -65
12, R12I18, 0,4826111, 37,53263, -65
12, R12I18, 0,9652221, 40,76245, -65
12, R12I18, -0,1485062, 43,99224, -65
12, R12I18, 0,1484835, 47,18494, -65
12, R12I18, 1,744846, 49,74651, -65
12, R12I18, 4,603396, 51,78834, -65
12, R12I18, 7,573339, 52,93921, -65
12, R12I18, 10,54328, 54,20142, -65
12, R12I18, 13,25337, 56,65164, -65
12, R12I18, 15,07245, 59,2132, -65
12, R12I18, 18,07953, 61,32928, -65
12, R12I18, 21,38357, 61,25503, -65
12, R12I18, 24,65051, 60,02994, -65
12, R12I18, 27,32346, 58,69347, -65
12, R12I18, 30,18203, 56,68875, -65
12, R12I18, 32,85498, 54,53555, -65
12, R12I18, 35,30518, 52,08535, -65
12, R12I18, 37,82962, 49,78365, -65
12, R12I18, 40,27984, 47,33343, -65
12, R12I18, 42,54441, 44,80898, -65
12, R12I18, 44,58625, 42,61866, -65
12, R12I18, 46,92507, 40,31696, -65
12, R12I18, 49,00404, 38,01524, -65
12, R12I18, 50,15489, 35,0453, -65
12, R12I18, 50,56327, 32,8921, -65
12, R12I18, 50,11777, 30,18203, -65
12, R12I18, 35,08244, 40,83668, -70
12, R12I18, 36,01055, 37,71825, -70
12, R12I18, 36,53027, 34,74831, -70
12, R12I18, 37,16139, 31,55561, -70
12, R12I18, 37,53263, 28,51144, -70
12, R12I18, 37,38415, 25,35588, -70
12, R12I18, 37,05002, 22,23743, -70
12, R12I18, 37,01291, 18,93336, -70
12, R12I18, 36,79015, 15,96342, -70
12, R12I18, 35,89918, 13,03061, -70
12, R12I18, 34,45132, 9,986417, -70
12, R12I18, 32,85498, 7,202096, -70
12, R12I18, 30,66464, 4,900386, -70
12, R12I18, 27,43483, 3,823796, -70
12, R12I18, 24,09364, 3,452553, -70
12, R12I18, 21,1237, 3,712405, -70
12, R12I18, 18,22801, 4,417775, -70
12, R12I18, 15,03533, 5,717125, -70
12, R12I18, 11,95402, 7,127843, -70
12, R12I18, 9,281069, 8,946941, -70
12, R12I18, 6,68237, 10,5804, -70
12, R12I18, 4,120786, 12,39949, -70
12, R12I18, 2,30171, 14,96108, -70
12, R12I18, 0,7053477, 17,7454, -70
12, R12I18, -1,039475, 20,60395, -70
12, R12I18, -1,113728, 24,20501, -70
12, R12I18, -1,336488, 27,58333, -70
12, R12I18, -2,30171, 30,44188, -70
12, R12I18, -3,118448, 33,30046, -70
12, R12I18, -4,046555, 36,53027, -70
12, R12I18, -4,529166, 40,01997, -70
12, R12I18, -4,789041, 43,10128, -70
12, R12I18, -4,566281, 46,2197, -70
12, R12I18, -4,009417, 49,4124, -70
12, R12I18, -3,526806, 52,86496, -70
12, R12I18, -2,784321, 55,90915, -70
12, R12I18, -1,744846, 59,62158, -70
12, R12I18, -0,8538538, 62,70289, -70
12, R12I18, 1,039475, 65,37584, -70
12, R12I18, 3,67529, 67,34342, -70
12, R12I18, 7,202096, 68,12302, -70
12, R12I18, 10,69179, 67,9374, -70
12, R12I18, 13,58748, 66,82368, -70
12, R12I18, 16,14906, 65,0046, -70
12, R12I18, 18,30226, 62,70289, -70
12, R12I18, 20,67823, 60,51255, -70
12, R12I18, 23,49966, 58,32223, -70
12, R12I18, 25,91274, 56,31751, -70
12, R12I18, 28,10308, 53,90443, -70
12, R12I18, 29,99641, 51,34287, -70
12, R12I18, 31,81551, 48,96691, -70
12, R12I18, 33,74595, 46,2197, -70
12, R12I18, 35,26806, 43,36115, -70
12, R12I18, 35,08244, 40,83668, -70
12, R12I18, 15,5922, 20,90096, -75
12, R12I18, 16,33468, 17,93102, -75
12, R12I18, 17,78251, 14,66407, -75
12, R12I18, 18,37652, 11,73126, -75
12, R12I18, 18,45077, 8,278709, -75
12, R12I18, 18,07953, 4,789018, -75
12, R12I18, 17,15142, 1,410718, -75
12, R12I18, 15,88919, -1,447856, -75
12, R12I18, 14,03297, -4,120808, -75
12, R12I18, 11,47139, -6,162643, -75
12, R12I18, 8,835573, -7,721868, -75
12, R12I18, 5,754263, -9,021217, -75
12, R12I18, 2,672952, -9,837955, -75
12, R12I18, -0,6682324, -9,132586, -75
12, R12I18, -3,118448, -6,979382, -75
12, R12I18, -5,271652, -4,343545, -75
12, R12I18, -6,979359, -1,447856, -75
12, R12I18, -8,278709, 1,262212, -75
12, R12I18, -10,20918, 4,120786, -75
12, R12I18, -12,17676, 7,239211, -75
12, R12I18, -13,95874, 10,32054, -75
12, R12I18, -15,7407, 13,51322, -75
12, R12I18, -17,70828, 16,78016, -75
12, R12I18, -19,52738, 19,78724, -75
12, R12I18, -21,30934, 22,4973, -75
12, R12I18, -22,83143, 25,50436, -75
12, R12I18, -23,83379, 28,40005, -75
12, R12I18, -23,83379, 31,59275, -75
12, R12I18, -22,64581, 34,37707, -75
12, R12I18, -19,41599, 35,56505, -75
12, R12I18, -15,70356, 36,08478, -75
12, R12I18, -12,02827, 36,23328, -75
12, R12I18, -8,835573, 36,19615, -75
12, R12I18, -5,048915, 35,71354, -75
12, R12I18, -1,893352, 35,08242, -75
12, R12I18, 1,410718, 34,41418, -75
12, R12I18, 4,38066, 33,56033, -75
12, R12I18, 7,202096, 32,18673, -75
12, R12I18, 10,17204, 30,44188, -75
12, R12I18, 12,84499, 28,58567, -75
12, R12I18, 15,25807, 25,61573, -75
12, R12I18, 16,44605, 23,12842, -75
12, R12I18, 15,5922, 20,90096, -75
