Report_Number, Iceberg_Number, X_Value, Y_Value, Z_Value
12, R12I27, 47,04691, -11,84756, -2,5
12, R12I27, 47,771, -12,8463, -2,5
12, R12I27, 48,30782, -13,98236, -2,5
12, R12I27, 48,93203, -14,80633, -2,5
12, R12I27, 49,54376, -15,63029, -2,5
12, R12I27, 50,23039, -16,57909, -2,5
12, R12I27, 50,43014, -17,65274, -2,5
12, R12I27, 50,49256, -18,65148, -2,5
12, R12I27, 50,51754, -19,86245, -2,5
12, R12I27, 50,4676, -20,92361, -2,5
12, R12I27, 50,26785, -21,93484, -2,5
12, R12I27, 49,86835, -23,00848, -2,5
12, R12I27, 49,40643, -23,93232, -2,5
12, R12I27, 48,84464, -24,86864, -2,5
12, R12I27, 48,18297, -25,77998, -2,5
12, R12I27, 47,48386, -26,57898, -2,5
12, R12I27, 46,72232, -27,30306, -2,5
12, R12I27, 45,84842, -28,03963, -2,5
12, R12I27, 44,96204, -28,58894, -2,5
12, R12I27, 44,01323, -29,21315, -2,5
12, R12I27, 43,07691, -29,86234, -2,5
12, R12I27, 42,17805, -30,34922, -2,5
12, R12I27, 41,1044, -30,88605, -2,5
12, R12I27, 40,08069, -31,23561, -2,5
12, R12I27, 3,639155, -33,83233, -7,5
12, R12I27, 2,44067, -33,695, -7,5
12, R12I27, 1,242177, -33,55768, -7,5
12, R12I27, 5,617305E-02, -33,48277, -7,5
12, R12I27, -1,154794, -33,3829, -7,5
12, R12I27, -2,228444, -33,23309, -7,5
12, R12I27, -3,239666, -33,04582, -7,5
12, R12I27, -4,363248, -32,85856, -7,5
12, R12I27, -5,599193, -32,64632, -7,5
12, R12I27, -6,722775, -32,30925, -7,5
12, R12I27, -7,783937, -31,95969, -7,5
12, R12I27, -8,732738, -31,64758, -7,5
12, R12I27, -9,768929, -31,31051, -7,5
12, R12I27, -10,85506, -30,91101, -7,5
12, R12I27, -11,90374, -30,524, -7,5
12, R12I27, -12,86503, -30,19941, -7,5
12, R12I27, -13,87625, -29,84985, -7,5
12, R12I27, -14,91244, -29,36297, -7,5
12, R12I27, -15,96112, -28,73875, -7,5
12, R12I27, -16,89744, -28,17696, -7,5
12, R12I27, -17,93363, -27,60269, -7,5
12, R12I27, -18,88243, -27,14077, -7,5
12, R12I27, -20,03099, -26,52904, -7,5
12, R12I27, -20,99228, -25,96725, -7,5
12, R12I27, -21,90363, -25,41794, -7,5
12, R12I27, -22,86491, -24,78124, -7,5
12, R12I27, -23,93856, -24,23194, -7,5
12, R12I27, -24,96227, -23,69512, -7,5
12, R12I27, -26,21069, -23,03345, -7,5
12, R12I27, -27,55899, -22,17204, -7,5
12, R12I27, -28,63264, -21,36056, -7,5
12, R12I27, -29,66883, -20,59902, -7,5
12, R12I27, -30,65509, -19,84996, -7,5
12, R12I27, -31,55395, -19,13836, -7,5
12, R12I27, -32,54021, -18,45173, -7,5
12, R12I27, -33,58889, -17,71516, -7,5
12, R12I27, -34,57514, -16,95362, -7,5
12, R12I27, -35,46153, -16,05475, -7,5
12, R12I27, -36,37288, -15,04353, -7,5
12, R12I27, -37,20932, -14,0323, -7,5
12, R12I27, -37,92092, -12,94617, -7,5
12, R12I27, -38,58259, -11,87253, -7,5
12, R12I27, -39,20681, -10,82385, -7,5
12, R12I27, -39,74363, -9,787658, -7,5
12, R12I27, -40,21803, -8,701527, -7,5
12, R12I27, -40,69243, -7,665335, -7,5
12, R12I27, -41,09193, -6,579203, -7,5
12, R12I27, -41,429, -5,45562, -7,5
12, R12I27, -41,71614, -4,381978, -7,5
12, R12I27, -41,91588, -3,233425, -7,5
12, R12I27, -42,07818, -2,172263, -7,5
12, R12I27, -42,24048, -0,8863866, -7,5
12, R12I27, -42,27793, 0,2371963, -7,5
12, R12I27, -42,26545, 1,44817, -7,5
12, R12I27, -42,24048, 2,721566, -7,5
12, R12I27, -42,16557, 3,920051, -7,5
12, R12I27, -42,02824, 4,95625, -7,5
12, R12I27, -41,61626, 5,880081, -7,5
12, R12I27, -40,90466, 6,84137, -7,5
12, R12I27, -40,14312, 7,590425, -7,5
12, R12I27, -39,38158, 8,239608, -7,5
12, R12I27, -38,76986, 9,275799, -7,5
12, R12I27, -38,10818, 10,04982, -7,5
12, R12I27, -37,03454, 10,34944, -7,5
12, R12I27, -36,38536, 11,11099, -7,5
12, R12I27, 38,98208, -31,29803, -2,5
12, R12I27, 37,88346, -31,26057, -2,5
12, R12I27, 36,88472, -31,08579, -2,5
12, R12I27, 35,72369, -31,18567, -2,5
12, R12I27, 34,73744, -31,6351, -2,5
12, R12I27, 33,86354, -32,29677, -2,5
12, R12I27, 33,22684, -33,15818, -2,5
12, R12I27, 32,8648, -34,15692, -2,5
12, R12I27, 32,59014, -35,16814, -2,5
12, R12I27, 31,7537, -35,94217, -2,5
12, R12I27, 30,60515, -35,9172, -2,5
12, R12I27, 29,60641, -36,09198, -2,5
12, R12I27, 28,58269, -36,49148, -2,5
12, R12I27, 27,62141, -36,94091, -2,5
12, R12I27, 26,68509, -37,3404, -2,5
12, R12I27, 25,76126, -37,81481, -2,5
12, R12I27, 24,75003, -38,05201, -2,5
12, R12I27, 23,65141, -37,81481, -2,5
12, R12I27, 22,62771, -37,39034, -2,5
12, R12I27, 22,27814, -36,32918, -2,5
12, R12I27, 22,50287, -35,33044, -2,5
12, R12I27, 21,64145, -34,75616, -2,5
12, R12I27, 20,66768, -35,2805, -2,5
12, R12I27, 19,60652, -35,61758, -2,5
12, R12I27, 18,52039, -35,79236, -2,5
12, R12I27, 17,50917, -35,86726, -2,5
12, R12I27, 16,6103, -35,29299, -2,5
12, R12I27, 15,64901, -35,01833, -2,5
12, R12I27, 14,6253, -35,2056, -2,5
12, R12I27, 13,87624, -35,96714, -2,5
12, R12I27, 13,08974, -36,7037, -2,5
12, R12I27, 12,07852, -36,40409, -2,5
12, R12I27, 11,05481, -35,85478, -2,5
12, R12I27, 10,3432, -35,03082, -2,5
12, R12I27, 9,556695, -34,15692, -2,5
12, R12I27, 8,7577, -33,25806, -2,5
12, R12I27, 8,183427, -32,23434, -2,5
12, R12I27, 7,871321, -31,17318, -2,5
12, R12I27, 7,584184, -30,0496, -2,5
12, R12I27, 7,222138, -28,92602, -2,5
12, R12I27, 6,810159, -27,83989, -2,5
12, R12I27, 6,410661, -26,70382, -2,5
12, R12I27, 5,986194, -25,5303, -2,5
12, R12I27, 5,724027, -24,45666, -2,5
12, R12I27, 5,499312, -23,34555, -2,5
12, R12I27, 5,112296, -22,33433, -2,5
12, R12I27, 4,625414, -21,29814, -2,5
12, R12I27, 4,001202, -20,3743, -2,5
12, R12I27, 3,38947, -19,56283, -2,5
12, R12I27, 2,602964, -18,62651, -2,5
12, R12I27, 1,803969, -17,70267, -2,5
12, R12I27, 1,079883, -16,9661, -2,5
12, R12I27, 0,2309556, -16,14214, -2,5
12, R12I27, -0,7677847, -15,39309, -2,5
12, R12I27, -1,741555, -14,76888, -2,5
12, R12I27, -2,690363, -14,30696, -2,5
12, R12I27, -3,714066, -14,01982, -2,5
12, R12I27, -4,725295, -14,23205, -2,5
12, R12I27, -5,549253, -14,88123, -2,5
12, R12I27, -6,660354, -14,95614, -2,5
12, R12I27, -7,671576, -14,40683, -2,5
12, R12I27, -8,645346, -13,75765, -2,5
12, R12I27, -9,569183, -12,99611, -2,5
12, R12I27, -10,4306, -12,33444, -2,5
12, R12I27, -11,47927, -12,1347, -2,5
12, R12I27, -12,44056, -12,50922, -2,5
12, R12I27, -13,35191, -13,03356, -2,5
12, R12I27, -14,22581, -13,5579, -2,5
12, R12I27, -15,12468, -14,13218, -2,5
12, R12I27, -16,01105, -14,63155, -2,5
12, R12I27, -17,08471, -14,99359, -2,5
12, R12I27, -18,05848, -15,34315, -2,5
12, R12I27, -19,15709, -15,46799, -2,5
12, R12I27, -20,2557, -15,18085, -2,5
12, R12I27, -21,25444, -14,76888, -2,5
12, R12I27, -22,1658, -14,23205, -2,5
12, R12I27, -23,00224, -13,60784, -2,5
12, R12I27, -23,87613, -12,75891, -2,5
12, R12I27, -24,60023, -11,93495, -2,5
12, R12I27, -25,28686, -11,01111, -2,5
12, R12I27, -26,06088, -9,987403, -2,5
12, R12I27, -26,67261, -9,175926, -2,5
12, R12I27, -27,38422, -8,277059, -2,5
12, R12I27, -28,1083, -7,44062, -2,5
12, R12I27, -28,84488, -6,454361, -2,5
12, R12I27, -29,4566, -5,592944, -2,5
12, R12I27, -30,11826, -4,656625, -2,5
12, R12I27, -30,79242, -3,745276, -2,5
12, R12I27, -31,54147, -2,746536, -2,5
12, R12I27, -32,14071, -1,810217, -2,5
12, R12I27, -32,82735, -0,7365741, -2,5
12, R12I27, -33,45156, 0,1872638, -2,5
12, R12I27, -34,16316, 1,173515, -2,5
12, R12I27, -34,94967, 2,084872, -2,5
12, R12I27, -35,76115, 2,971251, -2,5
12, R12I27, -36,46027, 3,757757, -2,5
12, R12I27, -37,10944, 4,569234, -2,5
12, R12I27, -37,93341, 5,555493, -2,5
12, R12I27, -38,60756, 6,304548, -2,5
12, R12I27, -39,3691, 7,165957, -2,5
12, R12I27, -40,15561, 8,077313, -2,5
12, R12I27, -40,87969, 8,976174, -2,5
12, R12I27, -41,69117, 9,974915, -2,5
12, R12I27, -42,35283, 10,72397, -2,5
12, R12I27, -42,98953, 11,59787, -2,5
12, R12I27, -43,53884, 12,48425, -2,5
12, R12I27, -44,02573, 13,40808, -2,5
12, R12I27, -44,23796, 14,44428, -2,5
12, R12I27, -44,4377, 15,56787, -2,5
12, R12I27, -44,40025, 16,59157, -2,5
12, R12I27, -43,67617, 17,49044, -2,5
12, R12I27, -42,72736, 18,01478, -2,5
12, R12I27, -41,75359, 18,35185, -2,5
12, R12I27, -40,75485, 18,58905, -2,5
12, R12I27, -39,71866, 18,87619, -2,5
12, R12I27, -38,84476, 19,45047, -2,5
12, R12I27, -38,18309, 20,34933, -2,5
12, R12I27, -37,58385, 21,19826, -2,5
12, R12I27, -36,77238, 21,82247, -2,5
12, R12I27, -35,77364, 22,29688, -2,5
12, R12I27, -34,89974, 22,78376, -2,5
12, R12I27, -34,50024, 23,77002, -2,5
12, R12I27, -34,4503, 24,91857, -2,5
12, R12I27, -34,4503, 25,96725, -2,5
12, R12I27, -34,52521, 27,10331, -2,5
12, R12I27, -34,50024, 28,31429, -2,5
12, R12I27, -34,35043, 29,50029, -2,5
12, R12I27, -33,96342, 30,62387, -2,5
12, R12I27, -33,37666, 31,75994, -2,5
12, R12I27, -32,7025, 32,62135, -2,5
12, R12I27, -31,81613, 33,10824, -2,5
12, R12I27, -30,6426, 33,5327, -2,5
12, R12I27, -29,53151, 33,65755, -2,5
12, R12I27, -28,53277, 33,52022, -2,5
12, R12I27, -27,52154, 33,29551, -2,5
12, R12I27, -26,46038, 33,10824, -2,5
12, R12I27, -25,58648, 33,62009, -2,5
12, R12I27, -24,79997, 34,53144, -2,5
12, R12I27, -24,03844, 35,29299, -2,5
12, R12I27, -23,13957, 35,94216, -2,5
12, R12I27, -22,19076, 36,45402, -2,5
12, R12I27, -21,21699, 36,9409, -2,5
12, R12I27, -20,13086, 37,37785, -2,5
12, R12I27, -18,98232, 37,57761, -2,5
12, R12I27, -17,97108, 37,64003, -2,5
12, R12I27, -16,87247, 37,55264, -2,5
12, R12I27, -15,88621, 37,07824, -2,5
12, R12I27, -14,67525, 36,74116, -2,5
12, R12I27, -13,56415, 36,35415, -2,5
12, R12I27, -12,6528, 35,90471, -2,5
12, R12I27, -11,56666, 35,25553, -2,5
12, R12I27, -10,63035, 34,7312, -2,5
12, R12I27, -9,781418, 34,18188, -2,5
12, R12I27, -8,857579, 33,39538, -2,5
12, R12I27, -7,896291, 32,70874, -2,5
12, R12I27, -7,022393, 32,03459, -2,5
12, R12I27, -6,136014, 31,32299, -2,5
12, R12I27, -5,249635, 30,524, -2,5
12, R12I27, -4,350767, 29,86234, -2,5
12, R12I27, -3,501839, 29,23812, -2,5
12, R12I27, -2,640423, 28,57645, -2,5
12, R12I27, -1,741555, 27,72753, -2,5
12, R12I27, -0,9924997, 27,00344, -2,5
12, R12I27, -0,193512, 26,3168, -2,5
12, R12I27, 0,5555432, 25,54278, -2,5
12, R12I27, 1,44193, 24,69385, -2,5
12, R12I27, 2,278376, 23,85741, -2,5
12, R12I27, 3,027431, 23,04593, -2,5
12, R12I27, 3,664125, 22,24694, -2,5
12, R12I27, 4,213436, 21,34807, -2,5
12, R12I27, 4,725287, 20,47418, -2,5
12, R12I27, 5,312048, 19,45047, -2,5
12, R12I27, 5,923772, 18,42676, -2,5
12, R12I27, 6,473083, 17,52789, -2,5
12, R12I27, 7,047355, 16,66648, -2,5
12, R12I27, 7,746478, 15,74264, -2,5
12, R12I27, 8,420623, 14,83129, -2,5
12, R12I27, 9,194649, 13,89497, -2,5
12, R12I27, 9,868801, 12,87126, -2,5
12, R12I27, 10,60537, 11,97239, -2,5
12, R12I27, 11,40436, 11,16092, -2,5
12, R12I27, 12,25329, 10,43683, -2,5
12, R12I27, 13,11471, 9,662808, -2,5
12, R12I27, 14,06351, 8,901272, -2,5
12, R12I27, 14,96238, 8,227118, -2,5
12, R12I27, 15,98609, 7,665328, -2,5
12, R12I27, 17,13464, 7,153476, -2,5
12, R12I27, 18,10841, 6,803918, -2,5
12, R12I27, 19,0697, 6,416902, -2,5
12, R12I27, 20,03098, 6,067344, -2,5
12, R12I27, 21,1296, 5,805178, -2,5
12, R12I27, 22,2282, 5,592944, -2,5
12, R12I27, 23,2644, 5,380711, -2,5
12, R12I27, 24,27563, 5,106055, -2,5
12, R12I27, 25,23692, 4,831408, -2,5
12, R12I27, 26,29808, 4,469361, -2,5
12, R12I27, 27,43415, 3,95751, -2,5
12, R12I27, 28,42041, 3,333297, -2,5
12, R12I27, 29,35673, 2,534302, -2,5
12, R12I27, 30,13074, 1,872638, -2,5
12, R12I27, 31,06706, 1,136064, -2,5
12, R12I27, 31,67879, 0,2496851, -2,5
12, R12I27, 32,04084, -0,7865065, -2,5
12, R12I27, 32,2281, -1,847668, -2,5
12, R12I27, 32,27803, -2,971251, -2,5
12, R12I27, 32,29053, -4,232165, -2,5
12, R12I27, 32,39039, -5,380718, -2,5
12, R12I27, 32,69002, -6,379458, -2,5
12, R12I27, 33,36417, -7,36571, -2,5
12, R12I27, 34,20061, -7,989923, -2,5
12, R12I27, 35,14941, -8,601654, -2,5
12, R12I27, 36,08573, -9,113505, -2,5
12, R12I27, 37,02205, -9,637846, -2,5
12, R12I27, 37,9334, -10,12473, -2,5
12, R12I27, 38,90718, -10,54919, -2,5
12, R12I27, 39,90592, -10,74895, -2,5
12, R12I27, 41,09193, -10,82385, -2,5
12, R12I27, 42,16557, -10,87379, -2,5
12, R12I27, 43,41399, -10,92372, -2,5
12, R12I27, 44,55006, -11,06105, -2,5
12, R12I27, 45,64868, -11,31074, -2,5
12, R12I27, 46,24791, -11,54793, -2,5
12, R12I27, 47,04691, -11,84756, -2,5
12, R12I27, 46,52258, -11,5729, -5
12, R12I27, 46,38523, -12,65904, -5
12, R12I27, 46,34779, -13,7951, -5
12, R12I27, 46,53506, -14,78136, -5
12, R12I27, 46,68486, -15,91742, -5
12, R12I27, 46,8971, -17,05349, -5
12, R12I27, 47,48386, -17,97733, -5
12, R12I27, 48,22043, -18,91364, -5
12, R12I27, 48,76974, -19,88742, -5
12, R12I27, 49,41891, -20,9361, -5
12, R12I27, 49,64364, -21,93484, -5
12, R12I27, 49,48134, -23,03345, -5
12, R12I27, 48,80719, -23,84492, -5
12, R12I27, 47,90833, -24,54404, -5
12, R12I27, 47,02195, -25,06838, -5
12, R12I27, 46,06065, -25,66763, -5
12, R12I27, 45,03695, -26,10458, -5
12, R12I27, 43,90088, -26,56649, -5
12, R12I27, 42,62748, -27,01593, -5
12, R12I27, 41,42899, -27,34052, -5
12, R12I27, 40,19305, -27,71504, -5
12, R12I27, 38,84476, -27,97721, -5
12, R12I27, 37,47149, -28,17696, -5
12, R12I27, 36,09822, -28,48907, -5
12, R12I27, 34,6875, -28,91353, -5
12, R12I27, 33,46404, -29,1757, -5
12, R12I27, 32,32797, -29,4129, -5
12, R12I27, 31,01712, -29,62514, -5
12, R12I27, 29,51901, -29,92476, -5
12, R12I27, 28,0209, -30,29929, -5
12, R12I27, 26,51031, -30,63636, -5
12, R12I27, 24,96226, -31,06083, -5
12, R12I27, 23,43919, -31,48529, -5
12, R12I27, 22,0784, -31,82237, -5
12, R12I27, 20,68016, -32,17192, -5
12, R12I27, 19,35683, -32,45906, -5
12, R12I27, 18,00854, -32,73372, -5
12, R12I27, 16,84749, -32,94595, -5
12, R12I27, 15,86124, -33,10824, -5
12, R12I27, 14,85001, -33,2206, -5
12, R12I27, 13,85127, -33,37041, -5
12, R12I27, 12,81508, -33,6201, -5
12, R12I27, 11,71647, -33,96965, -5
12, R12I27, 10,68028, -34,34418, -5
12, R12I27, 9,793891, -34,90598, -5
12, R12I27, 8,895031, -35,46777, -5
12, R12I27, 7,871321, -35,87975, -5
12, R12I27, 6,697798, -35,90472, -5
12, R12I27, 5,499312, -36,01707, -5
12, R12I27, 4,513053, -36,5539, -5
12, R12I27, 3,788968, -37,5027, -5
12, R12I27, 2,840168, -38,27672, -5
12, R12I27, 1,729066, -38,35163, -5
12, R12I27, 0,8801384, -37,7399, -5
12, R12I27, 0,2309556, -36,80358, -5
12, R12I27, -0,193512, -35,89223, -5
12, R12I27, -0,5680397, -34,88101, -5
12, R12I27, -1,01747, -33,79488, -5
12, R12I27, -1,56678, -32,87104, -5
12, R12I27, -2,54055, -32,18441, -5
12, R12I27, -3,576742, -31,85982, -5
12, R12I27, -4,600452, -31,67255, -5
12, R12I27, -5,624163, -31,57268, -5
12, R12I27, -6,710287, -31,54771, -5
12, R12I27, -7,896291, -31,52274, -5
12, R12I27, -8,982422, -31,42287, -5
12, R12I27, -10,106, -31,17318, -5
12, R12I27, -11,44182, -30,53649, -5
12, R12I27, -12,88999, -29,72501, -5
12, R12I27, -14,2383, -28,9385, -5
12, R12I27, -15,48672, -28,32677, -5
12, R12I27, -16,8475, -27,71504, -5
12, R12I27, -18,45797, -27,02841, -5
12, R12I27, -20,1059, -26,15451, -5
12, R12I27, -21,70388, -25,31807, -5
12, R12I27, -23,0397, -24,43169, -5
12, R12I27, -24,17576, -23,49537, -5
12, R12I27, -25,19947, -22,64644, -5
12, R12I27, -26,21069, -21,85993, -5
12, R12I27, -27,37173, -20,99852, -5
12, R12I27, -28,70754, -19,98729, -5
12, R12I27, -30,15572, -18,88868, -5
12, R12I27, -31,49153, -17,81503, -5
12, R12I27, -32,69003, -16,94113, -5
12, R12I27, -33,88851, -16,02979, -5
12, R12I27, -35,14942, -15,05601, -5
12, R12I27, -36,38536, -14,13218, -5
12, R12I27, -37,53391, -13,15841, -5
12, R12I27, -38,76986, -12,09725, -5
12, R12I27, -40,34287, -10,74895, -5
12, R12I27, -41,86595, -9,300769, -5
12, R12I27, -43,00201, -8,252096, -5
12, R12I27, -43,80101, -7,565463, -5
12, R12I27, -44,64994, -6,566722, -5
12, R12I27, -45,49886, -5,580463, -5
12, R12I27, -46,21047, -4,619174, -5
12, R12I27, -46,98449, -3,45814, -5
12, R12I27, -47,87087, -1,935059, -5
12, R12I27, -48,79471, -0,511859, -5
12, R12I27, -49,45638, 0,6616639, -5
12, R12I27, -49,86835, 1,585502, -5
12, R12I27, -50,3053, 2,534302, -5
12, R12I27, -50,85461, 3,595464, -5
12, R12I27, -51,42889, 4,594204, -5
12, R12I27, -51,91578, 5,493072, -5
12, R12I27, -52,2154, 6,516782, -5
12, R12I27, -52,46508, 7,690298, -5
12, R12I27, -52,67731, 8,86382, -5
12, R12I27, -52,7647, 10,02485, -5
12, R12I27, -52,7647, 11,12347, -5
12, R12I27, -52,60241, 12,1347, -5
12, R12I27, -52,25285, 13,25828, -5
12, R12I27, -51,72851, 14,18211, -5
12, R12I27, -51,07933, 14,9811, -5
12, R12I27, -50,39269, 15,84251, -5
12, R12I27, -49,65612, 16,62903, -5
12, R12I27, -48,80719, 17,35311, -5
12, R12I27, -47,83342, 18,05223, -5
12, R12I27, -46,87213, 18,72638, -5
12, R12I27, -45,9483, 19,3381, -5
12, R12I27, -45,0744, 19,93736, -5
12, R12I27, -44,31286, 20,68641, -5
12, R12I27, -44,05069, 21,78502, -5
12, R12I27, -43,86343, 22,89612, -5
12, R12I27, -43,08941, 23,62021, -5
12, R12I27, -42,27793, 22,90861, -5
12, R12I27, -41,62875, 22,03471, -5
12, R12I27, -40,75485, 22,57153, -5
12, R12I27, -40,54261, 23,60772, -5
12, R12I27, -40,58007, 24,63143, -5
12, R12I27, -40,19306, 25,56775, -5
12, R12I27, -39,08196, 25,34303, -5
12, R12I27, -38,14565, 25,7675, -5
12, R12I27, -37,79608, 26,7163, -5
12, R12I27, -37,64627, 27,83989, -5
12, R12I27, -37,3092, 28,82614, -5
12, R12I27, -36,58511, 29,55023, -5
12, R12I27, -35,54891, 30,1245, -5
12, R12I27, -34,72496, 30,88604, -5
12, R12I27, -34,38788, 31,83485, -5
12, R12I27, -34,10074, 32,90849, -5
12, R12I27, -33,88851, 33,95717, -5
12, R12I27, -33,5764, 34,96839, -5
12, R12I27, -32,92722, 35,82981, -5
12, R12I27, -32,05332, 36,41657, -5
12, R12I27, -31,0421, 36,72868, -5
12, R12I27, -30,05584, 37,09072, -5
12, R12I27, -29,03214, 37,29047, -5
12, R12I27, -27,93352, 37,45276, -5
12, R12I27, -27,00969, 37,04078, -5
12, R12I27, -26,03592, 36,61631, -5
12, R12I27, -24,86239, 36,77861, -5
12, R12I27, -24,05092, 37,41531, -5
12, R12I27, -23,20199, 37,98958, -5
12, R12I27, -22,3156, 38,67622, -5
12, R12I27, -21,19202, 39,06322, -5
12, R12I27, -20,05596, 38,81354, -5
12, R12I27, -19,09467, 38,48895, -5
12, R12I27, -18,20829, 37,86474, -5
12, R12I27, -17,34687, 37,25301, -5
12, R12I27, -16,22329, 36,95339, -5
12, R12I27, -15,04977, 37,41531, -5
12, R12I27, -14,10097, 37,91468, -5
12, R12I27, -13,05229, 38,10194, -5
12, R12I27, -11,91622, 37,7399, -5
12, R12I27, -10,9799, 37,19059, -5
12, R12I27, -10,05607, 36,47899, -5
12, R12I27, -9,33198, 35,66751, -5
12, R12I27, -8,745226, 34,66877, -5
12, R12I27, -8,40815, 33,67003, -5
12, R12I27, -8,220886, 32,39664, -5
12, R12I27, -8,096044, 31,23561, -5
12, R12I27, -8,083554, 30,02463, -5
12, R12I27, -7,996171, 28,90105, -5
12, R12I27, -7,821388, 27,8274, -5
12, R12I27, -7,634124, 26,82866, -5
12, R12I27, -7,346988, 25,7675, -5
12, R12I27, -6,984941, 24,80621, -5
12, R12I27, -6,523023, 23,91983, -5
12, R12I27, -5,836389, 23,03345, -5
12, R12I27, -5,137273, 22,17203, -5
12, R12I27, -4,525542, 21,37304, -5
12, R12I27, -3,863878, 20,58653, -5
12, R12I27, -3,164763, 19,83747, -5
12, R12I27, -2,390738, 18,9511, -5
12, R12I27, -1,604231, 18,06472, -5
12, R12I27, -0,7053634, 17,36559, -5
12, R12I27, 0,1935044, 16,64151, -5
12, R12I27, 0,9675297, 15,95487, -5
12, R12I27, 1,766517, 15,33066, -5
12, R12I27, 2,590483, 14,669, -5
12, R12I27, 3,43941, 14,06976, -5
12, R12I27, 4,300819, 13,49548, -5
12, R12I27, 5,274597, 12,75891, -5
12, R12I27, 6,210917, 12,14718, -5
12, R12I27, 7,222138, 11,54793, -5
12, R12I27, 8,145976, 11,16092, -5
12, R12I27, 9,082294, 10,79888, -5
12, R12I27, 10,24333, 10,39938, -5
12, R12I27, 11,44181, 10,03734, -5
12, R12I27, 12,5654, 9,81262, -5
12, R12I27, 13,77637, 9,575424, -5
12, R12I27, 14,80008, 9,425611, -5
12, R12I27, 16,02354, 9,263318, -5
12, R12I27, 17,28444, 9,051085, -5
12, R12I27, 18,48294, 8,801399, -5
12, R12I27, 19,78129, 8,614135, -5
12, R12I27, 20,90488, 8,439353, -5
12, R12I27, 22,11586, 8,202156, -5
12, R12I27, 23,16452, 7,952471, -5
12, R12I27, 24,33805, 7,615395, -5
12, R12I27, 25,32431, 7,36571, -5
12, R12I27, 26,47285, 6,966212, -5
12, R12I27, 27,67135, 6,479323, -5
12, R12I27, 28,75748, 5,979953, -5
12, R12I27, 29,7687, 5,318289, -5
12, R12I27, 30,68005, 4,781468, -5
12, R12I27, 31,57891, 4,119804, -5
12, R12I27, 32,31549, 3,345778, -5
12, R12I27, 32,72747, 2,359519, -5
12, R12I27, 32,7899, 1,273395, -5
12, R12I27, 32,69002, 0,0873913, -5
12, R12I27, 32,59014, -1,086132, -5
12, R12I27, 32,54021, -2,272136, -5
12, R12I27, 32,60263, -3,520561, -5
12, R12I27, 32,83982, -4,631663, -5
12, R12I27, 33,38913, -5,493072, -5
12, R12I27, 34,15067, -6,39194, -5
12, R12I27, 34,9996, -7,190935, -5
12, R12I27, 35,84854, -7,802659, -5
12, R12I27, 36,80982, -8,501781, -5
12, R12I27, 37,7836, -9,088535, -5
12, R12I27, 38,78234, -9,488033, -5
12, R12I27, 39,81852, -9,750207, -5
12, R12I27, 40,90466, -9,962433, -5
12, R12I27, 41,91588, -10,28703, -5
12, R12I27, 42,86468, -10,59913, -5
12, R12I27, 43,7261, -9,999892, -5
12, R12I27, 44,56254, -9,250836, -5
12, R12I27, 45,5488, -9,737718, -5
12, R12I27, 46,23543, -10,72398, -5
12, R12I27, 46,52258, -11,5729, -5
12, R12I27, 41,9034, -11,52296, -7,5
12, R12I27, 42,60252, -12,32196, -7,5
12, R12I27, 42,88964, -13,33319, -7,5
12, R12I27, 43,3266, -14,34441, -7,5
12, R12I27, 43,81348, -15,29321, -7,5
12, R12I27, 44,27541, -16,30444, -7,5
12, R12I27, 44,64994, -17,35311, -7,5
12, R12I27, 45,27415, -18,21453, -7,5
12, R12I27, 45,786, -19,25072, -7,5
12, R12I27, 45,94829, -20,46169, -7,5
12, R12I27, 45,57376, -21,39801, -7,5
12, R12I27, 45,03695, -22,33433, -7,5
12, R12I27, 44,38776, -23,2332, -7,5
12, R12I27, 43,55132, -23,85741, -7,5
12, R12I27, 42,60252, -24,50659, -7,5
12, R12I27, 41,76606, -25,16826, -7,5
12, R12I27, 41,04198, -26,01719, -7,5
12, R12I27, 40,48019, -27,02841, -7,5
12, R12I27, 40,18057, -28,15199, -7,5
12, R12I27, 39,79356, -29,08831, -7,5
12, R12I27, 39,08195, -30,07457, -7,5
12, R12I27, 38,23303, -30,77369, -7,5
12, R12I27, 37,14689, -31,09828, -7,5
12, R12I27, 36,07325, -30,89853, -7,5
12, R12I27, 34,98712, -30,72375, -7,5
12, R12I27, 33,95092, -30,66133, -7,5
12, R12I27, 32,91474, -30,87356, -7,5
12, R12I27, 31,85358, -31,08579, -7,5
12, R12I27, 30,8049, -31,323, -7,5
12, R12I27, 29,88106, -31,78491, -7,5
12, R12I27, 28,8948, -32,04708, -7,5
12, R12I27, 28,1083, -31,28554, -7,5
12, R12I27, 27,147, -30,94847, -7,5
12, R12I27, 26,13578, -31,46032, -7,5
12, R12I27, 25,42419, -32,20937, -7,5
12, R12I27, 24,65015, -32,92098, -7,5
12, R12I27, 23,60147, -32,92098, -7,5
12, R12I27, 22,56529, -32,62136, -7,5
12, R12I27, 21,42922, -32,39664, -7,5
12, R12I27, 20,35557, -32,63384, -7,5
12, R12I27, 19,40677, -33,10824, -7,5
12, R12I27, 18,42052, -33,71997, -7,5
12, R12I27, 17,47171, -34,23183, -7,5
12, R12I27, 16,52291, -34,5689, -7,5
12, R12I27, 15,48672, -34,98088, -7,5
12, R12I27, 14,33816, -35,49274, -7,5
12, R12I27, 13,37687, -35,82981, -7,5
12, R12I27, 12,34068, -36,04204, -7,5
12, R12I27, 11,16716, -36,16689, -7,5
12, R12I27, 10,03109, -35,96714, -7,5
12, R12I27, 9,044836, -35,66751, -7,5
12, R12I27, 7,958712, -35,19312, -7,5
12, R12I27, 7,034874, -34,71871, -7,5
12, R12I27, 5,961231, -34,35667, -7,5
12, R12I27, 4,912551, -34,03208, -7,5
12, R12I27, -36,26052, 12,23457, -7,5
12, R12I27, -36,27301, 13,30821, -7,5
12, R12I27, -35,88599, 14,25702, -7,5
12, R12I27, -35,04954, 14,90619, -7,5
12, R12I27, -33,93845, 15,29321, -7,5
12, R12I27, -32,95219, 15,855, -7,5
12, R12I27, -32,27805, 16,70393, -7,5
12, R12I27, -31,80364, 17,70267, -7,5
12, R12I27, -31,5165, 18,66396, -7,5
12, R12I27, -31,14197, 19,62525, -7,5
12, R12I27, -30,44286, 20,63647, -7,5
12, R12I27, -29,58144, 21,36056, -7,5
12, R12I27, -28,73251, 22,00974, -7,5
12, R12I27, -27,67135, 22,69637, -7,5
12, R12I27, -26,59771, 23,25816, -7,5
12, R12I27, -25,67387, 23,67014, -7,5
12, R12I27, -24,61271, 24,11958, -7,5
12, R12I27, -23,5141, 24,49411, -7,5
12, R12I27, -22,35306, 24,90609, -7,5
12, R12I27, -21,24196, 25,31807, -7,5
12, R12I27, -20,26819, 25,70507, -7,5
12, R12I27, -19,33187, 26,14202, -7,5
12, R12I27, -18,44549, 26,84115, -7,5
12, R12I27, -17,83376, 27,65262, -7,5
12, R12I27, -17,37184, 28,65136, -7,5
12, R12I27, -16,89744, 29,56271, -7,5
12, R12I27, -16,22329, 30,31177, -7,5
12, R12I27, -15,4243, 30,98592, -7,5
12, R12I27, -14,45052, 31,36045, -7,5
12, R12I27, -13,27701, 31,37293, -7,5
12, R12I27, -12,21585, 31,06082, -7,5
12, R12I27, -11,36692, 30,43661, -7,5
12, R12I27, -10,63035, 29,70004, -7,5
12, R12I27, -9,619123, 29,31303, -7,5
12, R12I27, -8,607895, 29,21315, -7,5
12, R12I27, -7,621643, 29,57519, -7,5
12, R12I27, -6,660354, 29,92476, -7,5
12, R12I27, -5,724035, 30,29929, -7,5
12, R12I27, -4,750265, 30,5989, -7,5
12, R12I27, -3,676614, 30,37419, -7,5
12, R12I27, -2,98998, 29,50029, -7,5
12, R12I27, -2,852657, 28,36423, -7,5
12, R12I27, -2,740295, 27,34052, -7,5
12, R12I27, -2,627942, 26,29184, -7,5
12, R12I27, -2,56552, 25,14328, -7,5
12, R12I27, -2,46564, 23,98225, -7,5
12, R12I27, -2,46564, 22,87115, -7,5
12, R12I27, -2,49061, 21,82247, -7,5
12, R12I27, -2,415708, 20,66144, -7,5
12, R12I27, -2,303346, 19,51289, -7,5
12, R12I27, -2,215955, 18,46421, -7,5
12, R12I27, -2,265895, 17,45299, -7,5
12, R12I27, -2,51558, 16,34188, -7,5
12, R12I27, -2,827687, 15,11843, -7,5
12, R12I27, -3,052402, 14,14466, -7,5
12, R12I27, -3,289605, 13,02108, -7,5
12, R12I27, -3,526802, 11,94743, -7,5
12, R12I27, -3,764006, 10,84881, -7,5
12, R12I27, -3,913818, 9,750199, -7,5
12, R12I27, -3,951269, 8,726489, -7,5
12, R12I27, -3,614193, 7,727748, -7,5
12, R12I27, -2,902589, 6,766467, -7,5
12, R12I27, -2,116083, 6,017412, -7,5
12, R12I27, -1,129831, 5,518042, -7,5
12, R12I27, -6,866949E-02, 5,118544, -7,5
12, R12I27, 1,117335, 5,243387, -7,5
12, R12I27, 2,091113, 5,468102, -7,5
12, R12I27, 3,252147, 5,667847, -7,5
12, R12I27, 4,275857, 5,805178, -7,5
12, R12I27, 5,287078, 6,004923, -7,5
12, R12I27, 6,410661, 6,254608, -7,5
12, R12I27, 7,559214, 6,516782, -7,5
12, R12I27, 8,78267, 6,853851, -7,5
12, R12I27, 9,968674, 7,153476, -7,5
12, R12I27, 11,07978, 7,403161, -7,5
12, R12I27, 12,25329, 7,565455, -7,5
12, R12I27, 13,3519, 7,627876, -7,5
12, R12I27, 14,51295, 7,615395, -7,5
12, R12I27, 15,54914, 7,565455, -7,5
12, R12I27, 16,66023, 7,528004, -7,5
12, R12I27, 17,70891, 7,490552, -7,5
12, R12I27, 18,80752, 7,428131, -7,5
12, R12I27, 19,90614, 7,34074, -7,5
12, R12I27, 20,99227, 7,34074, -7,5
12, R12I27, 22,0035, 7,328259, -7,5
12, R12I27, 23,1146, 7,091055, -7,5
12, R12I27, 24,20072, 6,903791, -7,5
12, R12I27, 25,41169, 6,716527, -7,5
12, R12I27, 26,61019, 6,541745, -7,5
12, R12I27, 27,69631, 6,317029, -7,5
12, R12I27, 28,745, 6,079833, -7,5
12, R12I27, 29,63137, 5,45562, -7,5
12, R12I27, 30,14322, 4,444391, -7,5
12, R12I27, 30,26807, 3,38323, -7,5
12, R12I27, 30,28055, 2,347038, -7,5
12, R12I27, 30,20565, 1,298358, -7,5
12, R12I27, 30,1682, 0,2746551, -7,5
12, R12I27, 30,25559, -0,7865065, -7,5
12, R12I27, 30,51775, -1,910089, -7,5
12, R12I27, 30,97968, -2,883867, -7,5
12, R12I27, 31,5914, -3,820186, -7,5
12, R12I27, 32,30301, -4,569242, -7,5
12, R12I27, 33,17691, -5,268357, -7,5
12, R12I27, 34,0508, -6,029893, -7,5
12, R12I27, 34,82482, -6,853858, -7,5
12, R12I27, 35,42407, -7,702786, -7,5
12, R12I27, 35,96088, -8,564202, -7,5
12, R12I27, 36,57262, -9,425611, -7,5
12, R12I27, 37,39657, -10,18716, -7,5
12, R12I27, 38,34539, -10,61162, -7,5
12, R12I27, 39,39405, -10,82385, -7,5
12, R12I27, 40,36783, -11,14844, -7,5
12, R12I27, 40,97956, -11,48551, -7,5
12, R12I27, 41,9034, -11,52296, -7,5
12, R12I27, 25,29934, -11,19838, -10
12, R12I27, 26,07336, -11,95991, -10
12, R12I27, 26,9223, -12,54668, -10
12, R12I27, 27,60893, -13,30822, -10
12, R12I27, 28,23314, -14,18211, -10
12, R12I27, 28,90728, -14,93117, -10
12, R12I27, 29,88106, -15,51793, -10
12, R12I27, 30,85484, -16,10469, -10
12, R12I27, 31,32923, -17,00356, -10
12, R12I27, 31,64134, -17,98981, -10
12, R12I27, 32,05332, -18,97607, -10
12, R12I27, 32,91474, -19,61276, -10
12, R12I27, 33,92596, -19,78754, -10
12, R12I27, 34,86228, -20,24946, -10
12, R12I27, 35,77362, -20,81125, -10
12, R12I27, 36,8223, -21,02349, -10
12, R12I27, 37,28423, -22,09713, -10
12, R12I27, 37,22181, -23,14581, -10
12, R12I27, 37,459, -24,11958, -10
12, R12I27, 38,25799, -24,99348, -10
12, R12I27, 39,23177, -25,4554, -10
12, R12I27, 40,34287, -25,63018, -10
12, R12I27, 41,47894, -25,59272, -10
12, R12I27, 42,57754, -25,44291, -10
12, R12I27, 43,78852, -25,30558, -10
12, R12I27, 44,98701, -25,0559, -10
12, R12I27, 46,07313, -24,79373, -10
12, R12I27, 47,07187, -24,61895, -10
12, R12I27, 48,08311, -24,80621, -10
12, R12I27, 49,09433, -25,16826, -10
12, R12I27, 50,10555, -25,66763, -10
12, R12I27, 51,17919, -26,14203, -10
12, R12I27, 52,05309, -26,95351, -10
12, R12I27, 52,87705, -27,92728, -10
12, R12I27, 53,42636, -28,88857, -10
12, R12I27, 53,52624, -29,88731, -10
12, R12I27, 53,38892, -30,97343, -10
12, R12I27, 52,96445, -31,89727, -10
12, R12I27, 52,30278, -32,72123, -10
12, R12I27, 51,12925, -33,13321, -10
12, R12I27, 50,04313, -33,29551, -10
12, R12I27, 49,04439, -33,28302, -10
12, R12I27, 47,97075, -33,2206, -10
12, R12I27, 46,85965, -33,10824, -10
12, R12I27, 45,786, -32,99588, -10
12, R12I27, 44,78726, -32,90849, -10
12, R12I27, 43,61374, -32,87104, -10
12, R12I27, 42,5401, -32,87104, -10
12, R12I27, 41,50389, -32,85856, -10
12, R12I27, 40,41777, -32,75869, -10
12, R12I27, 39,19431, -32,69626, -10
12, R12I27, 37,97086, -32,69626, -10
12, R12I27, 36,70994, -32,78365, -10
12, R12I27, 35,37413, -32,88353, -10
12, R12I27, 33,98838, -33,03334, -10
12, R12I27, 32,42785, -33,49525, -10
12, R12I27, 31,0421, -33,91972, -10
12, R12I27, 29,63137, -34,46902, -10
12, R12I27, 28,48283, -34,93095, -10
12, R12I27, 27,30931, -35,40535, -10
12, R12I27, 26,17324, -35,82981, -10
12, R12I27, 25,21194, -36,12943, -10
12, R12I27, 24,05092, -36,41657, -10
12, R12I27, 22,91484, -36,71619, -10
12, R12I27, 21,80375, -36,95339, -10
12, R12I27, 20,66768, -37,19059, -10
12, R12I27, 19,619, -37,46525, -10
12, R12I27, 18,44549, -37,68996, -10
12, R12I27, 17,30941, -37,78984, -10
12, R12I27, 16,2857, -37,72742, -10
12, R12I27, 15,16212, -37,45276, -10
12, R12I27, 14,05103, -37,00333, -10
12, R12I27, 13,17713, -36,40409, -10
12, R12I27, 12,21584, -35,5177, -10
12, R12I27, 11,54169, -34,70623, -10
12, R12I27, 10,70525, -33,81985, -10
12, R12I27, 9,906253, -33,2206, -10
12, R12I27, 9,032354, -32,54645, -10
12, R12I27, 8,083554, -31,99714, -10
12, R12I27, 7,159717, -31,49777, -10
12, R12I27, 6,160976, -31,27306, -10
12, R12I27, 4,937521, -31,08579, -10
12, R12I27, 3,901329, -30,93598, -10
12, R12I27, 2,752776, -30,77369, -10
12, R12I27, 1,754036, -30,66133, -10
12, R12I27, 0,6054833, -30,58642, -10
12, R12I27, -0,4806483, -30,49903, -10
12, R12I27, -1,729074, -30,46158, -10
12, R12I27, -2,98998, -30,46158, -10
12, R12I27, -4,051142, -30,43661, -10
12, R12I27, -5,074852, -30,34922, -10
12, R12I27, -6,335759, -30,26184, -10
12, R12I27, -7,896291, -30,23686, -10
12, R12I27, -9,456822, -30,22438, -10
12, R12I27, -10,86755, -30,14947, -10
12, R12I27, -12,00361, -30,07457, -10
12, R12I27, -13,00235, -29,99966, -10
12, R12I27, -14,01357, -29,91227, -10
12, R12I27, -15,12468, -29,71252, -10
12, R12I27, -16,11094, -29,4129, -10
12, R12I27, -17,12216, -29,05086, -10
12, R12I27, -18,14587, -28,53901, -10
12, R12I27, -19,08219, -28,08957, -10
12, R12I27, -20,06844, -27,57772, -10
12, R12I27, -20,99228, -27,05338, -10
12, R12I27, -21,86617, -26,55401, -10
12, R12I27, -22,70262, -25,97973, -10
12, R12I27, -23,57652, -25,24316, -10
12, R12I27, -24,53781, -24,35678, -10
12, R12I27, -25,51158, -23,39549, -10
12, R12I27, -26,47287, -22,40924, -10
12, R12I27, -27,38422, -21,47292, -10
12, R12I27, -28,28308, -20,54908, -10
12, R12I27, -29,14449, -19,51289, -10
12, R12I27, -29,90604, -18,56409, -10
12, R12I27, -30,59267, -17,74013, -10
12, R12I27, -31,22936, -16,91616, -10
12, R12I27, -31,81613, -15,79258, -10
12, R12I27, -32,42785, -14,80633, -10
12, R12I27, -33,05206, -13,82007, -10
12, R12I27, -33,6638, -12,80885, -10
12, R12I27, -34,28801, -11,79762, -10
12, R12I27, -34,87477, -10,73646, -10
12, R12I27, -35,51146, -9,562943, -10
12, R12I27, -36,07325, -8,426871, -10
12, R12I27, -36,42281, -7,478071, -10
12, R12I27, -36,77238, -6,36697, -10
12, R12I27, -37,10944, -5,230906, -10
12, R12I27, -37,32168, -4,094834, -10
12, R12I27, -37,53391, -3,058642, -10
12, R12I27, -37,57137, -2,059902, -10
12, R12I27, -37,27175, -0,8114765, -10
12, R12I27, -36,85976, 0,3245876, -10
12, R12I27, -36,42281, 1,223455, -10
12, R12I27, -35,82357, 2,322068, -10
12, R12I27, -35,39911, 3,295838, -10
12, R12I27, -35,43656, 4,40694, -10
12, R12I27, -35,48649, 5,443131, -10
12, R12I27, -35,46153, 6,441872, -10
12, R12I27, -35,24929, 7,440612, -10
12, R12I27, -34,63757, 8,489293, -10
12, R12I27, -34,43782, 9,612876, -10
12, R12I27, -34,28801, 10,64907, -10
12, R12I27, -33,62634, 11,5729, -10
12, R12I27, -32,91474, 12,32196, -10
12, R12I27, -32,19065, 13,30821, -10
12, R12I27, -31,70376, 14,1946, -10
12, R12I27, -31,50402, 15,18085, -10
12, R12I27, -31,20439, 16,30443, -10
12, R12I27, -30,60515, 17,25324, -10
12, R12I27, -29,80616, 18,05223, -10
12, R12I27, -28,9822, 18,71389, -10
12, R12I27, -28,13327, 19,50041, -10
12, R12I27, -27,34676, 20,24946, -10
12, R12I27, -26,53529, 21,18578, -10
12, R12I27, -25,89859, 22,10961, -10
12, R12I27, -25,19947, 23,24568, -10
12, R12I27, -24,52532, 24,24442, -10
12, R12I27, -23,77626, 25,23067, -10
12, R12I27, -22,92734, 26,12954, -10
12, R12I27, -21,90363, 26,8786, -10
12, R12I27, -21,02973, 27,39045, -10
12, R12I27, -20,15583, 27,97721, -10
12, R12I27, -19,29442, 28,88856, -10
12, R12I27, -18,53288, 29,68755, -10
12, R12I27, -17,4842, 30,2868, -10
12, R12I27, -16,46049, 30,73623, -10
12, R12I27, -15,34939, 31,31051, -10
12, R12I27, -14,42556, 31,74746, -10
12, R12I27, -13,40185, 32,45906, -10
12, R12I27, -12,59037, 33,2206, -10
12, R12I27, -11,87877, 34,08201, -10
12, R12I27, -11,22959, 34,94342, -10
12, R12I27, -10,60538, 35,81732, -10
12, R12I27, -9,481792, 35,94216, -10
12, R12I27, -8,695286, 35,29299, -10
12, R12I27, -7,609154, 35,35541, -10
12, R12I27, -6,523023, 35,46776, -10
12, R12I27, -5,92378, 34,55641, -10
12, R12I27, -4,837648, 34,38163, -10
12, R12I27, -3,714066, 35,09324, -10
12, R12I27, -2,702844, 35,63005, -10
12, R12I27, -1,629201, 35,65503, -10
12, R12I27, -0,6679122, 35,00584, -10
12, R12I27, 0,1810156, 34,44405, -10
12, R12I27, 1,104853, 33,8573, -10
12, R12I27, 2,190985, 33,59512, -10
12, R12I27, 3,302079, 33,58264, -10
12, R12I27, 4,225917, 34,0071, -10
12, R12I27, 4,937521, 33,15818, -10
12, R12I27, 5,524282, 32,28428, -10
12, R12I27, 6,610406, 32,7462, -10
12, R12I27, 7,546725, 33,15818, -10
12, R12I27, 8,433112, 32,6713, -10
12, R12I27, 9,182167, 31,75994, -10
12, R12I27, 9,743958, 30,89853, -10
12, R12I27, 9,918734, 29,91227, -10
12, R12I27, 9,993644, 28,67633, -10
12, R12I27, 10,03109, 27,41542, -10
12, R12I27, 10,06855, 26,29184, -10
12, R12I27, 10,06855, 25,08086, -10
12, R12I27, 10,06855, 24,03219, -10
12, R12I27, 10,09352, 22,87115, -10
12, R12I27, 10,11849, 21,71011, -10
12, R12I27, 10,15594, 20,63647, -10
12, R12I27, 10,06855, 19,37556, -10
12, R12I27, 9,943704, 18,28943, -10
12, R12I27, 9,818861, 17,24075, -10
12, R12I27, 9,644086, 16,04227, -10
12, R12I27, 9,356942, 14,90619, -10
12, R12I27, 8,982414, 13,70771, -10
12, R12I27, 8,508015, 12,57164, -10
12, R12I27, 7,996163, 11,46054, -10
12, R12I27, 7,446853, 10,44932, -10
12, R12I27, 7,072325, 9,338221, -10
12, R12I27, 6,84761, 8,252089, -10
12, R12I27, 6,635376, 7,265837, -10
12, R12I27, 6,572955, 6,217157, -10
12, R12I27, 6,760219, 5,168477, -10
12, R12I27, 7,322011, 4,332037, -10
12, R12I27, 8,158457, 3,757757, -10
12, R12I27, 9,194649, 3,582982, -10
12, R12I27, 10,28078, 3,570494, -10
12, R12I27, 11,31697, 3,220936, -10
12, R12I27, 12,00361, 2,446911, -10
12, R12I27, 13,01483, 2,109834, -10
12, R12I27, 14,02606, 2,322068, -10
12, R12I27, 14,99983, 2,609205, -10
12, R12I27, 16,11093, 2,521821, -10
12, R12I27, 17,1596, 2,40946, -10
12, R12I27, 18,18331, 2,284617, -10
12, R12I27, 19,31938, 2,396978, -10
12, R12I27, 20,34309, 2,534302, -10
12, R12I27, 21,34183, 2,372008, -10
12, R12I27, 21,89114, 1,47314, -10
12, R12I27, 22,05344, 0,4494301, -10
12, R12I27, 22,79, -0,2372039, -10
12, R12I27, 24,00098, 0, -10
12, R12I27, 25,0122, 0,1373238, -10
12, R12I27, 25,74877, -0,5742803, -10
12, R12I27, 26,11082, -1,573021, -10
12, R12I27, 26,08584, -2,596723, -10
12, R12I27, 25,74877, -3,570501, -10
12, R12I27, 25,86114, -4,619174, -10
12, R12I27, 26,41043, -5,518042, -10
12, R12I27, 26,52279, -6,516782, -10
12, R12I27, 26,38547, -7,702786, -10
12, R12I27, 25,93604, -8,763947, -10
12, R12I27, 25,44915, -9,675297, -10
12, R12I27, 25,2494, -10,21212, -10
12, R12I27, 25,29934, -11,19838, -10
12, R12I27, 25,29934, -11,88501, -12,5
12, R12I27, 26,0359, -12,63407, -12,5
12, R12I27, 26,69757, -13,47051, -12,5
12, R12I27, 27,44663, -14,24453, -12,5
12, R12I27, 28,0958, -15,05601, -12,5
12, R12I27, 28,84486, -15,99233, -12,5
12, R12I27, 29,48157, -16,77884, -12,5
12, R12I27, 30,33049, -17,72764, -12,5
12, R12I27, 31,15445, -18,66396, -12,5
12, R12I27, 31,87854, -19,46296, -12,5
12, R12I27, 32,73996, -20,33685, -12,5
12, R12I27, 33,63882, -21,18578, -12,5
12, R12I27, 34,33793, -21,94732, -12,5
12, R12I27, 34,94966, -22,77128, -12,5
12, R12I27, 35,54891, -23,80747, -12,5
12, R12I27, 36,22306, -24,74379, -12,5
12, R12I27, 37,12193, -25,44291, -12,5
12, R12I27, 38,14563, -25,51782, -12,5
12, R12I27, 39,26921, -24,8187, -12,5
12, R12I27, 40,43025, -23,99474, -12,5
12, R12I27, 41,40403, -22,98351, -12,5
12, R12I27, 42,25295, -21,84744, -12,5
12, R12I27, 42,91462, -20,87367, -12,5
12, R12I27, 43,51386, -19,94984, -12,5
12, R12I27, 44,26291, -18,98855, -12,5
12, R12I27, 45,08689, -18,25198, -12,5
12, R12I27, 45,99823, -17,74013, -12,5
12, R12I27, 46,94703, -17,30318, -12,5
12, R12I27, 48,02069, -17,05349, -12,5
12, R12I27, 49,31903, -17,06598, -12,5
12, R12I27, 50,39269, -17,21579, -12,5
12, R12I27, 51,4913, -17,80255, -12,5
12, R12I27, 52,3652, -18,75135, -12,5
12, R12I27, 52,73972, -19,77506, -12,5
12, R12I27, 52,57744, -21,011, -12,5
12, R12I27, 52,11551, -22,19701, -12,5
12, R12I27, 51,47882, -23,22071, -12,5
12, R12I27, 50,67982, -23,8699, -12,5
12, R12I27, 49,89333, -24,50659, -12,5
12, R12I27, 49,21917, -25,25565, -12,5
12, R12I27, 49,11929, -26,32929, -12,5
12, R12I27, 49,78096, -27,15325, -12,5
12, R12I27, 50,45512, -27,95225, -12,5
12, R12I27, 50,91703, -29,16322, -12,5
12, R12I27, 50,94199, -30,37419, -12,5
12, R12I27, 50,65486, -31,38542, -12,5
12, R12I27, 49,99319, -32,53397, -12,5
12, R12I27, 49,00693, -33,68252, -12,5
12, R12I27, 47,95826, -34,39412, -12,5
12, R12I27, 46,68486, -34,84355, -12,5
12, R12I27, 45,52383, -35,06827, -12,5
12, R12I27, 44,37527, -34,93095, -12,5
12, R12I27, 43,28915, -34,90598, -12,5
12, R12I27, 42,00327, -34,94343, -12,5
12, R12I27, 40,7049, -35,03082, -12,5
12, R12I27, 39,14437, -35,1307, -12,5
12, R12I27, 37,35913, -35,46777, -12,5
12, R12I27, 35,83604, -35,45528, -12,5
12, R12I27, 34,78738, -35,34292, -12,5
12, R12I27, 33,72622, -35,29299, -12,5
12, R12I27, 32,69002, -35,36789, -12,5
12, R12I27, 31,50401, -35,46777, -12,5
12, R12I27, 30,40539, -35,65503, -12,5
12, R12I27, 29,34423, -36,06701, -12,5
12, R12I27, 28,34549, -36,59135, -12,5
12, R12I27, 27,37173, -36,92842, -12,5
12, R12I27, 26,1982, -37,01581, -12,5
12, R12I27, 24,98724, -36,81607, -12,5
12, R12I27, 23,82619, -36,69123, -12,5
12, R12I27, 22,62771, -36,96588, -12,5
12, R12I27, 21,3668, -37,29047, -12,5
12, R12I27, 20,20576, -37,52767, -12,5
12, R12I27, 18,99479, -37,665, -12,5
12, R12I27, 17,69643, -37,665, -12,5
12, R12I27, 16,53539, -37,46525, -12,5
12, R12I27, 15,34938, -37,35289, -12,5
12, R12I27, 14,20084, -37,21556, -12,5
12, R12I27, 13,00235, -37,05327, -12,5
12, R12I27, 11,87876, -36,76613, -12,5
12, R12I27, 10,86754, -36,36663, -12,5
12, R12I27, 9,768929, -35,92968, -12,5
12, R12I27, 8,720248, -35,59261, -12,5
12, R12I27, 7,746478, -35,24305, -12,5
12, R12I27, 6,747738, -34,93095, -12,5
12, R12I27, 5,436891, -34,60635, -12,5
12, R12I27, 4,038653, -34,25679, -12,5
12, R12I27, 2,86513, -33,98214, -12,5
12, R12I27, 1,604224, -33,695, -12,5
12, R12I27, 1,872181E-02, -33,33296, -12,5
12, R12I27, -1,766525, -32,72123, -12,5
12, R12I27, -3,376997, -32,05957, -12,5
12, R12I27, -4,675354, -31,5602, -12,5
12, R12I27, -5,736516, -31,17318, -12,5
12, R12I27, -6,785197, -30,83611, -12,5
12, R12I27, -7,921261, -30,32425, -12,5
12, R12I27, -9,094784, -29,68756, -12,5
12, R12I27, -10,23085, -29,08831, -12,5
12, R12I27, -11,27953, -28,47658, -12,5
12, R12I27, -12,34069, -27,76498, -12,5
12, R12I27, -13,56415, -27,0409, -12,5
12, R12I27, -14,81257, -26,27935, -12,5
12, R12I27, -16,04852, -25,55527, -12,5
12, R12I27, -17,30942, -24,75628, -12,5
12, R12I27, -18,34561, -24,03219, -12,5
12, R12I27, -19,29442, -23,28313, -12,5
12, R12I27, -20,20577, -22,58402, -12,5
12, R12I27, -21,22948, -21,82248, -12,5
12, R12I27, -22,22822, -21,12336, -12,5
12, R12I27, -23,31434, -20,46169, -12,5
12, R12I27, -24,4629, -19,63773, -12,5
12, R12I27, -25,59897, -18,68893, -12,5
12, R12I27, -26,76, -17,77758, -12,5
12, R12I27, -27,82117, -16,94113, -12,5
12, R12I27, -28,73251, -16,04227, -12,5
12, R12I27, -29,56896, -15,1434, -12,5
12, R12I27, -30,30553, -14,44428, -12,5
12, R12I27, -31,07955, -13,62032, -12,5
12, R12I27, -31,74121, -12,75891, -12,5
12, R12I27, -32,44034, -11,87253, -12,5
12, R12I27, -33,07703, -11,08602, -12,5
12, R12I27, -33,7387, -10,18716, -12,5
12, R12I27, -34,32546, -9,275799, -12,5
12, R12I27, -34,79986, -8,202156, -12,5
12, R12I27, -35,14942, -6,953731, -12,5
12, R12I27, -35,33669, -5,842629, -12,5
12, R12I27, -35,42407, -4,756505, -12,5
12, R12I27, -35,51146, -3,582982, -12,5
12, R12I27, -35,57388, -2,40946, -12,5
12, R12I27, -35,6363, -1,373268, -12,5
12, R12I27, -35,6363, -0,3121063, -12,5
12, R12I27, -35,6363, 0,7490553, -12,5
12, R12I27, -35,52395, 1,935059, -12,5
12, R12I27, -35,39911, 3,096093, -12,5
12, R12I27, -35,39911, 4,307067, -12,5
12, R12I27, -35,47401, 5,443131, -12,5
12, R12I27, -35,49898, 6,541745, -12,5
12, R12I27, -35,3242, 7,540485, -12,5
12, R12I27, -34,72496, 8,489293, -12,5
12, R12I27, -34,43782, 9,575424, -12,5
12, R12I27, -34,07577, 10,54919, -12,5
12, R12I27, -33,2643, 11,34818, -12,5
12, R12I27, -32,54021, 12,1347, -12,5
12, R12I27, -31,90352, 13,00859, -12,5
12, R12I27, -31,42911, 13,94491, -12,5
12, R12I27, -31,19191, 15,2183, -12,5
12, R12I27, -30,87981, 16,29195, -12,5
12, R12I27, -30,21814, 17,26572, -12,5
12, R12I27, -29,44412, 17,96484, -12,5
12, R12I27, -28,60767, 18,77631, -12,5
12, R12I27, -27,78371, 19,4255, -12,5
12, R12I27, -26,80993, 19,92487, -12,5
12, R12I27, -25,87362, 20,27442, -12,5
12, R12I27, -24,86239, 20,67392, -12,5
12, R12I27, -23,83868, 21,0859, -12,5
12, R12I27, -22,67765, 21,61024, -12,5
12, R12I27, -21,82872, 22,20948, -12,5
12, R12I27, -21,0547, 22,97103, -12,5
12, R12I27, -20,35558, 23,73256, -12,5
12, R12I27, -19,60653, 24,46914, -12,5
12, R12I27, -18,64524, 24,96851, -12,5
12, R12I27, -18,17084, 26,14202, -12,5
12, R12I27, -17,52165, 27,09083, -12,5
12, R12I27, -16,68521, 27,71504, -12,5
12, R12I27, -15,77386, 28,25187, -12,5
12, R12I27, -14,68773, 28,63887, -12,5
12, R12I27, -13,46427, 28,83863, -12,5
12, R12I27, -12,42808, 28,78869, -12,5
12, R12I27, -11,24208, 28,63887, -12,5
12, R12I27, -10,09352, 28,40168, -12,5
12, R12I27, -8,969941, 28,27683, -12,5
12, R12I27, -8,39566, 29,13824, -12,5
12, R12I27, -8,233367, 30,27431, -12,5
12, R12I27, -7,958712, 31,51025, -12,5
12, R12I27, -7,322018, 32,53396, -12,5
12, R12I27, -6,510541, 33,23309, -12,5
12, R12I27, -5,337018, 33,67003, -12,5
12, R12I27, -4,213436, 33,60761, -12,5
12, R12I27, -3,127312, 34,43157, -12,5
12, R12I27, -2,378257, 35,30547, -12,5
12, R12I27, -1,49187, 35,90471, -12,5
12, R12I27, -0,4057383, 36,4665, -12,5
12, R12I27, 0,6928746, 36,65377, -12,5
12, R12I27, 1,841427, 36,64128, -12,5
12, R12I27, 2,86513, 36,59135, -12,5
12, R12I27, 3,86387, 36,52892, -12,5
12, R12I27, 4,987453, 36,1544, -12,5
12, R12I27, 5,998682, 35,64254, -12,5
12, R12I27, 6,885061, 35,01833, -12,5
12, R12I27, 7,808899, 34,58138, -12,5
12, R12I27, 8,969934, 34,74368, -12,5
12, R12I27, 9,943704, 35,56763, -12,5
12, R12I27, 10,73021, 36,45402, -12,5
12, R12I27, 11,85379, 36,74116, -12,5
12, R12I27, 12,84005, 36,36663, -12,5
12, R12I27, 13,71395, 35,80484, -12,5
12, R12I27, 14,67524, 35,13069, -12,5
12, R12I27, 15,61156, 34,36915, -12,5
12, R12I27, 16,34812, 33,48277, -12,5
12, R12I27, 16,87247, 32,50899, -12,5
12, R12I27, 17,24699, 31,49777, -12,5
12, R12I27, 17,49668, 30,42413, -12,5
12, R12I27, 17,64649, 29,32551, -12,5
12, R12I27, 17,7963, 28,17696, -12,5
12, R12I27, 17,75885, 27,12828, -12,5
12, R12I27, 17,64649, 26,09209, -12,5
12, R12I27, 17,57159, 25,00596, -12,5
12, R12I27, 17,44674, 23,88238, -12,5
12, R12I27, 17,23451, 22,73382, -12,5
12, R12I27, 16,89743, 21,59776, -12,5
12, R12I27, 16,448, 20,59902, -12,5
12, R12I27, 15,98609, 19,57531, -12,5
12, R12I27, 15,42429, 18,42676, -12,5
12, R12I27, 14,87498, 17,40305, -12,5
12, R12I27, 14,42555, 16,46673, -12,5
12, R12I27, 13,92618, 15,48047, -12,5
12, R12I27, 13,32694, 14,30695, -12,5
12, R12I27, 12,69024, 13,22082, -12,5
12, R12I27, 12,01609, 12,22208, -12,5
12, R12I27, 11,4543, 11,2608, -12,5
12, R12I27, 10,90499, 10,1497, -12,5
12, R12I27, 10,38065, 9,063565, -12,5
12, R12I27, 9,893771, 8,039855, -12,5
12, R12I27, 9,33198, 6,928761, -12,5
12, R12I27, 8,895031, 6,004923, -12,5
12, R12I27, 8,458082, 5,031153, -12,5
12, R12I27, 8,133487, 4,044894, -12,5
12, R12I27, 8,096036, 2,921311, -12,5
12, R12I27, 8,695278, 2,047413, -12,5
12, R12I27, 9,75644, 1,52308, -12,5
12, R12I27, 10,85505, 1,498111, -12,5
12, R12I27, 12,091, 1,647923, -12,5
12, R12I27, 13,16464, 1,822698, -12,5
12, R12I27, 14,28822, 1,922571, -12,5
12, R12I27, 15,38684, 1,922571, -12,5
12, R12I27, 16,42303, 1,885119, -12,5
12, R12I27, 17,29693, 1,385749, -12,5
12, R12I27, 18,04599, 0,7240852, -12,5
12, R12I27, 18,88243, 0,1373238, -12,5
12, R12I27, 19,70639, -0,4868889, -12,5
12, R12I27, 20,71761, -0,8988678, -12,5
12, R12I27, 21,77877, -0,7865065, -12,5
12, R12I27, 22,75255, -1,04868, -12,5
12, R12I27, 23,12708, -1,997481, -12,5
12, R12I27, 22,77752, -3,121063, -12,5
12, R12I27, 22,49039, -4,207195, -12,5
12, R12I27, 22,36554, -5,393199, -12,5
12, R12I27, 22,47789, -6,44188, -12,5
12, R12I27, 22,8774, -7,39068, -12,5
12, R12I27, 23,38925, -8,289548, -12,5
12, R12I27, 23,82619, -9,238348, -12,5
12, R12I27, 24,27563, -10,1497, -12,5
12, R12I27, 24,83742, -10,99863, -12,5
12, R12I27, 24,91232, -11,08602, -12,5
12, R12I27, 25,29934, -11,88501, -12,5
12, R12I27, 25,47411, -11,37316, -15
12, R12I27, 26,0484, -12,2096, -15
12, R12I27, 26,9223, -13,05853, -15
12, R12I27, 27,69631, -13,93243, -15
12, R12I27, 28,55773, -14,71894, -15
12, R12I27, 29,28181, -15,43054, -15
12, R12I27, 30,03086, -16,14214, -15
12, R12I27, 30,75496, -16,90368, -15
12, R12I27, 31,52897, -17,6777, -15
12, R12I27, 32,34045, -18,48918, -15
12, R12I27, 32,92722, -19,31314, -15
12, R12I27, 33,40161, -20,21201, -15
12, R12I27, 33,80112, -21,44795, -15
12, R12I27, 33,91348, -22,63396, -15
12, R12I27, 33,62634, -23,73257, -15
12, R12I27, 32,98964, -24,70634, -15
12, R12I27, 31,97842, -25,28061, -15
12, R12I27, 30,8049, -25,04342, -15
12, R12I27, 29,79367, -24,54404, -15
12, R12I27, 28,79494, -23,98225, -15
12, R12I27, 27,88358, -23,20823, -15
12, R12I27, 27,09706, -22,47166, -15
12, R12I27, 26,32305, -21,82248, -15
12, R12I27, 25,37425, -21,32311, -15
12, R12I27, 24,53779, -22,27191, -15
12, R12I27, 24,22569, -23,28313, -15
12, R12I27, 23,93856, -24,39424, -15
12, R12I27, 23,15204, -25,08087, -15
12, R12I27, 22,3156, -25,63018, -15
12, R12I27, 21,35431, -26,11706, -15
12, R12I27, 20,36806, -26,31681, -15
12, R12I27, 19,33186, -26,4791, -15
12, R12I27, 18,33312, -26,56649, -15
12, R12I27, 17,29693, -26,6414, -15
12, R12I27, 15,99857, -26,79121, -15
12, R12I27, 14,58785, -27,05338, -15
12, R12I27, 13,52669, -27,22816, -15
12, R12I27, 12,26578, -27,40294, -15
12, R12I27, 10,95493, -27,56524, -15
12, R12I27, 9,706508, -27,71504, -15
12, R12I27, 8,383172, -27,86486, -15
12, R12I27, 7,009904, -28,08957, -15
12, R12I27, 5,586704, -28,35174, -15
12, R12I27, 4,250887, -28,63888, -15
12, R12I27, 3,027431, -28,92602, -15
12, R12I27, 1,803969, -29,23812, -15
12, R12I27, 0,6928746, -29,52526, -15
12, R12I27, -0,4307083, -29,82489, -15
12, R12I27, -1,554291, -30,17444, -15
12, R12I27, -2,752784, -30,54897, -15
12, R12I27, -3,813946, -30,81114, -15
12, R12I27, -4,875107, -30,93598, -15
12, R12I27, -5,99869, -30,96095, -15
12, R12I27, -7,172205, -30,72375, -15
12, R12I27, -8,145976, -30,41164, -15
12, R12I27, -9,344469, -29,9747, -15
12, R12I27, -10,60538, -29,60017, -15
12, R12I27, -11,7789, -29,07583, -15
12, R12I27, -12,70273, -28,51404, -15
12, R12I27, -13,63905, -27,91479, -15
12, R12I27, -14,50046, -27,36549, -15
12, R12I27, -15,4243, -26,74127, -15
12, R12I27, -16,41055, -25,94228, -15
12, R12I27, -17,47171, -24,99348, -15
12, R12I27, -18,5953, -24,05716, -15
12, R12I27, -19,69391, -23,18326, -15
12, R12I27, -20,69265, -22,27191, -15
12, R12I27, -21,59152, -21,34807, -15
12, R12I27, -22,44045, -20,44921, -15
12, R12I27, -23,41422, -19,48792, -15
12, R12I27, -24,38799, -18,42676, -15
12, R12I27, -25,39922, -17,31566, -15
12, R12I27, -26,2856, -16,27947, -15
12, R12I27, -27,05962, -15,35563, -15
12, R12I27, -27,85862, -14,45677, -15
12, R12I27, -28,62015, -13,58287, -15
12, R12I27, -29,28182, -12,77139, -15
12, R12I27, -29,91852, -11,88501, -15
12, R12I27, -30,55521, -10,99863, -15
12, R12I27, -31,16694, -10,07479, -15
12, R12I27, -31,72873, -9,213378, -15
12, R12I27, -32,3904, -8,164705, -15
12, R12I27, -33,06455, -7,140995, -15
12, R12I27, -33,60137, -6,292067, -15
12, R12I27, -34,23807, -5,343259, -15
12, R12I27, -34,81235, -4,332037, -15
12, R12I27, -35,12445, -3,183485, -15
12, R12I27, -35,09948, -2,097353, -15
12, R12I27, -34,35043, -1,260914, -15
12, R12I27, -33,95093, -0,2746551, -15
12, R12I27, -33,88851, 0,7240852, -15
12, R12I27, -33,85106, 1,735307, -15
12, R12I27, -33,102, 2,696596, -15
12, R12I27, -32,35295, 3,670366, -15
12, R12I27, -31,97842, 4,606685, -15
12, R12I27, -31,7537, 5,580463, -15
12, R12I27, -31,54147, 6,729008, -15
12, R12I27, -31,2793, 7,827629, -15
12, R12I27, -30,49279, 8,676557, -15
12, R12I27, -29,48157, 9,200896, -15
12, R12I27, -28,54525, 9,575424, -15
12, R12I27, -27,80868, 10,43683, -15
12, R12I27, -27,95849, 11,58539, -15
12, R12I27, -28,09582, 12,75891, -15
12, R12I27, -28,1083, 13,78261, -15
12, R12I27, -27,88358, 14,81881, -15
12, R12I27, -27,57148, 15,90493, -15
12, R12I27, -27,29682, 16,99107, -15
12, R12I27, -26,88485, 18,0772, -15
12, R12I27, -26,34802, 18,96358, -15
12, R12I27, -25,39922, 19,30065, -15
12, R12I27, -24,25066, 18,91364, -15
12, R12I27, -23,20199, 18,71389, -15
12, R12I27, -22,07841, 19,22575, -15
12, R12I27, -21,55407, 20,09965, -15
12, R12I27, -21,21699, 21,17329, -15
12, R12I27, -20,8924, 22,197, -15
12, R12I27, -20,48042, 23,24568, -15
12, R12I27, -19,95609, 24,33181, -15
12, R12I27, -19,43174, 25,19322, -15
12, R12I27, -18,82001, 26,19196, -15
12, R12I27, -18,14587, 26,9535, -15
12, R12I27, -17,28445, 27,71504, -15
12, R12I27, -16,31068, 28,38919, -15
12, R12I27, -15,32442, 28,58894, -15
12, R12I27, -14,28823, 28,57645, -15
12, R12I27, -13,15217, 28,539, -15
12, R12I27, -12,06603, 28,90105, -15
12, R12I27, -11,49176, 29,8873, -15
12, R12I27, -11,22959, 30,91101, -15
12, R12I27, -10,85506, 31,84733, -15
12, R12I27, -10,01861, 32,50899, -15
12, R12I27, -9,019874, 32,85856, -15
12, R12I27, -7,833869, 33,18314, -15
12, R12I27, -6,697805, 33,52022, -15
12, R12I27, -5,661614, 33,96965, -15
12, R12I27, -4,625422, 34,59386, -15
12, R12I27, -3,826427, 35,2056, -15
12, R12I27, -2,940048, 35,92968, -15
12, R12I27, -1,96627, 36,6288, -15
12, R12I27, -1,004989, 37,29047, -15
12, R12I27, -9,363191E-02, 37,85226, -15
12, R12I27, 0,8301983, 38,25175, -15
12, R12I27, 2,053654, 38,05201, -15
12, R12I27, 3,002461, 37,46524, -15
12, R12I27, 3,776487, 36,7911, -15
12, R12I27, 4,662866, 36,05452, -15
12, R12I27, 5,424402, 35,34292, -15
12, R12I27, 6,335759, 34,64381, -15
12, R12I27, 7,184687, 34,04456, -15
12, R12I27, 8,071066, 33,33296, -15
12, R12I27, 8,80764, 32,63383, -15
12, R12I27, 9,456822, 31,77243, -15
12, R12I27, 9,83135, 30,77369, -15
12, R12I27, 9,906253, 29,61265, -15
12, R12I27, 9,718988, 28,36423, -15
12, R12I27, 9,456822, 27,25312, -15
12, R12I27, 9,132227, 26,11706, -15
12, R12I27, 8,932482, 24,91857, -15
12, R12I27, 8,857572, 23,83244, -15
12, R12I27, 9,044836, 22,82121, -15
12, R12I27, 9,419364, 21,84744, -15
12, R12I27, 10,04358, 20,83622, -15
12, R12I27, 10,55544, 19,92487, -15
12, R12I27, 11,06729, 18,80128, -15
12, R12I27, 11,37939, 17,6777, -15
12, R12I27, 11,59163, 16,35437, -15
12, R12I27, 11,60411, 15,2183, -15
12, R12I27, 11,49175, 14,13218, -15
12, R12I27, 11,27952, 12,9212, -15
12, R12I27, 10,91747, 11,69775, -15
12, R12I27, 10,49301, 10,49925, -15
12, R12I27, 10,15594, 9,450582, -15
12, R12I27, 9,768929, 8,28954, -15
12, R12I27, 9,444333, 7,328259, -15
12, R12I27, 9,119746, 6,317029, -15
12, R12I27, 8,845091, 5,205935, -15
12, R12I27, 8,982414, 4,157255, -15
12, R12I27, 9,444333, 3,245906, -15
12, R12I27, 10,31823, 2,534302, -15
12, R12I27, 11,32946, 2,184744, -15
12, R12I27, 12,35316, 2,247166, -15
12, R12I27, 13,43929, 2,471881, -15
12, R12I27, 14,36313, 2,90883, -15
12, R12I27, 15,38684, 3,757757, -15
12, R12I27, 16,32316, 4,656625, -15
12, R12I27, 17,10967, 5,518042, -15
12, R12I27, 17,8712, 6,342, -15
12, R12I27, 18,62026, 7,053604, -15
12, R12I27, 19,44423, 7,652846, -15
12, R12I27, 20,50539, 7,939982, -15
12, R12I27, 21,52909, 7,677816, -15
12, R12I27, 22,52783, 7,465582, -15
12, R12I27, 23,57651, 7,478064, -15
12, R12I27, 24,62519, 7,927501, -15
12, R12I27, 25,61145, 8,302029, -15
12, R12I27, 26,64763, 8,31451, -15
12, R12I27, 27,72128, 8,139735, -15
12, R12I27, 28,73251, 7,690298, -15
12, R12I27, 29,60641, 6,903791, -15
12, R12I27, 29,91852, 5,842629, -15
12, R12I27, 29,83112, 4,818919, -15
12, R12I27, 29,26933, 3,820179, -15
12, R12I27, 28,38295, 2,9338, -15
12, R12I27, 27,48409, 2,309587, -15
12, R12I27, 26,44789, 1,635434, -15
12, R12I27, 25,49909, 1,02371, -15
12, R12I27, 24,57525, 0,3745276, -15
12, R12I27, 23,88862, -0,3994977, -15
12, R12I27, 23,31434, -1,373268, -15
12, R12I27, 22,93982, -2,434429, -15
12, R12I27, 22,85242, -3,657885, -15
12, R12I27, 22,93982, -4,856378, -15
12, R12I27, 23,17702, -5,967472, -15
12, R12I27, 23,55155, -7,041122, -15
12, R12I27, 23,91358, -8,027373, -15
12, R12I27, 24,38799, -9,013633, -15
12, R12I27, 24,92482, -9,962433, -15
12, R12I27, 25,29934, -10,57416, -15
12, R12I27, 25,47411, -11,37316, -15
12, R12I27, 23,66389, -6,491812, -17,5
12, R12I27, 24,62519, -7,140995, -17,5
12, R12I27, 25,56151, -7,777689, -17,5
12, R12I27, 26,56025, -8,33948, -17,5
12, R12I27, 27,40917, -9,113505, -17,5
12, R12I27, 28,15823, -10,07479, -17,5
12, R12I27, 28,57021, -11,03608, -17,5
12, R12I27, 28,91978, -12,09725, -17,5
12, R12I27, 29,44411, -13,04605, -17,5
12, R12I27, 29,74373, -14,00733, -17,5
12, R12I27, 29,83112, -15,21831, -17,5
12, R12I27, 29,70628, -16,27947, -17,5
12, R12I27, 29,36921, -17,27821, -17,5
12, R12I27, 29,00716, -18,25198, -17,5
12, R12I27, 29,19443, -19,36308, -17,5
12, R12I27, 29,50653, -20,34933, -17,5
12, R12I27, 29,88106, -21,52286, -17,5
12, R12I27, 29,96844, -22,5965, -17,5
12, R12I27, 29,74373, -23,7076, -17,5
12, R12I27, 28,76996, -24,06964, -17,5
12, R12I27, 27,82116, -23,58276, -17,5
12, R12I27, 27,04714, -22,68389, -17,5
12, R12I27, 26,31057, -21,8849, -17,5
12, R12I27, 25,47411, -21,29814, -17,5
12, R12I27, 24,43793, -21,67267, -17,5
12, R12I27, 23,9011, -22,89612, -17,5
12, R12I27, 23,75129, -24,05716, -17,5
12, R12I27, 23,32683, -25,23068, -17,5
12, R12I27, 22,55281, -25,86738, -17,5
12, R12I27, 21,56655, -26,04215, -17,5
12, R12I27, 20,418, -25,89235, -17,5
12, R12I27, 19,40677, -25,9298, -17,5
12, R12I27, 18,37057, -26,50407, -17,5
12, R12I27, 17,52165, -27,31555, -17,5
12, R12I27, 16,79756, -28,05212, -17,5
12, R12I27, 15,58659, -28,30181, -17,5
12, R12I27, 14,50046, -28,25187, -17,5
12, R12I27, 13,52669, -27,86486, -17,5
12, R12I27, 12,46552, -27,56524, -17,5
12, R12I27, 11,39188, -27,45288, -17,5
12, R12I27, 10,20588, -27,41542, -17,5
12, R12I27, 9,044836, -27,56524, -17,5
12, R12I27, 7,858832, -27,91479, -17,5
12, R12I27, 6,910031, -28,26435, -17,5
12, R12I27, 5,761478, -28,66385, -17,5
12, R12I27, 4,750257, -28,90105, -17,5
12, R12I27, 3,564253, -29,27558, -17,5
12, R12I27, 2,577994, -29,5752, -17,5
12, R12I27, 1,529321, -29,84985, -17,5
12, R12I27, 0,2059856, -30,24935, -17,5
12, R12I27, -1,079891, -30,66133, -17,5
12, R12I27, -2,378257, -31,09828, -17,5
12, R12I27, -3,751524, -31,5602, -17,5
12, R12I27, -5,149755, -31,90975, -17,5
12, R12I27, -6,360729, -32,15944, -17,5
12, R12I27, -7,584184, -32,35919, -17,5
12, R12I27, -8,857579, -32,52148, -17,5
12, R12I27, -9,943711, -32,69626, -17,5
12, R12I27, -11,10475, -32,88353, -17,5
12, R12I27, -12,30324, -33,04582, -17,5
12, R12I27, -13,40185, -33,17067, -17,5
12, R12I27, -14,7127, -33,24557, -17,5
12, R12I27, -15,94863, -33,29551, -17,5
12, R12I27, -17,07222, -33,29551, -17,5
12, R12I27, -18,29568, -33,14569, -17,5
12, R12I27, -19,33187, -32,92098, -17,5
12, R12I27, -20,38054, -32,42161, -17,5
12, R12I27, -21,39177, -31,84733, -17,5
12, R12I27, -22,20325, -31,09828, -17,5
12, R12I27, -22,98976, -30,27431, -17,5
12, R12I27, -23,67639, -29,338, -17,5
12, R12I27, -24,40048, -28,23938, -17,5
12, R12I27, -24,97476, -27,19071, -17,5
12, R12I27, -25,53655, -25,99222, -17,5
12, R12I27, -26,17324, -24,78124, -17,5
12, R12I27, -26,78497, -23,80747, -17,5
12, R12I27, -27,37173, -22,95855, -17,5
12, R12I27, -27,95849, -22,1221, -17,5
12, R12I27, -28,75748, -21,07342, -17,5
12, R12I27, -29,49405, -20,24946, -17,5
12, R12I27, -30,29305, -19,33811, -17,5
12, R12I27, -31,06707, -18,26447, -17,5
12, R12I27, -31,92848, -17,11591, -17,5
12, R12I27, -32,7899, -15,89246, -17,5
12, R12I27, -33,48901, -14,76888, -17,5
12, R12I27, -34,12571, -13,74516, -17,5
12, R12I27, -34,63757, -12,55916, -17,5
12, R12I27, -35,07451, -11,498, -17,5
12, R12I27, -35,51146, -10,43684, -17,5
12, R12I27, -35,73618, -9,450582, -17,5
12, R12I27, -35,97338, -8,439361, -17,5
12, R12I27, -36,09822, -7,44062, -17,5
12, R12I27, -35,76115, -6,44188, -17,5
12, R12I27, -35,46153, -5,405681, -17,5
12, R12I27, -35,94841, -4,519301, -17,5
12, R12I27, -35,72369, -3,4082, -17,5
12, R12I27, -35,01209, -2,372008, -17,5
12, R12I27, -34,48775, -1,47314, -17,5
12, R12I27, -34,33795, -0,3870164, -17,5
12, R12I27, -34,22559, 0,7615364, -17,5
12, R12I27, -34,22559, 1,897608, -17,5
12, R12I27, -34,20061, 3,220936, -17,5
12, R12I27, -33,98838, 4,294579, -17,5
12, R12I27, -33,46405, 5,380711, -17,5
12, R12I27, -32,50276, 6,204676, -17,5
12, R12I27, -31,67879, 6,928761, -17,5
12, R12I27, -31,02962, 7,752718, -17,5
12, R12I27, -30,51776, 8,801399, -17,5
12, R12I27, -30,08081, 9,825109, -17,5
12, R12I27, -29,4566, 10,68652, -17,5
12, R12I27, -28,80742, 11,51048, -17,5
12, R12I27, -28,67009, 12,52171, -17,5
12, R12I27, -28,745, 13,54542, -17,5
12, R12I27, -28,8199, 14,54416, -17,5
12, R12I27, -28,62015, 15,55538, -17,5
12, R12I27, -28,14575, 16,45424, -17,5
12, R12I27, -28,00843, 17,47795, -17,5
12, R12I27, -28,25811, 18,63899, -17,5
12, R12I27, -27,98346, 19,61276, -17,5
12, R12I27, -26,98472, 19,83747, -17,5
12, R12I27, -25,8861, 19,7376, -17,5
12, R12I27, -24,68761, 19,77505, -17,5
12, R12I27, -23,52658, 20,03723, -17,5
12, R12I27, -22,56529, 20,49915, -17,5
12, R12I27, -21,50413, 20,99852, -17,5
12, R12I27, -20,59278, 21,56031, -17,5
12, R12I27, -19,76882, 22,33433, -17,5
12, R12I27, -19,19454, 23,28313, -17,5
12, R12I27, -18,86995, 24,48162, -17,5
12, R12I27, -18,64524, 25,64265, -17,5
12, R12I27, -18,42052, 26,64139, -17,5
12, R12I27, -17,39681, 26,51655, -17,5
12, R12I27, -16,7726, 25,73004, -17,5
12, R12I27, -15,78634, 25,97973, -17,5
12, R12I27, -15,01232, 26,76624, -17,5
12, R12I27, -14,41307, 27,76498, -17,5
12, R12I27, -13,76389, 28,75124, -17,5
12, R12I27, -12,70273, 29,27558, -17,5
12, R12I27, -11,65406, 29,40042, -17,5
12, R12I27, -10,61786, 29,48781, -17,5
12, R12I27, -9,631605, 29,91227, -17,5
12, R12I27, -8,595413, 30,5989, -17,5
12, R12I27, -7,646605, 31,19815, -17,5
12, R12I27, -6,672835, 31,92224, -17,5
12, R12I27, -5,823907, 32,63383, -17,5
12, R12I27, -4,775227, 33,23309, -17,5
12, R12I27, -3,751524, 33,52022, -17,5
12, R12I27, -2,553031, 33,67003, -17,5
12, R12I27, -1,404479, 33,58264, -17,5
12, R12I27, -0,2434445, 33,4578, -17,5
12, R12I27, 0,8551683, 33,40786, -17,5
12, R12I27, 1,878879, 33,40786, -17,5
12, R12I27, 2,902589, 33,52022, -17,5
12, R12I27, 3,926292, 33,5327, -17,5
12, R12I27, 5,099815, 33,29551, -17,5
12, R12I27, 6,123525, 32,7462, -17,5
12, R12I27, 6,935001, 32,00962, -17,5
12, R12I27, 7,559214, 31,12324, -17,5
12, R12I27, 7,771448, 30,0496, -17,5
12, R12I27, 7,846351, 28,81366, -17,5
12, R12I27, 7,871321, 27,76498, -17,5
12, R12I27, 8,071066, 26,66636, -17,5
12, R12I27, 8,570436, 25,73004, -17,5
12, R12I27, 9,144716, 24,7313, -17,5
12, R12I27, 9,444333, 23,55779, -17,5
12, R12I27, 9,444333, 22,34682, -17,5
12, R12I27, 9,419364, 21,04845, -17,5
12, R12I27, 9,506755, 19,86245, -17,5
12, R12I27, 9,78141, 18,87619, -17,5
12, R12I27, 10,35568, 18,02726, -17,5
12, R12I27, 11,15468, 17,40305, -17,5
12, R12I27, 11,55418, 16,44176, -17,5
12, R12I27, 11,80386, 15,34314, -17,5
12, R12I27, 12,20336, 14,40682, -17,5
12, R12I27, 13,16464, 13,89497, -17,5
12, R12I27, 14,26326, 14,08224, -17,5
12, R12I27, 15,37435, 14,53167, -17,5
12, R12I27, 16,37309, 14,88123, -17,5
12, R12I27, 17,4842, 14,96862, -17,5
12, R12I27, 18,53287, 14,669, -17,5
12, R12I27, 19,69391, 14,31944, -17,5
12, R12I27, 20,75507, 13,94491, -17,5
12, R12I27, 21,80375, 13,45802, -17,5
12, R12I27, 22,65267, 12,84629, -17,5
12, R12I27, 22,92734, 11,76017, -17,5
12, R12I27, 22,39051, 10,83633, -17,5
12, R12I27, 21,82871, 9,825109, -17,5
12, R12I27, 21,54157, 8,738977, -17,5
12, R12I27, 21,81623, 7,690298, -17,5
12, R12I27, 22,83994, 7,303288, -17,5
12, R12I27, 24,07588, 7,2908, -17,5
12, R12I27, 25,162, 7,36571, -17,5
12, R12I27, 26,24814, 7,453101, -17,5
12, R12I27, 27,42167, 7,2908, -17,5
12, R12I27, 28,27059, 6,629136, -17,5
12, R12I27, 28,64511, 5,630395, -17,5
12, R12I27, 28,59517, 4,544264, -17,5
12, R12I27, 28,1083, 3,495591, -17,5
12, R12I27, 27,83364, 2,496851, -17,5
12, R12I27, 27,85862, 1,398238, -17,5
12, R12I27, 27,59643, 0,3994977, -17,5
12, R12I27, 26,80993, -0,3994977, -17,5
12, R12I27, 25,71132, -0,8239653, -17,5
12, R12I27, 24,62519, -0,6991228, -17,5
12, R12I27, 23,71383, -9,987251E-02, -17,5
12, R12I27, 22,66515, 0,4244601, -17,5
12, R12I27, 21,67891, 0,7615364, -17,5
12, R12I27, 20,60526, 0,9238302, -17,5
12, R12I27, 19,59403, 0,9987403, -17,5
12, R12I27, 18,50791, 0,9862515, -17,5
12, R12I27, 17,44674, 0,961289, -17,5
12, R12I27, 16,33564, 0,8364465, -17,5
12, R12I27, 15,3369, 0,6491827, -17,5
12, R12I27, 14,37561, 0,2996175, -17,5
12, R12I27, 13,7514, -0,5867615, -17,5
12, R12I27, 14,27574, -1,460659, -17,5
12, R12I27, 15,44926, -1,947548, -17,5
12, R12I27, 16,49794, -2,559272, -17,5
12, R12I27, 17,44674, -3,295846, -17,5
12, R12I27, 18,38306, -3,98248, -17,5
12, R12I27, 19,34435, -4,519301, -17,5
12, R12I27, 20,2557, -5,031153, -17,5
12, R12I27, 21,15456, -5,518042, -17,5
12, R12I27, 22,02846, -6,017412, -17,5
12, R12I27, 22,71509, -6,44188, -17,5
12, R12I27, 23,66389, -6,491812, -17,5
12, R12I27, 22,70261, -11,74769, -20
12, R12I27, 23,40173, -12,48425, -20
12, R12I27, 24,08836, -13,23331, -20
12, R12I27, 24,75003, -14,1946, -20
12, R12I27, 25,44915, -15,26824, -20
12, R12I27, 25,93604, -16,41679, -20
12, R12I27, 26,38547, -17,50293, -20
12, R12I27, 26,8349, -18,42676, -20
12, R12I27, 27,32179, -19,51289, -20
12, R12I27, 27,7837, -20,52412, -20
12, R12I27, 28,25811, -21,61024, -20
12, R12I27, 28,67009, -22,79625, -20
12, R12I27, 28,99468, -23,88238, -20
12, R12I27, 29,18194, -24,98099, -20
12, R12I27, 29,10704, -26,11706, -20
12, R12I27, 28,78244, -27,24064, -20
12, R12I27, 28,37047, -28,27683, -20
12, R12I27, 27,82116, -29,30054, -20
12, R12I27, 27,19694, -30,12451, -20
12, R12I27, 26,51031, -31,06083, -20
12, R12I27, 25,54903, -31,68504, -20
12, R12I27, 24,33805, -31,83485, -20
12, R12I27, 23,17702, -31,75994, -20
12, R12I27, 22,14082, -31,49777, -20
12, R12I27, 21,05469, -30,98592, -20
12, R12I27, 19,84372, -30,79866, -20
12, R12I27, 18,84497, -30,88605, -20
12, R12I27, 17,75885, -31,27306, -20
12, R12I27, 16,72265, -31,67255, -20
12, R12I27, 15,82379, -32,13447, -20
12, R12I27, 14,77511, -32,5839, -20
12, R12I27, 13,57663, -33,09576, -20
12, R12I27, 12,47801, -33,4578, -20
12, R12I27, 11,32946, -33,70749, -20
12, R12I27, 10,09352, -34,01959, -20
12, R12I27, 8,957452, -34,29425, -20
12, R12I27, 7,971193, -34,50648, -20
12, R12I27, 6,972453, -34,71871, -20
12, R12I27, 5,8239, -34,91846, -20
12, R12I27, 4,525542, -35,05579, -20
12, R12I27, 3,139785, -35,14317, -20
12, R12I27, 1,691615, -35,25554, -20
12, R12I27, 0,2434369, -35,35541, -20
12, R12I27, -1,304606, -35,4428, -20
12, R12I27, -2,96501, -35,50522, -20
12, R12I27, -4,725295, -35,48025, -20
12, R12I27, -6,373218, -35,38038, -20
12, R12I27, -7,584184, -35,25554, -20
12, R12I27, -8,670316, -35,09324, -20
12, R12I27, -9,793899, -34,81859, -20
12, R12I27, -11,12971, -34,55642, -20
12, R12I27, -12,6528, -34,26928, -20
12, R12I27, -14,20084, -34,04456, -20
12, R12I27, -15,61157, -33,75743, -20
12, R12I27, -16,94737, -33,50774, -20
12, R12I27, -17,97108, -33,17067, -20
12, R12I27, -18,96983, -32,63384, -20
12, R12I27, -19,89366, -32,12199, -20
12, R12I27, -20,78004, -31,27306, -20
12, R12I27, -21,21699, -30,22438, -20
12, R12I27, -21,55407, -29,20067, -20
12, R12I27, -21,94108, -28,08957, -20
12, R12I27, -22,26567, -27,02841, -20
12, R12I27, -22,44045, -26,01719, -20
12, R12I27, -22,72759, -24,83118, -20
12, R12I27, -23,08963, -23,7825, -20
12, R12I27, -23,53907, -22,80873, -20
12, R12I27, -24,02595, -21,67267, -20
12, R12I27, -24,48787, -20,6115, -20
12, R12I27, -24,92482, -19,67518, -20
12, R12I27, -25,38674, -18,50167, -20
12, R12I27, -26,03592, -17,30318, -20
12, R12I27, -26,79745, -16,06724, -20
12, R12I27, -27,49657, -14,71894, -20
12, R12I27, -28,1083, -13,48299, -20
12, R12I27, -28,75748, -12,08476, -20
12, R12I27, -29,36921, -10,71149, -20
12, R12I27, -29,73125, -9,288288, -20
12, R12I27, -29,931, -7,665335, -20
12, R12I27, -29,91852, -6,41691, -20
12, R12I27, -29,83113, -5,343259, -20
12, R12I27, -29,51902, -4,269617, -20
12, R12I27, -29,15698, -3,158515, -20
12, R12I27, -28,8199, -2,084872, -20
12, R12I27, -28,49531, -0,9862591, -20
12, R12I27, -28,23314, 4,993244E-02, -20
12, R12I27, -27,97098, 1,02371, -20
12, R12I27, -27,65887, 1,984992, -20
12, R12I27, -27,05962, 2,996221, -20
12, R12I27, -26,34802, 3,795209, -20
12, R12I27, -25,49909, 4,544264, -20
12, R12I27, -24,73755, 5,255868, -20
12, R12I27, -24,03844, 6,267097, -20
12, R12I27, -23,40174, 7,153476, -20
12, R12I27, -22,76504, 8,239608, -20
12, R12I27, -22,20325, 9,275799, -20
12, R12I27, -21,62897, 10,18715, -20
12, R12I27, -20,99228, 11,02359, -20
12, R12I27, -20,23074, 11,78513, -20
12, R12I27, -19,44423, 12,42183, -20
12, R12I27, -18,68269, 13,10847, -20
12, R12I27, -18,02102, 13,88249, -20
12, R12I27, -17,49669, 15,01856, -20
12, R12I27, -17,20955, 16,06724, -20
12, R12I27, -16,99731, 17,09094, -20
12, R12I27, -16,57285, 18,0772, -20
12, R12I27, -15,91118, 18,8637, -20
12, R12I27, -15,21207, 19,58779, -20
12, R12I27, -14,48798, 20,3743, -20
12, R12I27, -13,92619, 21,4105, -20
12, R12I27, -13,4393, 22,33433, -20
12, R12I27, -12,62783, 22,93358, -20
12, R12I27, -11,49176, 22,95854, -20
12, R12I27, -10,5055, 23,3081, -20
12, R12I27, -9,631605, 23,96977, -20
12, R12I27, -8,745226, 24,55653, -20
12, R12I27, -7,671576, 24,6564, -20
12, R12I27, -6,647865, 24,61895, -20
12, R12I27, -5,724035, 25,11832, -20
12, R12I27, -4,837648, 26,01718, -20
12, R12I27, -4,076112, 26,86612, -20
12, R12I27, -3,376997, 27,75249, -20
12, R12I27, -2,602972, 28,71378, -20
12, R12I27, -1,866398, 29,67507, -20
12, R12I27, -0,9924997, 30,56145, -20
12, R12I27, -0,1061207, 31,33548, -20
12, R12I27, 0,8052283, 31,7974, -20
12, R12I27, 1,96627, 31,59764, -20
12, R12I27, 2,902589, 31,22312, -20
12, R12I27, 3,801449, 30,73623, -20
12, R12I27, 4,600444, 30,08705, -20
12, R12I27, 4,987453, 29,13824, -20
12, R12I27, 5,249627, 27,81492, -20
12, R12I27, 5,724027, 26,70382, -20
12, R12I27, 6,086074, 25,71756, -20
12, R12I27, 6,610406, 24,66888, -20
12, R12I27, 7,222138, 23,77002, -20
12, R12I27, 7,733989, 22,5965, -20
12, R12I27, 7,958712, 21,57279, -20
12, R12I27, 8,058584, 20,33685, -20
12, R12I27, 8,033614, 19,16333, -20
12, R12I27, 7,958712, 17,82751, -20
12, R12I27, 7,846351, 16,66648, -20
12, R12I27, 7,721508, 15,64277, -20
12, R12I27, 7,559214, 14,54416, -20
12, R12I27, 7,322011, 13,0835, -20
12, R12I27, 7,134747, 11,71023, -20
12, R12I27, 7,022393, 10,63659, -20
12, R12I27, 6,997423, 9,438093, -20
12, R12I27, 7,097295, 8,302029, -20
12, R12I27, 7,309529, 7,215897, -20
12, R12I27, 7,596665, 6,117284, -20
12, R12I27, 7,958712, 5,143514, -20
12, R12I27, 8,458082, 4,182225, -20
12, R12I27, 9,044836, 3,308327, -20
12, R12I27, 9,768929, 2,571753, -20
12, R12I27, 10,69276, 1,947541, -20
12, R12I27, 11,71647, 1,498111, -20
12, R12I27, 12,71521, 1,498111, -20
12, R12I27, 13,76389, 1,635434, -20
12, R12I27, 14,89995, 1,610464, -20
12, R12I27, 15,84875, 1,136064, -20
12, R12I27, 16,6103, 0,4244601, -20
12, R12I27, 17,22202, -0,3870164, -20
12, R12I27, 17,64649, -1,335817, -20
12, R12I27, 18,07096, -2,534302, -20
12, R12I27, 18,40803, -3,607952, -20
12, R12I27, 18,83249, -4,644144, -20
12, R12I27, 19,31938, -5,605433, -20
12, R12I27, 19,73136, -6,554234, -20
12, R12I27, 20,18079, -7,490552, -20
12, R12I27, 20,63023, -8,401901, -20
12, R12I27, 21,10462, -9,338221, -20
12, R12I27, 21,74133, -10,22461, -20
12, R12I27, 22,34057, -10,97366, -20
12, R12I27, 22,70261, -11,74769, -20
12, R12I27, 18,28318, -11,47303, -22,5
12, R12I27, 19,2195, -12,00985, -22,5
12, R12I27, 20,28066, -12,6091, -22,5
12, R12I27, 21,14208, -13,15841, -22,5
12, R12I27, 22,1533, -13,62032, -22,5
12, R12I27, 23,07714, -14,10721, -22,5
12, R12I27, 24,12582, -14,79384, -22,5
12, R12I27, 24,96226, -15,35563, -22,5
12, R12I27, 25,84864, -16,16711, -22,5
12, R12I27, 26,41043, -17,01604, -22,5
12, R12I27, 26,9972, -18,13962, -22,5
12, R12I27, 27,29682, -19,12588, -22,5
12, R12I27, 27,48409, -20,26195, -22,5
12, R12I27, 27,53401, -21,27317, -22,5
12, R12I27, 27,47159, -22,30936, -22,5
12, R12I27, 27,29682, -23,39549, -22,5
12, R12I27, 26,94726, -24,49411, -22,5
12, R12I27, 26,37299, -25,80495, -22,5
12, R12I27, 25,82368, -26,74127, -22,5
12, R12I27, 25,1745, -27,72753, -22,5
12, R12I27, 24,32557, -28,43913, -22,5
12, R12I27, 23,22695, -28,7013, -22,5
12, R12I27, 22,05344, -28,75124, -22,5
12, R12I27, 21,00476, -28,73875, -22,5
12, R12I27, 19,88117, -28,68882, -22,5
12, R12I27, 18,77007, -28,81366, -22,5
12, R12I27, 17,50917, -29,08831, -22,5
12, R12I27, 16,51043, -29,31303, -22,5
12, R12I27, 15,22454, -29,35048, -22,5
12, R12I27, 14,21332, -29,25061, -22,5
12, R12I27, 13,18961, -28,98844, -22,5
12, R12I27, 12,17839, -28,67633, -22,5
12, R12I27, 11,15468, -28,27683, -22,5
12, R12I27, 9,993644, -28,08957, -22,5
12, R12I27, 8,919993, -28,17696, -22,5
12, R12I27, 7,833869, -28,56397, -22,5
12, R12I27, 6,922513, -28,98844, -22,5
12, R12I27, 5,886321, -29,5752, -22,5
12, R12I27, 4,787708, -29,96221, -22,5
12, R12I27, 3,726547, -30,12451, -22,5
12, R12I27, 2,528061, -30,19941, -22,5
12, R12I27, 1,229696, -30,23686, -22,5
12, R12I27, -4,369946E-02, -30,19941, -22,5
12, R12I27, -1,379516, -30,13699, -22,5
12, R12I27, -2,553031, -30,02463, -22,5
12, R12I27, -3,551772, -29,92476, -22,5
12, R12I27, -4,825167, -29,89979, -22,5
12, R12I27, -5,873847, -29,88731, -22,5
12, R12I27, -7,022393, -29,93724, -22,5
12, R12I27, -8,345728, -30,06209, -22,5
12, R12I27, -9,544213, -30,14947, -22,5
12, R12I27, -10,78016, -30,18693, -22,5
12, R12I27, -11,84132, -30,13699, -22,5
12, R12I27, -12,86503, -30,0496, -22,5
12, R12I27, -14,00109, -29,89979, -22,5
12, R12I27, -15,06226, -29,70004, -22,5
12, R12I27, -16,31068, -29,40042, -22,5
12, R12I27, -17,52165, -28,97595, -22,5
12, R12I27, -18,62027, -28,41416, -22,5
12, R12I27, -19,53162, -27,74001, -22,5
12, R12I27, -20,50539, -27,01593, -22,5
12, R12I27, -21,21699, -26,2419, -22,5
12, R12I27, -21,89114, -25,24316, -22,5
12, R12I27, -22,49039, -24,19449, -22,5
12, R12I27, -22,88988, -23,25817, -22,5
12, R12I27, -23,23944, -22,23446, -22,5
12, R12I27, -23,48913, -21,13584, -22,5
12, R12I27, -23,61397, -20,02475, -22,5
12, R12I27, -23,72633, -18,87619, -22,5
12, R12I27, -23,75129, -17,82752, -22,5
12, R12I27, -23,76378, -16,54164, -22,5
12, R12I27, -23,88862, -15,36812, -22,5
12, R12I27, -24,17576, -14,34441, -22,5
12, R12I27, -24,58774, -13,40809, -22,5
12, R12I27, -25,07463, -12,48425, -22,5
12, R12I27, -25,66139, -11,61036, -22,5
12, R12I27, -26,17324, -10,67404, -22,5
12, R12I27, -26,46038, -9,612876, -22,5
12, R12I27, -26,63516, -8,551714, -22,5
12, R12I27, -26,4479, -7,378199, -22,5
12, R12I27, -25,76126, -6,566722, -22,5
12, R12I27, -24,96227, -5,705306, -22,5
12, R12I27, -24,76252, -4,719047, -22,5
12, R12I27, -24,79997, -3,45814, -22,5
12, R12I27, -24,79997, -2,347038, -22,5
12, R12I27, -24,79997, -1,161034, -22,5
12, R12I27, -24,775, 0,1123537, -22,5
12, R12I27, -24,63768, 1,298358, -22,5
12, R12I27, -24,42545, 2,484362, -22,5
12, R12I27, -24,17576, 3,570494, -22,5
12, R12I27, -23,60149, 4,394459, -22,5
12, R12I27, -22,57778, 4,88134, -22,5
12, R12I27, -21,54159, 5,056123, -22,5
12, R12I27, -20,51788, 5,293319, -22,5
12, R12I27, -19,65646, 5,979953, -22,5
12, R12I27, -19,64398, 7,053604, -22,5
12, R12I27, -19,91863, 8,064825, -22,5
12, R12I27, -19,00728, 8,551714, -22,5
12, R12I27, -17,93363, 8,876302, -22,5
12, R12I27, -17,83376, 9,962433, -22,5
12, R12I27, -18,1958, 10,96117, -22,5
12, R12I27, -17,87121, 11,90997, -22,5
12, R12I27, -16,88495, 12,08476, -22,5
12, R12I27, -15,73641, 12,15966, -22,5
12, R12I27, -14,89996, 12,87126, -22,5
12, R12I27, -15,07474, 13,89497, -22,5
12, R12I27, -15,34939, 14,86874, -22,5
12, R12I27, -14,87499, 15,76761, -22,5
12, R12I27, -13,90122, 16,07972, -22,5
12, R12I27, -12,86503, 16,54164, -22,5
12, R12I27, -12,00361, 17,40305, -22,5
12, R12I27, -11,31698, 18,38931, -22,5
12, R12I27, -10,79264, 19,3381, -22,5
12, R12I27, -10,21837, 20,22449, -22,5
12, R12I27, -9,556703, 20,99852, -22,5
12, R12I27, -8,782678, 21,73508, -22,5
12, R12I27, -7,871328, 22,23445, -22,5
12, R12I27, -6,885069, 22,02222, -22,5
12, R12I27, -5,711546, 22,32184, -22,5
12, R12I27, -4,92504, 22,95854, -22,5
12, R12I27, -4,113563, 23,73256, -22,5
12, R12I27, -3,177244, 24,55653, -22,5
12, R12I27, -2,240925, 25,26813, -22,5
12, R12I27, -1,292125, 25,91731, -22,5
12, R12I27, -0,2559333, 26,52904, -22,5
12, R12I27, 0,8052283, 26,79121, -22,5
12, R12I27, 1,816457, 26,79121, -22,5
12, R12I27, 2,8901, 26,42917, -22,5
12, R12I27, 3,926292, 25,90483, -22,5
12, R12I27, 4,750257, 25,23067, -22,5
12, R12I27, 5,224657, 24,28187, -22,5
12, R12I27, 5,724027, 23,3081, -22,5
12, R12I27, 6,148495, 22,38427, -22,5
12, R12I27, 6,647865, 21,44795, -22,5
12, R12I27, 7,284559, 20,58653, -22,5
12, R12I27, 8,008644, 19,82499, -22,5
12, R12I27, 8,071066, 18,77631, -22,5
12, R12I27, 8,34572, 17,81503, -22,5
12, R12I27, 9,032354, 17,00356, -22,5
12, R12I27, 9,107257, 15,94239, -22,5
12, R12I27, 8,80764, 14,91868, -22,5
12, R12I27, 8,545465, 13,80758, -22,5
12, R12I27, 8,820121, 12,78387, -22,5
12, R12I27, 9,706508, 12,08476, -22,5
12, R12I27, 10,58041, 11,46054, -22,5
12, R12I27, 11,09226, 10,52422, -22,5
12, R12I27, 10,9799, 9,338221, -22,5
12, R12I27, 10,84257, 8,214638, -22,5
12, R12I27, 11,11723, 7,066085, -22,5
12, R12I27, 11,64157, 6,079833, -22,5
12, R12I27, 12,17839, 5,230898, -22,5
12, R12I27, 12,8775, 4,419421, -22,5
12, R12I27, 13,61408, 3,545524, -22,5
12, R12I27, 14,42555, 2,833927, -22,5
12, R12I27, 15,44926, 2,034932, -22,5
12, R12I27, 16,32316, 1,373268, -22,5
12, R12I27, 17,19706, 0,5867615, -22,5
12, R12I27, 17,98357, -3,745124E-02, -22,5
12, R12I27, 18,88243, -0,8988678, -22,5
12, R12I27, 19,40677, -1,835187, -22,5
12, R12I27, 19,68142, -3,108582, -22,5
12, R12I27, 19,76881, -4,269617, -22,5
12, R12I27, 19,53161, -5,380718, -22,5
12, R12I27, 18,99479, -6,529263, -22,5
12, R12I27, 18,48294, -7,39068, -22,5
12, R12I27, 17,82127, -8,351969, -22,5
12, R12I27, 17,27196, -9,388161, -22,5
12, R12I27, 17,40929, -10,42435, -22,5
12, R12I27, 17,72139, -10,72398, -22,5
12, R12I27, 18,28318, -11,47303, -22,5
12, R12I27, 18,6702, -6,39194, -25
12, R12I27, 19,29441, -7,34074, -25
12, R12I27, 20,11837, -8,139735, -25
12, R12I27, 20,91737, -8,876309, -25
12, R12I27, 21,60399, -9,637846, -25
12, R12I27, 22,2282, -10,49926, -25
12, R12I27, 22,70261, -11,43558, -25
12, R12I27, 23,01472, -12,45929, -25
12, R12I27, 23,23944, -13,43306, -25
12, R12I27, 23,48913, -14,61906, -25
12, R12I27, 23,62645, -15,87997, -25
12, R12I27, 23,63893, -17,01604, -25
12, R12I27, 23,47663, -18,10217, -25
12, R12I27, 23,03968, -19,16333, -25
12, R12I27, 22,20324, -20,12462, -25
12, R12I27, 21,32935, -20,83622, -25
12, R12I27, 20,418, -21,42298, -25
12, R12I27, 19,46919, -22,03471, -25
12, R12I27, 18,44549, -22,55905, -25
12, R12I27, 17,33438, -22,996, -25
12, R12I27, 16,29819, -23,42046, -25
12, R12I27, 15,21206, -23,88238, -25
12, R12I27, 14,12593, -24,26939, -25
12, R12I27, 13,02732, -24,59398, -25
12, R12I27, 12,06603, -24,98099, -25
12, R12I27, 10,91747, -25,34303, -25
12, R12I27, 9,619116, -25,80495, -25
12, R12I27, 8,283299, -26,26687, -25
12, R12I27, 7,222138, -26,60395, -25
12, R12I27, 6,223398, -26,90357, -25
12, R12I27, 5,199687, -27,19071, -25
12, R12I27, 4,238398, -27,47784, -25
12, R12I27, 2,989973, -27,83989, -25
12, R12I27, 1,89136, -28,12703, -25
12, R12I27, 0,7927471, -28,40168, -25
12, R12I27, -0,2559333, -28,73875, -25
12, R12I27, -1,304606, -28,82615, -25
12, R12I27, -2,403219, -28,65136, -25
12, R12I27, -3,389478, -28,36423, -25
12, R12I27, -4,563001, -28,2269, -25
12, R12I27, -5,699065, -28,40168, -25
12, R12I27, -6,860099, -28,80118, -25
12, R12I27, -7,808907, -29,11328, -25
12, R12I27, -8,920001, -29,12577, -25
12, R12I27, -10,04358, -29,01341, -25
12, R12I27, -11,11723, -28,95099, -25
12, R12I27, -12,20336, -28,31429, -25
12, R12I27, -13,07726, -27,5153, -25
12, R12I27, -13,92619, -26,89109, -25
12, R12I27, -14,73767, -26,167, -25
12, R12I27, -15,54914, -25,28061, -25
12, R12I27, -16,23578, -24,31933, -25
12, R12I27, -16,78508, -23,33307, -25
12, R12I27, -17,247, -22,28439, -25
12, R12I27, -17,54663, -21,23572, -25
12, R12I27, -17,84624, -19,97481, -25
12, R12I27, -18,046, -18,73887, -25
12, R12I27, -18,24574, -17,45299, -25
12, R12I27, -18,39555, -16,32941, -25
12, R12I27, -18,49543, -15,31818, -25
12, R12I27, -18,60779, -14,28199, -25
12, R12I27, -18,58282, -13,12095, -25
12, R12I27, -18,39555, -11,89749, -25
12, R12I27, -18,05848, -10,77391, -25
12, R12I27, -17,63401, -9,787658, -25
12, R12I27, -17,20955, -8,851339, -25
12, R12I27, -16,88495, -7,877569, -25
12, R12I27, -16,72266, -6,591684, -25
12, R12I27, -16,63527, -5,592944, -25
12, R12I27, -16,63527, -4,419429, -25
12, R12I27, -16,66024, -3,208455, -25
12, R12I27, -16,63527, -1,897608, -25
12, R12I27, -16,61031, -0,7490553, -25
12, R12I27, -16,57285, 0,5243402, -25
12, R12I27, -16,41055, 1,710344, -25
12, R12I27, -16,1359, 2,696596, -25
12, R12I27, -15,63653, 3,8826, -25
12, R12I27, -15,06226, 4,968731, -25
12, R12I27, -14,53792, 5,967472, -25
12, R12I27, -14,11345, 7,003664, -25
12, R12I27, -13,76389, 8,114765, -25
12, R12I27, -13,4393, 9,088535, -25
12, R12I27, -13,0398, 10,31199, -25
12, R12I27, -12,70273, 11,42309, -25
12, R12I27, -12,45304, 12,47177, -25
12, R12I27, -12,15343, 13,57039, -25
12, R12I27, -11,69151, 14,65651, -25
12, R12I27, -11,10475, 15,51793, -25
12, R12I27, -10,31824, 16,27946, -25
12, R12I27, -9,369439, 17,10343, -25
12, R12I27, -8,495541, 17,98981, -25
12, R12I27, -7,783937, 18,87619, -25
12, R12I27, -6,984941, 19,80002, -25
12, R12I27, -6,348248, 20,66144, -25
12, R12I27, -5,711546, 21,53534, -25
12, R12I27, -4,837648, 22,09713, -25
12, R12I27, -3,751524, 22,14706, -25
12, R12I27, -2,765265, 22,5965, -25
12, R12I27, -2,315835, 23,58275, -25
12, R12I27, -1,329576, 23,96977, -25
12, R12I27, -0,193512, 23,5453, -25
12, R12I27, 0,6803858, 23,05842, -25
12, R12I27, 1,716585, 22,49663, -25
12, R12I27, 2,453151, 21,51037, -25
12, R12I27, 3,039913, 20,63647, -25
12, R12I27, 3,714066, 19,68767, -25
12, R12I27, 4,538023, 18,68893, -25
12, R12I27, 5,312048, 17,70267, -25
12, R12I27, 6,048615, 16,86622, -25
12, R12I27, 6,747738, 15,97985, -25
12, R12I27, 7,247108, 15,05601, -25
12, R12I27, 7,421883, 13,80758, -25
12, R12I27, 7,29704, 12,72145, -25
12, R12I27, 7,022393, 11,67278, -25
12, R12I27, 6,772708, 10,51174, -25
12, R12I27, 6,735249, 9,350701, -25
12, R12I27, 6,922513, 8,227118, -25
12, R12I27, 7,421883, 7,203416, -25
12, R12I27, 8,258329, 6,292059, -25
12, R12I27, 8,919993, 5,318289, -25
12, R12I27, 9,394402, 4,40694, -25
12, R12I27, 9,943704, 3,445651, -25
12, R12I27, 10,64283, 2,646663, -25
12, R12I27, 11,44181, 1,984992, -25
12, R12I27, 12,44055, 1,735307, -25
12, R12I27, 13,05229, 0,8489277, -25
12, R12I27, 12,82757, -0,2247151, -25
12, R12I27, 13,63905, -1,061162, -25
12, R12I27, 14,43804, -1,710344, -25
12, R12I27, 15,31193, -2,471881, -25
12, R12I27, 16,11093, -3,333297, -25
12, R12I27, 16,76011, -4,232165, -25
12, R12I27, 17,5591, -5,255876, -25
12, R12I27, 18,22076, -6,104803, -25
12, R12I27, 18,6702, -6,39194, -25
12, R12I27, 17,59655, -6,978701, -27,5
12, R12I27, 18,34561, -7,86508, -27,5
12, R12I27, 18,77007, -8,86382, -27,5
12, R12I27, 19,10715, -9,93747, -27,5
12, R12I27, 19,28192, -10,97366, -27,5
12, R12I27, 19,44423, -12,19712, -27,5
12, R12I27, 19,56907, -13,34567, -27,5
12, R12I27, 19,55658, -14,4318, -27,5
12, R12I27, 19,33186, -15,5429, -27,5
12, R12I27, 18,98231, -16,79132, -27,5
12, R12I27, 18,49542, -17,93987, -27,5
12, R12I27, 18,00854, -18,90116, -27,5
12, R12I27, 17,50917, -19,77506, -27,5
12, R12I27, 16,56036, -20,44921, -27,5
12, R12I27, 15,46175, -20,83622, -27,5
12, R12I27, 14,43804, -20,98603, -27,5
12, R12I27, 13,2021, -21,09839, -27,5
12, R12I27, 12,1659, -21,12336, -27,5
12, R12I27, 10,96741, -21,22323, -27,5
12, R12I27, 9,893771, -21,37304, -27,5
12, R12I27, 8,645346, -21,79751, -27,5
12, R12I27, 7,584184, -22,1221, -27,5
12, R12I27, 6,597925, -22,38427, -27,5
12, R12I27, 5,461861, -22,85867, -27,5
12, R12I27, 4,525542, -23,25817, -27,5
12, R12I27, 3,464381, -23,55779, -27,5
12, R12I27, 2,378249, -23,7825, -27,5
12, R12I27, 1,229696, -23,96977, -27,5
12, R12I27, 0,1810156, -24,14455, -27,5
12, R12I27, -0,9300784, -24,35678, -27,5
12, R12I27, -2,116083, -24,53156, -27,5
12, R12I27, -3,189733, -24,5815, -27,5
12, R12I27, -4,238406, -24,68137, -27,5
12, R12I27, -5,436899, -24,71882, -27,5
12, R12I27, -6,460601, -24,69386, -27,5
12, R12I27, -7,546733, -24,71882, -27,5
12, R12I27, -8,632865, -24,85615, -27,5
12, R12I27, -9,656575, -24,93106, -27,5
12, R12I27, -10,74271, -25,33055, -27,5
12, R12I27, -11,59163, -25,87986, -27,5
12, R12I27, -12,64031, -26,20445, -27,5
12, R12I27, -13,66402, -25,89235, -27,5
12, R12I27, -14,01357, -24,88112, -27,5
12, R12I27, -14,05103, -23,58276, -27,5
12, R12I27, -14,11345, -22,39676, -27,5
12, R12I27, -14,18836, -21,12336, -27,5
12, R12I27, -14,20084, -19,84996, -27,5
12, R12I27, -14,06351, -18,42676, -27,5
12, R12I27, -13,9137, -17,04101, -27,5
12, R12I27, -13,78886, -15,64277, -27,5
12, R12I27, -13,70147, -14,35689, -27,5
12, R12I27, -13,57663, -13,15841, -27,5
12, R12I27, -13,45178, -11,95991, -27,5
12, R12I27, -13,37688, -10,77391, -27,5
12, R12I27, -13,40185, -9,463063, -27,5
12, R12I27, -13,4393, -8,064833, -27,5
12, R12I27, -13,55166, -6,991182, -27,5
12, R12I27, -13,67651, -5,842629, -27,5
12, R12I27, -13,87625, -4,644144, -27,5
12, R12I27, -14,11345, -3,258395, -27,5
12, R12I27, -14,37562, -2,047421, -27,5
12, R12I27, -14,62531, -0,9363191, -27,5
12, R12I27, -14,82505, 0,3620388, -27,5
12, R12I27, -15,0248, 1,610464, -27,5
12, R12I27, -15,07474, 2,671626, -27,5
12, R12I27, -14,88747, 3,93254, -27,5
12, R12I27, -14,46301, 5,43065, -27,5
12, R12I27, -13,8388, 7,003664, -27,5
12, R12I27, -13,16465, 8,376931, -27,5
12, R12I27, -12,35317, 10,11225, -27,5
12, R12I27, -11,51672, 11,74768, -27,5
12, R12I27, -10,53047, 13,48299, -27,5
12, R12I27, -9,394402, 15,2183, -27,5
12, R12I27, -8,695286, 16,45424, -27,5
12, R12I27, -7,709027, 18,0023, -27,5
12, R12I27, -6,885069, 19,23823, -27,5
12, R12I27, -6,223405, 20,1371, -27,5
12, R12I27, -5,461861, 20,78628, -27,5
12, R12I27, -4,4007, 21,38552, -27,5
12, R12I27, -3,339538, 21,67266, -27,5
12, R12I27, -2,365768, 21,97229, -27,5
12, R12I27, -1,192252, 22,02222, -27,5
12, R12I27, 0,1061131, 22,04719, -27,5
12, R12I27, 1,154794, 21,90987, -27,5
12, R12I27, 2,228436, 21,58527, -27,5
12, R12I27, 3,164755, 21,16081, -27,5
12, R12I27, 4,101074, 20,62399, -27,5
12, R12I27, 4,950002, 19,77505, -27,5
12, R12I27, 5,37447, 18,82625, -27,5
12, R12I27, 5,3495, 17,69019, -27,5
12, R12I27, 5,124785, 16,51667, -27,5
12, R12I27, 5,037394, 15,50544, -27,5
12, R12I27, 5,748997, 14,61906, -27,5
12, R12I27, 6,685317, 14,05727, -27,5
12, R12I27, 7,209657, 13,14592, -27,5
12, R12I27, 6,947483, 12,12221, -27,5
12, R12I27, 6,523023, 11,08602, -27,5
12, R12I27, 6,84761, 10,06231, -27,5
12, R12I27, 7,621635, 9,213378, -27,5
12, R12I27, 7,783929, 8,139735, -27,5
12, R12I27, 7,696538, 6,991182, -27,5
12, R12I27, 8,021133, 5,855111, -27,5
12, R12I27, 8,657827, 4,843889, -27,5
12, R12I27, 9,531725, 4,032413, -27,5
12, R12I27, 10,25581, 3,295838, -27,5
12, R12I27, 10,85505, 2,297098, -27,5
12, R12I27, 11,39188, 1,298358, -27,5
12, R12I27, 11,94118, 0,4494301, -27,5
12, R12I27, 12,59037, -0,4369489, -27,5
12, R12I27, 13,22706, -1,235944, -27,5
12, R12I27, 14,06351, -2,047421, -27,5
12, R12I27, 14,87498, -2,946289, -27,5
12, R12I27, 15,59907, -3,845149, -27,5
12, R12I27, 16,33564, -4,806438, -27,5
12, R12I27, 16,93489, -5,755246, -27,5
12, R12I27, 17,3219, -6,566722, -27,5
12, R12I27, 17,59655, -6,978701, -27,5
12, R12I27, 18,78255, -11,56042, -30
12, R12I27, 18,50791, -12,64655, -30
12, R12I27, 18,00854, -13,64529, -30
12, R12I27, 17,37184, -14,65652, -30
12, R12I27, 16,72265, -15,49296, -30
12, R12I27, 16,03602, -16,32941, -30
12, R12I27, 15,17461, -17,11591, -30
12, R12I27, 14,36313, -17,75261, -30
12, R12I27, 13,50172, -18,30192, -30
12, R12I27, 12,54043, -18,65148, -30
12, R12I27, 11,54169, -18,75135, -30
12, R12I27, 10,45556, -18,57657, -30
12, R12I27, 9,294521, -18,43925, -30
12, R12I27, 8,183427, -18,51415, -30
12, R12I27, 7,159717, -18,87619, -30
12, R12I27, 6,123525, -19,36308, -30
12, R12I27, 5,037394, -19,52538, -30
12, R12I27, 3,988713, -19,11339, -30
12, R12I27, 2,927552, -18,92613, -30
12, R12I27, 2,028691, -19,5878, -30
12, R12I27, 1,229696, -20,36182, -30
12, R12I27, 0,2184744, -20,39927, -30
12, R12I27, -0,8426871, -20,14959, -30
12, R12I27, -1,941308, -19,96233, -30
12, R12I27, -3,164763, -19,91239, -30
12, R12I27, -4,163503, -19,98729, -30
12, R12I27, -5,361989, -20,09965, -30
12, R12I27, -6,435639, -20,18704, -30
12, R12I27, -7,47183, -20,31188, -30
12, R12I27, -8,732738, -20,38679, -30
12, R12I27, -9,793899, -20,34933, -30
12, R12I27, -10,99239, -20,27443, -30
12, R12I27, -12,10349, -20,24946, -30
12, R12I27, -13,31446, -20,04971, -30
12, R12I27, -14,42556, -19,6627, -30
12, R12I27, -15,262, -18,98855, -30
12, R12I27, -15,61157, -17,90242, -30
12, R12I27, -15,91118, -16,85374, -30
12, R12I27, -16,03603, -15,68022, -30
12, R12I27, -15,96112, -14,64403, -30
12, R12I27, -15,56163, -13,28325, -30
12, R12I27, -15,06226, -11,81011, -30
12, R12I27, -14,48798, -10,26206, -30
12, R12I27, -14,00109, -8,851339, -30
12, R12I27, -13,6016, -7,515522, -30
12, R12I27, -13,27701, -6,279578, -30
12, R12I27, -12,91496, -4,943769, -30
12, R12I27, -12,39062, -3,208455, -30
12, R12I27, -11,76641, -1,47314, -30
12, R12I27, -11,3045, -0,2372039, -30
12, R12I27, -10,81761, 1,235937, -30
12, R12I27, -10,15594, 2,90883, -30
12, R12I27, -9,456822, 4,419421, -30
12, R12I27, -8,670316, 6,079833, -30
12, R12I27, -7,659094, 8,002403, -30
12, R12I27, -6,622903, 9,712748, -30
12, R12I27, -5,911299, 11,16092, -30
12, R12I27, -5,374477, 12,32196, -30
12, R12I27, -4,92504, 13,3956, -30
12, R12I27, -4,163503, 14,73142, -30
12, R12I27, -3,127312, 16,31692, -30
12, R12I27, -2,003729, 17,71515, -30
12, R12I27, -1,06741, 18,9511, -30
12, R12I27, -0,343317, 19,77505, -30
12, R12I27, 0,4556707, 20,38679, -30
12, R12I27, 1,516832, 20,9361, -30
12, R12I27, 2,765258, 21,06094, -30
12, R12I27, 3,801449, 20,74883, -30
12, R12I27, 4,775227, 20,31188, -30
12, R12I27, 5,79893, 19,51289, -30
12, R12I27, 6,435631, 18,66396, -30
12, R12I27, 6,972453, 17,69019, -30
12, R12I27, 7,621635, 16,62903, -30
12, R12I27, 8,021133, 15,40557, -30
12, R12I27, 8,220879, 14,23205, -30
12, R12I27, 8,33324, 12,98362, -30
12, R12I27, 8,470563, 11,78513, -30
12, R12I27, 8,570436, 10,72397, -30
12, R12I27, 8,682797, 9,712748, -30
12, R12I27, 8,969934, 8,514263, -30
12, R12I27, 9,319491, 7,2908, -30
12, R12I27, 9,594146, 6,267097, -30
12, R12I27, 9,906253, 5,230898, -30
12, R12I27, 10,33072, 4,119804, -30
12, R12I27, 10,85505, 3,108575, -30
12, R12I27, 11,34194, 2,172256, -30
12, R12I27, 12,06603, 1,298358, -30
12, R12I27, 12,8775, 0,4119789, -30
12, R12I27, 13,78885, -0,4494377, -30
12, R12I27, 14,58785, -1,223455, -30
12, R12I27, 15,37435, -1,960029, -30
12, R12I27, 16,12341, -2,9338, -30
12, R12I27, 16,73514, -3,90757, -30
12, R12I27, 17,19706, -4,806438, -30
12, R12I27, 17,54662, -5,967472, -30
12, R12I27, 17,82127, -7,178446, -30
12, R12I27, 18,08344, -8,214638, -30
12, R12I27, 18,30815, -9,400641, -30
12, R12I27, 18,50791, -10,48677, -30
12, R12I27, 18,52039, -10,77391, -30
12, R12I27, 18,78255, -11,56042, -30
12, R12I27, 17,92114, -11,2608, -32,5
12, R12I27, 17,1596, -12,17215, -32,5
12, R12I27, 16,2108, -12,93369, -32,5
12, R12I27, 15,16212, -13,57039, -32,5
12, R12I27, 14,1509, -13,99485, -32,5
12, R12I27, 13,22706, -14,39435, -32,5
12, R12I27, 12,1659, -14,86875, -32,5
12, R12I27, 11,1422, -15,26824, -32,5
12, R12I27, 10,20588, -15,6178, -32,5
12, R12I27, 9,019874, -16,05475, -32,5
12, R12I27, 7,921253, -16,42928, -32,5
12, R12I27, 6,947483, -16,70393, -32,5
12, R12I27, 5,961231, -16,90368, -32,5
12, R12I27, 4,762738, -17,02853, -32,5
12, R12I27, 3,614185, -17,09095, -32,5
12, R12I27, 2,478121, -16,97859, -32,5
12, R12I27, 1,36702, -16,84126, -32,5
12, R12I27, 0,2309556, -16,46673, -32,5
12, R12I27, -0,6803933, -16,0173, -32,5
12, R12I27, -1,56678, -15,51793, -32,5
12, R12I27, -2,49061, -15,03104, -32,5
12, R12I27, -3,614193, -14,38186, -32,5
12, R12I27, -4,800197, -13,75765, -32,5
12, R12I27, -5,848877, -13,15841, -32,5
12, R12I27, -6,810167, -12,64655, -32,5
12, R12I27, -7,821388, -12,07228, -32,5
12, R12I27, -8,557962, -11,3357, -32,5
12, R12I27, -9,282047, -10,48677, -32,5
12, R12I27, -9,968681, -9,525484, -32,5
12, R12I27, -10,48053, -8,539233, -32,5
12, R12I27, -10,79264, -7,428131, -32,5
12, R12I27, -10,85506, -6,317037, -32,5
12, R12I27, -10,94245, -5,230906, -32,5
12, R12I27, -10,95493, -4,019931, -32,5
12, R12I27, -10,81761, -2,833927, -32,5
12, R12I27, -10,45556, -1,685374, -32,5
12, R12I27, -10,04358, -0,6741527, -32,5
12, R12I27, -9,456822, 0,711604, -32,5
12, R12I27, -8,732738, 2,059902, -32,5
12, R12I27, -7,93375, 3,570494, -32,5
12, R12I27, -7,247116, 5,031153, -32,5
12, R12I27, -6,760227, 6,36697, -32,5
12, R12I27, -6,260857, 7,740237, -32,5
12, R12I27, -5,848877, 8,88879, -32,5
12, R12I27, -5,39944, 10,12473, -32,5
12, R12I27, -4,338278, 12,05979, -32,5
12, R12I27, -3,252154, 13,72019, -32,5
12, R12I27, -2,503099, 14,78135, -32,5
12, R12I27, -1,666652, 15,94239, -32,5
12, R12I27, -0,7553034, 17,09094, -32,5
12, R12I27, 4,369184E-02, 17,80254, -32,5
12, R12I27, 0,9300708, 18,48918, -32,5
12, R12I27, 2,091113, 19,20078, -32,5
12, R12I27, 3,002461, 19,7376, -32,5
12, R12I27, 4,200947, 19,77505, -32,5
12, R12I27, 5,199687, 19,31314, -32,5
12, R12I27, 5,861351, 18,40178, -32,5
12, R12I27, 6,160976, 17,31566, -32,5
12, R12I27, 6,89755, 16,59157, -32,5
12, R12I27, 7,883802, 16,22953, -32,5
12, R12I27, 8,932482, 16,42928, -32,5
12, R12I27, 9,881283, 15,99233, -32,5
12, R12I27, 10,48053, 14,94365, -32,5
12, R12I27, 10,49301, 13,67026, -32,5
12, R12I27, 10,45556, 12,05979, -32,5
12, R12I27, 10,24333, 10,49925, -32,5
12, R12I27, 10,00612, 8,81388, -32,5
12, R12I27, 9,80638, 7,465582, -32,5
12, R12I27, 9,581665, 6,154736, -32,5
12, R12I27, 9,469303, 5,006183, -32,5
12, R12I27, 9,669048, 3,95751, -32,5
12, R12I27, 10,54295, 2,971251, -32,5
12, R12I27, 11,36691, 2,297098, -32,5
12, R12I27, 12,091, 1,597983, -32,5
12, R12I27, 12,84005, 0,7615364, -32,5
12, R12I27, 13,63905, -0,2122338, -32,5
12, R12I27, 14,45052, -1,161034, -32,5
12, R12I27, 15,18709, -1,997481, -32,5
12, R12I27, 15,8113, -2,783987, -32,5
12, R12I27, 16,6103, -3,782727, -32,5
12, R12I27, 17,30941, -4,731535, -32,5
12, R12I27, 17,94612, -5,692824, -32,5
12, R12I27, 18,59529, -6,604173, -32,5
12, R12I27, 19,03224, -7,515522, -32,5
12, R12I27, 19,30689, -8,751467, -32,5
12, R12I27, 19,19454, -10,01237, -32,5
12, R12I27, 18,64523, -11,17341, -32,5
12, R12I27, 17,92114, -11,2608, -32,5
