Report_Number, Iceberg_Number, X_Value, Y_Value, Z_Value
12, R12I19, 29,67698, -32,454, -15
12, R12I19, 28,67726, -32,79958, -15
12, R12I19, 27,70222, -33,10814, -15
12, R12I19, 26,5544, -33,50309, -15
12, R12I19, 25,54232, -33,83633, -15
12, R12I19, 24,59197, -34,18192, -15
12, R12I19, 23,51819, -34,42876, -15
12, R12I19, 22,49379, -34,68795, -15
12, R12I19, 21,25956, -34,95948, -15
12, R12I19, 20,09938, -35,26804, -15
12, R12I19, 19,06263, -35,4902, -15
12, R12I19, 17,89012, -35,65065, -15
12, R12I19, 16,63121, -35,82344, -15
12, R12I19, 15,64383, -35,93452, -15
12, R12I19, 14,48365, -36,0456, -15
12, R12I19, 13,38519, -36,16902, -15
12, R12I19, 12,18799, -36,26776, -15
12, R12I19, 10,97844, -36,40353, -15
12, R12I19, 9,793589, -36,61334, -15
12, R12I19, 8,608733, -36,90956, -15
12, R12I19, 7,670717, -37,23045, -15
12, R12I19, 6,769732, -37,63775, -15
12, R12I19, 5,868748, -38,05739, -15
12, R12I19, 4,930731, -38,53873, -15
12, R12I19, 3,968035, -39,27927, -15
12, R12I19, 3,067051, -40,04449, -15
12, R12I19, 2,36354, -40,77269, -15
12, R12I19, 1,536607, -41,53791, -15
12, R12I19, 0,6973338, -42,10565, -15
12, R12I19, -0,2653618, -42,3525, -15
12, R12I19, -0,6973413, -41,20467, -15
12, R12I19, -0,796078, -40,15557, -15
12, R12I19, -1,363827, -39,27927, -15
12, R12I19, -2,178414, -38,63748, -15
12, R12I19, -3,079398, -37,89694, -15
12, R12I19, -4,029754, -37,14406, -15
12, R12I19, -4,955425, -36,32947, -15
12, R12I19, -5,683621, -35,60128, -15
12, R12I19, -6,362446, -34,83606, -15
12, R12I19, -7,115322, -34,00912, -15
12, R12I19, -7,831172, -33,13282, -15
12, R12I19, -8,547022, -32,35526, -15
12, R12I19, -9,287559, -31,70112, -15
12, R12I19, -10,02809, -30,72608, -15
12, R12I19, -10,31197, -29,75104, -15
12, R12I19, -10,53413, -28,66492, -15
12, R12I19, -10,65755, -27,6652, -15
12, R12I19, -10,78098, -26,60376, -15
12, R12I19, -10,96611, -25,62872, -15
12, R12I19, -11,36107, -24,5426, -15
12, R12I19, -12,26205, -23,96251, -15
12, R12I19, 0,4258023, 34,42876, -15
12, R12I19, 1,376159, 33,79931, -15
12, R12I19, 2,227778, 33,2686, -15
12, R12I19, 3,104076, 32,6268, -15
12, R12I19, 3,918671, 31,99734, -15
12, R12I19, 4,893706, 31,38022, -15
12, R12I19, 5,79469, 30,66437, -15
12, R12I19, 6,63397, 29,89915, -15
12, R12I19, 7,485582, 28,9488, -15
12, R12I19, 8,152068, 28,09718, -15
12, R12I19, 8,818546, 27,24556, -15
12, R12I19, 9,522058, 26,52971, -15
12, R12I19, 10,36133, 25,75215, -15
12, R12I19, 11,22529, 25,14738, -15
12, R12I19, 12,07691, 24,62901, -15
12, R12I19, 13,13834, 24,19703, -15
12, R12I19, 14,16276, 23,67865, -15
12, R12I19, 15,07608, 23,16027, -15
12, R12I19, 16,02644, 22,62956, -15
12, R12I19, 16,85337, 22,03713, -15
12, R12I19, 17,6803, 21,33362, -15
12, R12I19, 18,51957, 20,54371, -15
12, R12I19, 19,29714, 19,80317, -15
12, R12I19, 19,9883, 18,80345, -15
12, R12I19, 20,42028, 17,87778, -15
12, R12I19, 20,79055, 16,804, -15
12, R12I19, 21,06209, 15,68086, -15
12, R12I19, 21,19785, 14,55771, -15
12, R12I19, 21,22253, 13,49628, -15
12, R12I19, 21,08677, 12,34845, -15
12, R12I19, 20,8646, 11,15125, -15
12, R12I19, 20,70416, 9,97873, -15
12, R12I19, 20,5684, 8,818554, -15
12, R12I19, 20,82758, 7,757122, -15
12, R12I19, 21,48171, 6,658657, -15
12, R12I19, 22,1482, 5,720647, -15
12, R12I19, 22,75297, 4,757951, -15
12, R12I19, 23,29604, 3,893992, -15
12, R12I19, 23,81441, 2,820213, -15
12, R12I19, 24,22171, 1,795806, -15
12, R12I19, 24,70306, 0,7096806, -15
12, R12I19, 25,15972, -0,2900403, -15
12, R12I19, 25,67809, -1,400845, -15
12, R12I19, 26,12242, -2,326515, -15
12, R12I19, 26,5544, -3,21516, -15
12, R12I19, 27,01105, -4,15317, -15
12, R12I19, 27,60349, -5,115865, -15
12, R12I19, 28,30699, -6,090908, -15
12, R12I19, 28,85006, -6,868469, -15
12, R12I19, 29,19563, -7,621352, -15
12, R12I19, 28,61555, -7,769453, -20
12, R12I19, 29,0969, -8,732157, -20
12, R12I19, 29,66464, -9,64548, -20
12, R12I19, 30,15833, -10,50944, -20
12, R12I19, 30,72608, -11,3734, -20
12, R12I19, 31,38022, -12,20033, -20
12, R12I19, 31,93563, -13,08898, -20
12, R12I19, 32,55274, -13,95294, -20
12, R12I19, 33,16985, -14,92797, -20
12, R12I19, 33,76227, -16,00175, -20
12, R12I19, 34,40408, -16,97679, -20
12, R12I19, 35,07056, -18,0012, -20
12, R12I19, 35,7247, -18,95156, -20
12, R12I19, 36,3665, -19,88956, -20
12, R12I19, 36,98362, -20,75352, -20
12, R12I19, -13,39754, -24,32044, -15
12, R12I19, -14,44663, -24,57963, -15
12, R12I19, -15,39698, -24,2217, -15
12, R12I19, -15,97707, -23,3454, -15
12, R12I19, -16,22392, -22,34568, -15
12, R12I19, -16,66824, -21,30893, -15
12, R12I19, -17,08788, -20,28452, -15
12, R12I19, -17,58157, -19,112, -15
12, R12I19, -18,09994, -17,95183, -15
12, R12I19, -18,70472, -16,96445, -15
12, R12I19, -19,33417, -16,05112, -15
12, R12I19, -19,88957, -15,12545, -15
12, R12I19, 30,65203, -7,892876, -5
12, R12I19, 31,08401, -8,806207, -5
12, R12I19, 31,34319, -9,966379, -5
12, R12I19, 31,49131, -11,1389, -5
12, R12I19, 31,78751, -12,28673, -5
12, R12I19, 32,20715, -13,3605, -5
12, R12I19, 32,55274, -14,43428, -5
12, R12I19, 32,87363, -15,42166, -5
12, R12I19, 33,04643, -16,44607, -5
12, R12I19, 33,10814, -17,45814, -5
12, R12I19, 33,18219, -18,49489, -5
12, R12I19, 33,2439, -19,81551, -5
12, R12I19, 33,28094, -20,92632, -5
12, R12I19, 33,36732, -21,95073, -5
12, R12I19, 33,57714, -22,99982, -5
12, R12I19, 33,70056, -24,24639, -5
12, R12I19, 33,73759, -25,24611, -5
12, R12I19, 33,86102, -26,23349, -5
12, R12I19, 34,02147, -27,31961, -5
12, R12I19, 34,18191, -28,36871, -5
12, R12I19, 34,36705, -29,47951, -5
12, R12I19, 34,5275, -30,67671, -5
12, R12I19, 34,46579, -31,72581, -5
12, R12I19, 33,55246, -32,54039, -5
12, R12I19, 32,45399, -32,99706, -5
12, R12I19, 31,30617, -33,03408, -5
12, R12I19, 30,23239, -32,99706, -5
12, R12I19, 29,15861, -33,02174, -5
12, R12I19, 27,94907, -32,98471, -5
12, R12I19, 26,83826, -33,25624, -5
12, R12I19, 25,86322, -33,45372, -5
12, R12I19, 24,74008, -33,72525, -5
12, R12I19, 23,75269, -33,98444, -5
12, R12I19, 22,75297, -34,42876, -5
12, R12I19, 21,64217, -34,81137, -5
12, R12I19, 20,59307, -34,97182, -5
12, R12I19, 19,50695, -35,15696, -5
12, R12I19, 18,45786, -34,97182, -5
12, R12I19, 17,34706, -34,73732, -5
12, R12I19, 16,27328, -34,46579, -5
12, R12I19, 15,29824, -34,13255, -5
12, R12I19, 14,17509, -33,63885, -5
12, R12I19, 13,10132, -33,28093, -5
12, R12I19, 12,10159, -32,89832, -5
12, R12I19, 11,07719, -32,33057, -5
12, R12I19, 10,20088, -31,86157, -5
12, R12I19, 9,201161, -31,46662, -5
12, R12I19, 8,201432, -31,10869, -5
12, R12I19, 7,127661, -30,73842, -5
12, R12I19, 6,041535, -30,41752, -5
12, R12I19, 4,918392, -30,22005, -5
12, R12I19, 3,795248, -30,10897, -5
12, R12I19, 2,733808, -30,04725, -5
12, R12I19, 1,697062, -29,96086, -5
12, R12I19, 0,4751744, -29,80041, -5
12, R12I19, -0,6479692, -29,61528, -5
12, R12I19, -1,78346, -29,40546, -5
12, R12I19, -2,931289, -29,22032, -5
12, R12I19, -3,943357, -29,01051, -5
12, R12I19, -4,943085, -28,776, -5
12, R12I19, -5,844069, -28,2206, -5
12, R12I19, -5,91812, -27,20853, -5
12, R12I19, -5,732986, -26,12241, -5
12, R12I19, -6,14028, -25,04864, -5
12, R12I19, -7,078297, -24,57963, -5
12, R12I19, -8,20144, -24,53026, -5
12, R12I19, -9,250533, -24,80179, -5
12, R12I19, -10,32431, -25,03629, -5
12, R12I19, -11,44746, -25,28314, -5
12, R12I19, -12,657, -25,54233, -5
12, R12I19, -13,66906, -25,83854, -5
12, R12I19, -14,61942, -26,13475, -5
12, R12I19, -15,73023, -26,40629, -5
12, R12I19, -16,85338, -26,48034, -5
12, R12I19, -17,7667, -26,03602, -5
12, R12I19, -18,17399, -25,04864, -5
12, R12I19, -18,3221, -23,9872, -5
12, R12I19, -18,56895, -22,96279, -5
12, R12I19, -18,93921, -21,87667, -5
12, R12I19, -19,42057, -20,951, -5
12, R12I19, -20,06237, -20,06236, -5
12, R12I19, -20,82758, -19,05029, -5
12, R12I19, -21,56812, -18,13696, -5
12, R12I19, -22,19758, -17,34706, -5
12, R12I19, -22,82703, -16,49544, -5
12, R12I19, -22,99983, -15,40932, -5
12, R12I19, -23,39478, -14,4096, -5
12, R12I19, -23,86378, -13,34816, -5
12, R12I19, -24,3081, -12,16331, -5
12, R12I19, -24,69072, -11,16358, -5
12, R12I19, -25,08566, -10,0898, -5
12, R12I19, -25,46828, -8,979002, -5
12, R12I19, -25,9126, -7,855851, -5
12, R12I19, -26,30755, -6,880816, -5
12, R12I19, -26,77656, -5,807037, -5
12, R12I19, -27,14683, -4,86902, -5
12, R12I19, -27,5788, -3,782901, -5
12, R12I19, -27,99845, -2,807867, -5
12, R12I19, -28,43042, -1,845163, -5
12, R12I19, -28,73898, -0,8207565, -5
12, R12I19, -28,78835, 0,1789644, -5
12, R12I19, -28,59087, 1,240404, -5
12, R12I19, -28,10952, 2,425259, -5
12, R12I19, -27,65286, 3,499038, -5
12, R12I19, -27,25791, 4,498759, -5
12, R12I19, -27,0234, 5,461455, -5
12, R12I19, -26,91233, 6,498209, -5
12, R12I19, -26,82593, 7,497929, -5
12, R12I19, -26,75187, 8,559369, -5
12, R12I19, -26,67782, 9,682512, -5
12, R12I19, -26,48035, 10,9044, -5
12, R12I19, -26,24584, 11,96583, -5
12, R12I19, -25,94962, 12,92853, -5
12, R12I19, -25,48062, 13,97762, -5
12, R12I19, -25,25846, 15,07609, -5
12, R12I19, -25,32017, 16,14987, -5
12, R12I19, -25,66575, 17,07553, -5
12, R12I19, -26,1471, 18,03823, -5
12, R12I19, -26,40629, 19,01327, -5
12, R12I19, -26,17179, 20,05002, -5
12, R12I19, -25,72746, 21,02506, -5
12, R12I19, -25,06099, 21,91371, -5
12, R12I19, -24,29576, 22,75298, -5
12, R12I19, -23,39478, 23,41946, -5
12, R12I19, -22,51847, 23,97486, -5
12, R12I19, -21,58047, 24,64135, -5
12, R12I19, -20,74119, 25,22143, -5
12, R12I19, -19,80317, 25,94962, -5
12, R12I19, -18,84048, 26,62845, -5
12, R12I19, -18,06292, 27,38133, -5
12, R12I19, -17,37175, 28,18358, -5
12, R12I19, -16,72995, 28,96114, -5
12, R12I19, -16,00176, 29,77573, -5
12, R12I19, -15,2242, 30,71375, -5
12, R12I19, -14,52068, 31,52833, -5
12, R12I19, -13,75546, 32,34293, -5
12, R12I19, -12,91619, 32,99707, -5
12, R12I19, -11,89178, 33,50309, -5
12, R12I19, -10,92909, 33,79931, -5
12, R12I19, -9,929358, 33,98445, -5
12, R12I19, -8,904951, 34,16958, -5
12, R12I19, -7,818833, 34,293, -5
12, R12I19, -6,55992, 34,35471, -5
12, R12I19, -5,560199, 34,50282, -5
12, R12I19, -4,313625, 34,62625, -5
12, R12I19, -3,289218, 34,78669, -5
12, R12I19, -2,314176, 35,1693, -5
12, R12I19, -1,388505, 35,63831, -5
12, R12I19, -0,5615793, 36,26777, -5
12, R12I19, 0,1419316, 37,23046, -5
12, R12I19, 1,178685, 37,23046, -5
12, R12I19, 2,042644, 36,30479, -5
12, R12I19, 2,79552, 35,63831, -5
12, R12I19, 3,610114, 35,07056, -5
12, R12I19, 4,560463, 34,31769, -5
12, R12I19, 5,387396, 33,40436, -5
12, R12I19, 6,127933, 32,5404, -5
12, R12I19, 6,85613, 31,73815, -5
12, R12I19, 7,658377, 30,81248, -5
12, R12I19, 8,312516, 29,84978, -5
12, R12I19, 8,892605, 28,92412, -5
12, R12I19, 9,497371, 28,03547, -5
12, R12I19, 10,08981, 27,23322, -5
12, R12I19, 10,95376, 26,40629, -5
12, R12I19, 11,74367, 25,76449, -5
12, R12I19, 12,68168, 25,23377, -5
12, R12I19, 13,65672, 24,69072, -5
12, R12I19, 14,53302, 24,22171, -5
12, R12I19, 15,53274, 23,50586, -5
12, R12I19, 16,29797, 22,8764, -5
12, R12I19, 17,08787, 21,98776, -5
12, R12I19, 17,56922, 20,90164, -5
12, R12I19, 17,89012, 19,77849, -5
12, R12I19, 18,1493, 18,63066, -5
12, R12I19, 18,49489, 17,6803, -5
12, R12I19, 18,95155, 16,74229, -5
12, R12I19, 19,63037, 16,0141, -5
12, R12I19, 20,50669, 15,44635, -5
12, R12I19, 21,37064, 14,84158, -5
12, R12I19, 22,34567, 14,2615, -5
12, R12I19, 23,22198, 13,78015, -5
12, R12I19, 24,17233, 13,08898, -5
12, R12I19, 24,81413, 12,13863, -5
12, R12I19, 25,19675, 11,12656, -5
12, R12I19, 25,45593, 9,966383, -5
12, R12I19, 25,75215, 9,003688, -5
12, R12I19, 26,20881, 8,016306, -5
12, R12I19, 26,80124, 7,115322, -5
12, R12I19, 27,45537, 6,325414, -5
12, R12I19, 28,1342, 5,387404, -5
12, R12I19, 28,62789, 4,449395, -5
12, R12I19, 28,88708, 3,313904, -5
12, R12I19, 28,92411, 2,227786, -5
12, R12I19, 28,75131, 1,178693, -5
12, R12I19, 28,60321, 4,320247E-02, -5
12, R12I19, 28,57852, -0,9935513, -5
12, R12I19, 28,87473, -1,980933, -5
12, R12I19, 29,54122, -2,857231, -5
12, R12I19, 30,18301, -3,782901, -5
12, R12I19, 30,6767, -4,720919, -5
12, R12I19, 30,88653, -5,819376, -5
12, R12I19, 30,86184, -6,806757, -5
12, R12I19, 30,86184, -6,967206, -5
12, R12I19, 30,65203, -7,892876, -5
12, R12I19, 32,1331, -7,769453, -10
12, R12I19, 32,40462, -8,744495, -10
12, R12I19, 32,71318, -9,879986, -10
12, R12I19, 32,96003, -10,85502, -10
12, R12I19, 33,12048, -11,91646, -10
12, R12I19, 33,25624, -13,08898, -10
12, R12I19, 33,4167, -14,12573, -10
12, R12I19, 33,36732, -15,22419, -10
12, R12I19, 33,20687, -16,29797, -10
12, R12I19, 32,96003, -17,31003, -10
12, R12I19, 32,60211, -18,38381, -10
12, R12I19, 32,23184, -19,37119, -10
12, R12I19, 31,8122, -20,49434, -10
12, R12I19, 31,45427, -21,45704, -10
12, R12I19, 31,12104, -22,60486, -10
12, R12I19, 30,87419, -23,85143, -10
12, R12I19, 30,71374, -24,82647, -10
12, R12I19, 30,68906, -25,87556, -10
12, R12I19, 30,96058, -27,0234, -10
12, R12I19, 31,34319, -28,07249, -10
12, R12I19, 31,45427, -29,07222, -10
12, R12I19, 30,68906, -29,92383, -10
12, R12I19, 29,61527, -30,50392, -10
12, R12I19, 28,5415, -30,99761, -10
12, R12I19, 27,5788, -31,4913, -10
12, R12I19, 26,61611, -31,92328, -10
12, R12I19, 25,65341, -32,31823, -10
12, R12I19, 24,48089, -32,76255, -10
12, R12I19, 23,53054, -33,08345, -10
12, R12I19, 22,60487, -33,42904, -10
12, R12I19, 21,65451, -33,84867, -10
12, R12I19, 20,74118, -34,24363, -10
12, R12I19, 19,77849, -34,55219, -10
12, R12I19, 18,80345, -34,82371, -10
12, R12I19, 17,5939, -35,14461, -10
12, R12I19, 16,50779, -35,4902, -10
12, R12I19, 15,42166, -35,82344, -10
12, R12I19, 14,26149, -36,07028, -10
12, R12I19, 13,27411, -36,23073, -10
12, R12I19, 12,10159, -36,47758, -10
12, R12I19, 11,11421, -36,67505, -10
12, R12I19, 10,02809, -36,81082, -10
12, R12I19, 8,966655, -36,90956, -10
12, R12I19, 7,942248, -36,79847, -10
12, R12I19, 6,991892, -36,5146, -10
12, R12I19, 5,881087, -36,13199, -10
12, R12I19, 4,696232, -35,77407, -10
12, R12I19, 3,684165, -35,57659, -10
12, R12I19, 2,659758, -35,36678, -10
12, R12I19, 1,487242, -35,1693, -10
12, R12I19, 0,3147264, -35,10759, -10
12, R12I19, -0,84545, -35,18164, -10
12, R12I19, -1,99328, -35,39146, -10
12, R12I19, -2,968322, -35,81109, -10
12, R12I19, -3,931018, -36,23073, -10
12, R12I19, -4,918399, -36,61334, -10
12, R12I19, -5,881095, -36,90956, -10
12, R12I19, -6,646317, -36,0456, -10
12, R12I19, -6,535233, -34,94714, -10
12, R12I19, -6,05389, -33,9721, -10
12, R12I19, -5,770011, -32,94769, -10
12, R12I19, -6,3501, -32,05904, -10
12, R12I19, -7,325142, -31,5777, -10
12, R12I19, -8,472972, -31,28148, -10
12, R12I19, -9,620801, -30,97293, -10
12, R12I19, -10,85503, -30,65203, -10
12, R12I19, -11,87944, -30,40518, -10
12, R12I19, -13,08898, -30,10897, -10
12, R12I19, -14,19979, -29,84978, -10
12, R12I19, -15,2242, -29,62762, -10
12, R12I19, -16,38436, -29,3314, -10
12, R12I19, -17,47049, -29,05987, -10
12, R12I19, -18,22337, -28,12186, -10
12, R12I19, -18,56895, -27,04808, -10
12, R12I19, -19,22309, -26,03602, -10
12, R12I19, -20,07471, -25,1844, -10
12, R12I19, -21,01272, -24,38215, -10
12, R12I19, -21,75325, -23,69099, -10
12, R12I19, -22,58018, -22,90108, -10
12, R12I19, -22,79, -21,92604, -10
12, R12I19, -22,19758, -20,98803, -10
12, R12I19, -21,27191, -20,40794, -10
12, R12I19, -20,63011, -19,61804, -10
12, R12I19, -20,17344, -18,66768, -10
12, R12I19, -20,40795, -17,56922, -10
12, R12I19, -20,83993, -16,52013, -10
12, R12I19, -21,43236, -15,53274, -10
12, R12I19, -22,04947, -14,57005, -10
12, R12I19, -22,5555, -13,71843, -10
12, R12I19, -23,03685, -12,76808, -10
12, R12I19, -23,59225, -11,6943, -10
12, R12I19, -24,18468, -10,54647, -10
12, R12I19, -24,67837, -9,583769, -10
12, R12I19, -25,24612, -8,522336, -10
12, R12I19, -25,80152, -7,547294, -10
12, R12I19, -26,33224, -6,535226, -10
12, R12I19, -26,71485, -5,572531, -10
12, R12I19, -27,14683, -4,671546, -10
12, R12I19, -27,51709, -3,696504, -10
12, R12I19, -27,89971, -2,758494, -10
12, R12I19, -28,36871, -1,721741, -10
12, R12I19, -28,6279, -0,7467058, -10
12, R12I19, -28,68961, 0,3270732, -10
12, R12I19, -28,38105, 1,376166, -10
12, R12I19, -27,9861, 2,301836, -10
12, R12I19, -27,50476, 3,363269, -10
12, R12I19, -27,1098, 4,313625, -10
12, R12I19, -26,86296, 5,313354, -10
12, R12I19, -26,72719, 6,313075, -10
12, R12I19, -26,61611, 7,325142, -10
12, R12I19, -26,51737, 8,374235, -10
12, R12I19, -26,41864, 9,423328, -10
12, R12I19, -26,29521, 10,48476, -10
12, R12I19, -26,06071, 11,48449, -10
12, R12I19, -25,62873, 12,58295, -10
12, R12I19, -25,28315, 13,52096, -10
12, R12I19, -24,97459, 14,496, -10
12, R12I19, -24,91288, 15,54509, -10
12, R12I19, -25,08566, 16,68058, -10
12, R12I19, -25,38188, 17,65562, -10
12, R12I19, -25,66575, 18,70472, -10
12, R12I19, -25,6781, 19,74146, -10
12, R12I19, -25,36954, 20,87695, -10
12, R12I19, -24,83882, 21,79029, -10
12, R12I19, -24,04892, 22,61721, -10
12, R12I19, -23,18496, 23,24667, -10
12, R12I19, -22,37037, 23,8391, -10
12, R12I19, -21,34596, 24,5673, -10
12, R12I19, -20,29687, 25,24612, -10
12, R12I19, -19,37119, 25,8262, -10
12, R12I19, -18,50724, 26,34458, -10
12, R12I19, -17,63094, 27,01106, -10
12, R12I19, -16,8904, 27,7516, -10
12, R12I19, -16,06347, 28,50447, -10
12, R12I19, -15,28591, 29,17096, -10
12, R12I19, -14,53302, 29,9115, -10
12, R12I19, -13,90357, 30,7878, -10
12, R12I19, -13,45925, 31,76284, -10
12, R12I19, -12,90385, 32,68851, -10
12, R12I19, -11,90412, 33,10814, -10
12, R12I19, -10,74395, 32,63914, -10
12, R12I19, -9,793596, 32,2195, -10
12, R12I19, -8,793868, 31,8122, -10
12, R12I19, -7,794147, 31,41726, -10
12, R12I19, -6,76974, 31,28149, -10
12, R12I19, -5,782358, 31,73815, -10
12, R12I19, -5,066508, 32,46635, -10
12, R12I19, -4,461734, 33,25625, -10
12, R12I19, -3,85696, 34,13255, -10
12, R12I19, -3,215168, 34,99651, -10
12, R12I19, -2,462285, 35,63831, -10
12, R12I19, -1,536614, 35,98389, -10
12, R12I19, -0,499868, 36,19371, -10
12, R12I19, 0,5245465, 36,15668, -10
12, R12I19, 1,598318, 35,77407, -10
12, R12I19, 2,49931, 35,36678, -10
12, R12I19, 3,449659, 34,92245, -10
12, R12I19, 4,288939, 34,36705, -10
12, R12I19, 5,128212, 33,67589, -10
12, R12I19, 6,016857, 32,96004, -10
12, R12I19, 6,843783, 32,20716, -10
12, R12I19, 7,633691, 31,33086, -10
12, R12I19, 8,324856, 30,47924, -10
12, R12I19, 8,941969, 29,55357, -10
12, R12I19, 9,64548, 28,72663, -10
12, R12I19, 10,34899, 27,89971, -10
12, R12I19, 11,08953, 27,17151, -10
12, R12I19, 11,95349, 26,44331, -10
12, R12I19, 12,90384, 25,9126, -10
12, R12I19, 13,78014, 25,45593, -10
12, R12I19, 14,65645, 24,93756, -10
12, R12I19, 15,65617, 24,38216, -10
12, R12I19, 16,55715, 23,76505, -10
12, R12I19, 17,33471, 23,08622, -10
12, R12I19, 18,16165, 22,24694, -10
12, R12I19, 18,81578, 21,27191, -10
12, R12I19, 19,35885, 20,35858, -10
12, R12I19, 19,88957, 19,33417, -10
12, R12I19, 20,35857, 18,3221, -10
12, R12I19, 20,81524, 17,34707, -10
12, R12I19, 21,43236, 16,31031, -10
12, R12I19, 21,9754, 15,19951, -10
12, R12I19, 22,44442, 14,29852, -10
12, R12I19, 22,95045, 13,37285, -10
12, R12I19, 23,45648, 12,44718, -10
12, R12I19, 23,92549, 11,57088, -10
12, R12I19, 24,5426, 10,71927, -10
12, R12I19, 25,18439, 9,892333, -10
12, R12I19, 25,78917, 9,065399, -10
12, R12I19, 26,43097, 8,312524, -10
12, R12I19, 27,12214, 7,497929, -10
12, R12I19, 27,8133, 6,646317, -10
12, R12I19, 28,50447, 5,770011, -10
12, R12I19, 29,14627, 4,794977, -10
12, R12I19, 29,72635, 3,869306, -10
12, R12I19, 30,1213, 2,955975, -10
12, R12I19, 30,5286, 1,968594, -10
12, R12I19, 30,94824, 0,9071614, -10
12, R12I19, 31,26914, -0,1913037, -10
12, R12I19, 31,54066, -1,22805, -10
12, R12I19, 31,77517, -2,203092, -10
12, R12I19, 31,92329, -3,21516, -10
12, R12I19, 32,09607, -4,313618, -10
12, R12I19, 32,25652, -5,387396, -10
12, R12I19, 32,34291, -6,42415, -10
12, R12I19, 32,37994, -6,893155, -10
12, R12I19, 32,1331, -7,769453, -10
12, R12I19, 29,19563, -7,621352, -15
12, R12I19, 29,78807, -8,435939, -15
12, R12I19, 30,36815, -9,336923, -15
12, R12I19, 30,6767, -10,3243, -15
12, R12I19, 30,94824, -11,39808, -15
12, R12I19, 31,23211, -12,34844, -15
12, R12I19, 31,66409, -13,23708, -15
12, R12I19, 32,14544, -14,33554, -15
12, R12I19, 32,62679, -15,23653, -15
12, R12I19, 33,15751, -16,23626, -15
12, R12I19, 33,72525, -17,34706, -15
12, R12I19, 34,31767, -18,3221, -15
12, R12I19, 34,92245, -19,14903, -15
12, R12I19, 35,67532, -20,01299, -15
12, R12I19, 36,44055, -20,79055, -15
12, R12I19, 37,15639, -21,51875, -15
12, R12I19, 37,78587, -22,29631, -15
12, R12I19, 38,37828, -23,18495, -15
12, R12I19, 38,88432, -24,20936, -15
12, R12I19, 39,03243, -25,22143, -15
12, R12I19, 39,02009, -26,20881, -15
12, R12I19, 38,79792, -27,2579, -15
12, R12I19, 38,09442, -28,33168, -15
12, R12I19, 37,25514, -29,03519, -15
12, R12I19, 36,14434, -29,76338, -15
12, R12I19, 35,03353, -30,34347, -15
12, R12I19, 34,03381, -30,72608, -15
12, R12I19, 32,93534, -31,15806, -15
12, R12I19, 31,8122, -31,62706, -15
12, R12I19, 30,76311, -32,08373, -15
12, R12I19, -20,44497, -14,21212, -15
12, R12I19, -20,98804, -13,3605, -15
12, R12I19, -21,55578, -12,3361, -15
12, R12I19, -22,12352, -11,3734, -15
12, R12I19, -22,79, -10,34899, -15
12, R12I19, -23,35775, -9,497375, -15
12, R12I19, -23,91315, -8,645759, -15
12, R12I19, -24,46855, -7,769453, -15
12, R12I19, -25,13504, -6,695682, -15
12, R12I19, -25,71512, -5,856401, -15
12, R12I19, -26,27053, -5,017128, -15
12, R12I19, -26,82593, -4,116144, -15
12, R12I19, -27,29493, -3,141102, -15
12, R12I19, -27,71457, -2,06733, -15
12, R12I19, -28,02313, -1,018237, -15
12, R12I19, -28,19592, 6,788851E-02, -15
12, R12I19, -28,25763, 1,228057, -15
12, R12I19, -28,23294, 2,462285, -15
12, R12I19, -28,12187, 3,449666, -15
12, R12I19, -27,9861, 4,548131, -15
12, R12I19, -27,78863, 5,62191, -15
12, R12I19, -27,50476, 6,745054, -15
12, R12I19, -27,14683, 7,979281, -15
12, R12I19, -26,83827, 9,040713, -15
12, R12I19, -26,57908, 10,00342, -15
12, R12I19, -26,48035, 11,00314, -15
12, R12I19, -26,66548, 12,20034, -15
12, R12I19, -26,92467, 13,22475, -15
12, R12I19, -27,24556, 14,19979, -15
12, R12I19, -27,55412, 15,16248, -15
12, R12I19, -27,94907, 16,22392, -15
12, R12I19, -28,33169, 17,16193, -15
12, R12I19, -28,70196, 18,11228, -15
12, R12I19, -29,08456, 19,19841, -15
12, R12I19, -29,22033, 20,32155, -15
12, R12I19, -28,97348, 21,30893, -15
12, R12I19, -28,31934, 22,09884, -15
12, R12I19, -27,39367, 22,81469, -15
12, R12I19, -26,49269, 23,27136, -15
12, R12I19, -25,5053, 23,71568, -15
12, R12I19, -24,53026, 23,97486, -15
12, R12I19, -23,32072, 24,24639, -15
12, R12I19, -22,19758, 24,51792, -15
12, R12I19, -21,19785, 24,67837, -15
12, R12I19, -20,13642, 24,85117, -15
12, R12I19, -19,16138, 25,01161, -15
12, R12I19, -18,05057, 25,38188, -15
12, R12I19, -17,13725, 25,8262, -15
12, R12I19, -16,28563, 26,52971, -15
12, R12I19, -15,54509, 27,50476, -15
12, R12I19, -14,80455, 28,40574, -15
12, R12I19, -14,11339, 29,1833, -15
12, R12I19, -13,38519, 29,89915, -15
12, R12I19, -12,57061, 30,57797, -15
12, R12I19, -11,55854, 31,21977, -15
12, R12I19, -10,49711, 31,54068, -15
12, R12I19, -9,410981, 31,52833, -15
12, R12I19, -8,472972, 31,19509, -15
12, R12I19, -7,48559, 30,84951, -15
12, R12I19, -6,374786, 31,21977, -15
12, R12I19, -5,547852, 31,97266, -15
12, R12I19, -4,757951, 32,83662, -15
12, R12I19, -4,017415, 33,63886, -15
12, R12I19, -3,264532, 34,31769, -15
12, R12I19, -2,49931, 34,99651, -15
12, R12I19, -1,400852, 35,19399, -15
12, R12I19, -0,4381566, 34,91012, -15
12, R12I19, 37,67478, -21,56811, -20
12, R12I19, 38,35361, -22,51847, -20
12, R12I19, 38,98306, -23,54288, -20
12, R12I19, 39,42738, -24,59197, -20
12, R12I19, 39,60017, -25,77683, -20
12, R12I19, 39,58783, -26,76421, -20
12, R12I19, 39,34099, -27,75159, -20
12, R12I19, 38,88432, -28,96113, -20
12, R12I19, 38,37828, -29,94851, -20
12, R12I19, 37,42794, -30,86185, -20
12, R12I19, 36,31713, -31,63941, -20
12, R12I19, 35,35443, -32,05904, -20
12, R12I19, 34,10786, -32,44165, -20
12, R12I19, 32,71318, -32,79958, -20
12, R12I19, 31,19509, -33,10814, -20
12, R12I19, 29,50419, -33,51543, -20
12, R12I19, 27,9861, -33,77462, -20
12, R12I19, 26,34457, -34,15723, -20
12, R12I19, 24,70306, -34,42876, -20
12, R12I19, 23,27134, -34,77434, -20
12, R12I19, 22,01244, -35,04588, -20
12, R12I19, 20,75353, -35,24335, -20
12, R12I19, 19,5193, -35,45317, -20
12, R12I19, 18,27272, -35,73704, -20
12, R12I19, 16,97679, -36,05794, -20
12, R12I19, 15,63148, -36,48992, -20
12, R12I19, 14,34789, -36,97127, -20
12, R12I19, 13,23709, -37,45262, -20
12, R12I19, 12,2497, -37,92162, -20
12, R12I19, 11,24998, -38,46468, -20
12, R12I19, 10,27494, -39,00774, -20
12, R12I19, 9,386295, -39,51377, -20
12, R12I19, 8,423599, -40,01981, -20
12, R12I19, 7,473243, -40,50116, -20
12, R12I19, 6,498201, -41,00719, -20
12, R12I19, 5,49848, -41,45151, -20
12, R12I19, 4,387676, -41,89584, -20
12, R12I19, 3,375608, -42,2661, -20
12, R12I19, 2,326515, -42,56232, -20
12, R12I19, 1,289761, -42,78448, -20
12, R12I19, 0,1666176, -42,40187, -20
12, R12I19, -0,8084248, -41,57494, -20
12, R12I19, -1,5613, -40,58755, -20
12, R12I19, -2,2031, -39,56314, -20
12, R12I19, -2,844899, -38,64981, -20
12, R12I19, -3,610114, -37,68712, -20
12, R12I19, -4,375336, -36,65037, -20
12, R12I19, -5,12822, -35,68767, -20
12, R12I19, -5,893434, -34,70029, -20
12, R12I19, -6,609292, -33,84867, -20
12, R12I19, -7,349828, -33,12048, -20
12, R12I19, -8,287838, -32,25652, -20
12, R12I19, -9,139458, -31,55301, -20
12, R12I19, -10,1762, -30,76311, -20
12, R12I19, -11,05251, -30,10897, -20
12, R12I19, -11,85476, -29,51653, -20
12, R12I19, -12,81745, -28,70195, -20
12, R12I19, -13,66906, -27,80096, -20
12, R12I19, -14,27384, -26,71484, -20
12, R12I19, -14,66879, -25,61638, -20
12, R12I19, -15,07609, -24,49323, -20
12, R12I19, -15,59446, -23,3454, -20
12, R12I19, -16,14987, -22,07415, -20
12, R12I19, -16,66824, -20,85226, -20
12, R12I19, -17,18661, -19,59335, -20
12, R12I19, -17,74201, -18,33444, -20
12, R12I19, -18,33445, -17,02616, -20
12, R12I19, -18,98859, -15,77959, -20
12, R12I19, -19,63039, -14,81689, -20
12, R12I19, -20,22281, -13,97762, -20
12, R12I19, -20,86461, -13,01492, -20
12, R12I19, -21,48173, -12,03988, -20
12, R12I19, -22,09884, -11,21295, -20
12, R12I19, -22,85172, -10,1762, -20
12, R12I19, -23,46883, -9,275211, -20
12, R12I19, -24,13532, -8,263144, -20
12, R12I19, -24,74008, -7,177026, -20
12, R12I19, -25,19675, -6,041535, -20
12, R12I19, -25,44359, -5,07884, -20
12, R12I19, -25,6781, -3,85696, -20
12, R12I19, -25,98666, -2,832545, -20
12, R12I19, -26,40629, -1,795799, -20
12, R12I19, -26,92467, -0,5862579, -20
12, R12I19, -27,34431, 0,5122072, -20
12, R12I19, -27,65286, 1,511928, -20
12, R12I19, -27,82565, 2,721477, -20
12, R12I19, -27,86267, 3,807595, -20
12, R12I19, -27,77629, 4,893713, -20
12, R12I19, -27,54178, 6,05389, -20
12, R12I19, -27,23322, 7,201719, -20
12, R12I19, -26,72719, 8,324862, -20
12, R12I19, -26,07305, 9,373956, -20
12, R12I19, -25,48062, 10,20089, -20
12, R12I19, -24,81414, 10,97845, -20
12, R12I19, -24,06126, 11,84241, -20
12, R12I19, -23,18496, 12,74339, -20
12, R12I19, -22,77767, 13,82952, -20
12, R12I19, -22,69127, 14,94032, -20
12, R12I19, -22,77767, 16,03878, -20
12, R12I19, -22,86406, 17,02616, -20
12, R12I19, -23,01217, 18,18634, -20
12, R12I19, -23,1973, 19,2848, -20
12, R12I19, -23,46883, 20,43263, -20
12, R12I19, -23,65396, 21,45704, -20
12, R12I19, -23,61694, 22,45676, -20
12, R12I19, -23,32072, 23,45649, -20
12, R12I19, -22,46911, 24,11063, -20
12, R12I19, -21,39533, 24,38216, -20
12, R12I19, -20,27218, 24,51792, -20
12, R12I19, -19,32183, 24,78946, -20
12, R12I19, -18,3221, 25,15972, -20
12, R12I19, -17,50751, 25,72746, -20
12, R12I19, -16,76698, 26,65314, -20
12, R12I19, -16,12518, 27,5788, -20
12, R12I19, -15,54509, 28,44276, -20
12, R12I19, -14,79222, 29,25736, -20
12, R12I19, -13,71844, 29,65231, -20
12, R12I19, -12,63232, 29,66465, -20
12, R12I19, -11,62025, 29,45483, -20
12, R12I19, -10,64521, 29,13394, -20
12, R12I19, -9,472692, 28,77601, -20
12, R12I19, -8,559369, 28,38105, -20
12, R12I19, -7,621352, 27,99845, -20
12, R12I19, -6,448836, 27,838, -20
12, R12I19, -5,288667, 27,82565, -20
12, R12I19, -4,325972, 28,09718, -20
12, R12I19, -3,412641, 28,66492, -20
12, R12I19, -2,659765, 29,40546, -20
12, R12I19, -2,27715, 30,4669, -20
12, R12I19, -1,857518, 31,47897, -20
12, R12I19, -0,7220274, 31,35555, -20
12, R12I19, 0,2900403, 31,19509, -20
12, R12I19, 1,302108, 31,29383, -20
12, R12I19, 2,227778, 30,92356, -20
12, R12I19, 3,128762, 30,05961, -20
12, R12I19, 3,992722, 29,12159, -20
12, R12I19, 4,64686, 28,38105, -20
12, R12I19, 5,387396, 27,60349, -20
12, R12I19, 6,21433, 26,70251, -20
12, R12I19, 6,843783, 25,81386, -20
12, R12I19, 7,485582, 24,82648, -20
12, R12I19, 8,053331, 23,86378, -20
12, R12I19, 8,682784, 23,07388, -20
12, R12I19, 9,497371, 22,24694, -20
12, R12I19, 10,25025, 21,48173, -20
12, R12I19, 11,02782, 20,82758, -20
12, R12I19, 11,89177, 20,17344, -20
12, R12I19, 12,70636, 19,6057, -20
12, R12I19, 13,4469, 18,92688, -20
12, R12I19, 14,21212, 18,18634, -20
12, R12I19, 14,90329, 17,45814, -20
12, R12I19, 15,64383, 16,59418, -20
12, R12I19, 16,37202, 15,56978, -20
12, R12I19, 17,02616, 14,57006, -20
12, R12I19, 17,70498, 13,66906, -20
12, R12I19, 18,38381, 12,75574, -20
12, R12I19, 18,98858, 11,79305, -20
12, R12I19, 19,61803, 10,79332, -20
12, R12I19, 20,32155, 9,76891, -20
12, R12I19, 20,951, 8,719817, -20
12, R12I19, 21,53108, 7,744775, -20
12, R12I19, 22,19757, 6,584606, -20
12, R12I19, 22,79, 5,177584, -20
12, R12I19, 23,27134, 4,042094, -20
12, R12I19, 23,67864, 3,104084, -20
12, R12I19, 24,14766, 2,129042, -20
12, R12I19, 24,65368, 1,079949, -20
12, R12I19, 25,22143, -6,788098E-02, -20
12, R12I19, 25,67809, -1,067602, -20
12, R12I19, 26,15944, -1,943908, -20
12, R12I19, 26,69016, -2,881917, -20
12, R12I19, 27,15916, -3,844613, -20
12, R12I19, 27,60349, -4,770283, -20
12, R12I19, 28,08483, -5,757665, -20
12, R12I19, 28,61555, -6,880816, -20
12, R12I19, 28,61555, -7,769453, -20
12, R12I19, 29,9732, -7,818825, -25
12, R12I19, 30,15833, -8,806207, -25
12, R12I19, 31,02229, -9,657823, -25
12, R12I19, 31,7258, -10,68223, -25
12, R12I19, 32,41698, -11,49682, -25
12, R12I19, 32,93534, -12,44718, -25
12, R12I19, 33,29327, -13,39753, -25
12, R12I19, 33,7993, -14,49599, -25
12, R12I19, 34,34237, -15,58211, -25
12, R12I19, 34,78669, -16,60652, -25
12, R12I19, 35,35443, -17,60625, -25
12, R12I19, 36,09496, -18,5566, -25
12, R12I19, 36,84784, -19,71677, -25
12, R12I19, 37,57603, -20,72884, -25
12, R12I19, 38,31657, -21,77793, -25
12, R12I19, 38,87197, -22,69126, -25
12, R12I19, 39,53846, -23,69099, -25
12, R12I19, 40,05683, -24,57963, -25
12, R12I19, 40,57521, -25,56701, -25
12, R12I19, 40,94548, -26,54205, -25
12, R12I19, 41,11828, -27,72691, -25
12, R12I19, 41,03187, -28,80069, -25
12, R12I19, 40,62459, -29,81275, -25
12, R12I19, 39,85936, -30,65203, -25
12, R12I19, 39,06945, -31,2568, -25
12, R12I19, 37,99568, -31,71346, -25
12, R12I19, 36,6874, -32,14544, -25
12, R12I19, 35,42848, -32,44165, -25
12, R12I19, 34,42876, -32,52805, -25
12, R12I19, 33,28094, -32,56508, -25
12, R12I19, 32,26886, -32,79958, -25
12, R12I19, 31,10868, -33,09579, -25
12, R12I19, 29,84978, -33,51543, -25
12, R12I19, 28,6896, -33,9721, -25
12, R12I19, 27,51709, -34,30534, -25
12, R12I19, 26,41862, -34,60155, -25
12, R12I19, 25,39422, -34,78669, -25
12, R12I19, 24,28342, -34,89777, -25
12, R12I19, 23,13558, -34,98417, -25
12, R12I19, 21,93839, -35,10759, -25
12, R12I19, 20,63011, -35,18164, -25
12, R12I19, 19,33417, -35,35443, -25
12, R12I19, 18,09994, -35,56425, -25
12, R12I19, 16,98913, -35,8728, -25
12, R12I19, 15,98941, -36,25542, -25
12, R12I19, 14,92797, -36,71208, -25
12, R12I19, 13,84185, -37,21812, -25
12, R12I19, 12,85447, -37,73649, -25
12, R12I19, 11,90411, -38,31658, -25
12, R12I19, 10,97844, -38,84729, -25
12, R12I19, 9,954037, -39,40269, -25
12, R12I19, 9,065392, -39,92107, -25
12, R12I19, 8,090357, -40,45179, -25
12, R12I19, 7,078289, -40,95782, -25
12, R12I19, 5,930459, -41,26638, -25
12, R12I19, 4,745597, -41,41449, -25
12, R12I19, 3,560742, -41,50088, -25
12, R12I19, 2,437598, -41,34043, -25
12, R12I19, 1,388505, -40,85909, -25
12, R12I19, 0,5739111, -40,26665, -25
12, R12I19, -0,2777011, -39,37801, -25
12, R12I19, -1,154007, -38,52639, -25
12, R12I19, -2,005619, -37,73649, -25
12, R12I19, -2,943636, -36,79847, -25
12, R12I19, -3,819934, -35,92218, -25
12, R12I19, -4,461734, -35,1693, -25
12, R12I19, -5,189931, -34,28065, -25
12, R12I19, -5,992178, -33,39201, -25
12, R12I19, -6,917849, -32,61444, -25
12, R12I19, -7,69541, -31,99733, -25
12, R12I19, -8,670445, -31,44193, -25
12, R12I19, -9,534404, -30,92356, -25
12, R12I19, -10,12684, -30,12131, -25
12, R12I19, -10,11449, -28,80069, -25
12, R12I19, -10,23792, -27,72691, -25
12, R12I19, -10,89205, -26,7025, -25
12, R12I19, -11,68196, -26,02367, -25
12, R12I19, -12,55826, -25,40656, -25
12, R12I19, -13,37285, -24,75242, -25
12, R12I19, -14,01465, -23,92549, -25
12, R12I19, -14,37258, -22,90108, -25
12, R12I19, -14,38492, -21,64217, -25
12, R12I19, -14,42195, -20,56839, -25
12, R12I19, -14,79222, -19,44525, -25
12, R12I19, -15,34762, -18,33444, -25
12, R12I19, -15,98942, -17,34706, -25
12, R12I19, -16,6559, -16,43373, -25
12, R12I19, -17,27301, -15,59446, -25
12, R12I19, -17,91481, -14,77987, -25
12, R12I19, -18,61832, -13,79248, -25
12, R12I19, -19,39588, -12,64465, -25
12, R12I19, -20,11173, -11,6079, -25
12, R12I19, -20,86461, -10,4971, -25
12, R12I19, -21,75325, -9,176476, -25
12, R12I19, -22,75298, -7,818825, -25
12, R12I19, -23,62928, -6,43649, -25
12, R12I19, -24,38216, -5,189923, -25
12, R12I19, -25,09801, -3,918671, -25
12, R12I19, -25,76449, -2,57336, -25
12, R12I19, -26,29521, -1,487242, -25
12, R12I19, -26,7889, -0,3394125, -25
12, R12I19, -27,27025, 0,7837387, -25
12, R12I19, -27,64052, 1,734095, -25
12, R12I19, -27,94907, 2,881925, -25
12, R12I19, -28,18358, 3,869306, -25
12, R12I19, -28,40574, 5,115872, -25
12, R12I19, -28,55385, 6,33776, -25
12, R12I19, -28,59087, 7,337481, -25
12, R12I19, -28,29465, 8,435946, -25
12, R12I19, -27,50476, 9,275219, -25
12, R12I19, -26,60377, 9,818282, -25
12, R12I19, -25,52999, 10,32431, -25
12, R12I19, -24,46855, 10,97845, -25
12, R12I19, -23,64162, 11,62025, -25
12, R12I19, -22,85172, 12,36079, -25
12, R12I19, -22,29631, 13,32348, -25
12, R12I19, -22,13587, 14,496, -25
12, R12I19, -22,12352, 15,61915, -25
12, R12I19, -22,22226, 16,63121, -25
12, R12I19, -22,39505, 17,72968, -25
12, R12I19, -22,51847, 18,84048, -25
12, R12I19, -22,67892, 20,02533, -25
12, R12I19, -22,67892, 21,09911, -25
12, R12I19, -21,852, 21,79029, -25
12, R12I19, -20,64245, 22,33334, -25
12, R12I19, -19,56868, 22,80235, -25
12, R12I19, -18,54426, 23,25901, -25
12, R12I19, -17,55688, 23,77739, -25
12, R12I19, -16,43374, 24,4809, -25
12, R12I19, -15,17482, 25,36954, -25
12, R12I19, -14,03933, 26,19647, -25
12, R12I19, -13,08898, 26,89998, -25
12, R12I19, -12,13863, 27,59115, -25
12, R12I19, -11,16358, 27,99845, -25
12, R12I19, -10,11449, 27,78863, -25
12, R12I19, -9,016034, 27,6652, -25
12, R12I19, -7,880544, 27,55412, -25
12, R12I19, -6,609292, 27,55412, -25
12, R12I19, -5,436776, 27,88736, -25
12, R12I19, -4,424708, 28,24529, -25
12, R12I19, -3,42498, 28,64025, -25
12, R12I19, -2,314176, 29,28204, -25
12, R12I19, -1,400852, 29,80041, -25
12, R12I19, -0,4751819, 30,33113, -25
12, R12I19, 0,5985971, 30,44221, -25
12, R12I19, 1,64769, 30,07195, -25
12, R12I19, 2,462277, 29,49186, -25
12, R12I19, 3,375608, 28,83772, -25
12, R12I19, 4,276592, 28,17123, -25
12, R12I19, 5,07884, 27,4307, -25
12, R12I19, 5,79469, 26,56674, -25
12, R12I19, 6,572259, 25,57936, -25
12, R12I19, 7,288109, 24,69072, -25
12, R12I19, 8,040985, 24,01189, -25
12, R12I19, 8,929629, 23,27136, -25
12, R12I19, 9,805928, 22,5555, -25
12, R12I19, 10,54646, 21,53109, -25
12, R12I19, 11,02782, 20,54371, -25
12, R12I19, 11,52151, 19,61804, -25
12, R12I19, 12,03988, 18,69237, -25
12, R12I19, 12,53357, 17,82841, -25
12, R12I19, 13,08898, 16,9768, -25
12, R12I19, 13,74312, 16,1622, -25
12, R12I19, 14,54536, 15,33527, -25
12, R12I19, 15,2859, 14,5824, -25
12, R12I19, 16,12517, 13,79249, -25
12, R12I19, 16,89039, 13,02727, -25
12, R12I19, 17,60625, 12,27439, -25
12, R12I19, 18,48255, 11,36107, -25
12, R12I19, 19,21075, 10,63287, -25
12, R12I19, 19,9883, 9,954044, -25
12, R12I19, 20,72884, 9,287559, -25
12, R12I19, 21,64217, 8,571709, -25
12, R12I19, 22,43208, 7,91757, -25
12, R12I19, 23,20963, 7,127661, -25
12, R12I19, 23,93783, 6,115601, -25
12, R12I19, 24,65368, 5,12822, -25
12, R12I19, 25,29548, 4,177863, -25
12, R12I19, 25,91259, 3,067059, -25
12, R12I19, 26,41862, 2,129042, -25
12, R12I19, 26,92467, 1,129321, -25
12, R12I19, 27,406, 1,851642E-02, -25
12, R12I19, 27,85034, -1,030577, -25
12, R12I19, 28,2206, -2,166067, -25
12, R12I19, 28,55384, -3,437319, -25
12, R12I19, 28,81302, -4,597496, -25
12, R12I19, 29,13392, -5,807037, -25
12, R12I19, 29,43014, -6,905494, -25
12, R12I19, 29,54122, -7,238737, -25
12, R12I19, 29,9732, -7,818825, -25
12, R12I19, 31,31851, -7,732428, -30
12, R12I19, 32,1331, -8,547022, -30
12, R12I19, 32,65147, -9,5344, -30
12, R12I19, 33,18219, -10,52178, -30
12, R12I19, 33,66354, -11,45979, -30
12, R12I19, 34,16957, -12,54591, -30
12, R12I19, 34,74965, -13,66906, -30
12, R12I19, 35,16929, -14,66879, -30
12, R12I19, 35,65065, -15,55743, -30
12, R12I19, 36,20605, -16,47076, -30
12, R12I19, 36,69974, -17,37174, -30
12, R12I19, 37,20577, -18,22336, -30
12, R12I19, 37,77351, -19,12435, -30
12, R12I19, 38,36594, -20,03767, -30
12, R12I19, 38,94603, -20,91397, -30
12, R12I19, 39,56314, -21,76559, -30
12, R12I19, 40,18025, -22,61721, -30
12, R12I19, 40,80972, -23,54288, -30
12, R12I19, 41,3898, -24,55494, -30
12, R12I19, 41,85881, -25,54233, -30
12, R12I19, 42,22908, -26,62844, -30
12, R12I19, 42,30313, -27,78862, -30
12, R12I19, 41,96988, -28,80069, -30
12, R12I19, 41,16763, -29,7387, -30
12, R12I19, 40,15557, -30,44221, -30
12, R12I19, 39,2299, -31,00995, -30
12, R12I19, 38,06973, -31,54067, -30
12, R12I19, 36,61335, -32,00967, -30
12, R12I19, 35,29272, -32,29354, -30
12, R12I19, 34,13254, -32,49102, -30
12, R12I19, 32,96003, -32,67616, -30
12, R12I19, 31,75049, -32,94769, -30
12, R12I19, 30,47923, -33,19453, -30
12, R12I19, 29,15861, -33,36732, -30
12, R12I19, 27,75159, -33,62651, -30
12, R12I19, 26,3816, -33,93507, -30
12, R12I19, 25,33251, -34,1202, -30
12, R12I19, 24,19701, -34,39173, -30
12, R12I19, 22,98748, -34,72498, -30
12, R12I19, 21,91369, -35,09524, -30
12, R12I19, 20,81524, -35,4902, -30
12, R12I19, 19,4329, -35,81109, -30
12, R12I19, 17,96417, -36,07028, -30
12, R12I19, 16,66823, -36,26776, -30
12, R12I19, 15,63148, -36,3665, -30
12, R12I19, 14,49599, -36,48992, -30
12, R12I19, 13,45924, -36,6874, -30
12, R12I19, 12,33609, -36,99595, -30
12, R12I19, 11,12655, -37,30451, -30
12, R12I19, 9,954037, -37,66243, -30
12, R12I19, 8,904943, -38,0327, -30
12, R12I19, 7,744775, -38,46468, -30
12, R12I19, 6,609284, -38,95837, -30
12, R12I19, 5,535505, -39,27927, -30
12, R12I19, 4,511098, -39,61251, -30
12, R12I19, 3,437319, -39,94576, -30
12, R12I19, 2,326515, -40,06918, -30
12, R12I19, 1,314447, -39,69891, -30
12, R12I19, 0,5615718, -38,78558, -30
12, R12I19, -0,1295999, -38,00802, -30
12, R12I19, -0,9195006, -37,23045, -30
12, R12I19, -1,845171, -36,50226, -30
12, R12I19, -2,91895, -35,7247, -30
12, R12I19, -3,906332, -35,11993, -30
12, R12I19, -4,69624, -34,45344, -30
12, R12I19, -5,523166, -33,68822, -30
12, R12I19, -6,374786, -32,88598, -30
12, R12I19, -7,164694, -32,02202, -30
12, R12I19, -7,954595, -31,28148, -30
12, R12I19, -8,497658, -30,40518, -30
12, R12I19, -8,793868, -29,35609, -30
12, R12I19, -9,151796, -28,40573, -30
12, R12I19, -9,596115, -27,3443, -30
12, R12I19, -10,29963, -26,48034, -30
12, R12I19, -11,21296, -25,55467, -30
12, R12I19, -11,96583, -24,72774, -30
12, R12I19, -12,55826, -23,86378, -30
12, R12I19, -13,01493, -22,97513, -30
12, R12I19, -13,45925, -21,98775, -30
12, R12I19, -13,95294, -21,02505, -30
12, R12I19, -14,55771, -20,05002, -30
12, R12I19, -15,21185, -18,95156, -30
12, R12I19, -15,86599, -17,92715, -30
12, R12I19, -16,55716, -17,00147, -30
12, R12I19, -17,24832, -15,97707, -30
12, R12I19, -17,95183, -14,91563, -30
12, R12I19, -18,65534, -13,73077, -30
12, R12I19, -19,39588, -12,43483, -30
12, R12I19, -20,13642, -11,32403, -30
12, R12I19, -20,90164, -10,18854, -30
12, R12I19, -21,60515, -8,954316, -30
12, R12I19, -22,321, -7,7818, -30
12, R12I19, -23,04919, -6,461175, -30
12, R12I19, -23,74036, -5,202262, -30
12, R12I19, -24,35748, -4,116144, -30
12, R12I19, -24,85117, -3,141102, -30
12, R12I19, -25,44359, -2,079669, -30
12, R12I19, -25,96197, -1,191025, -30
12, R12I19, -26,44331, -0,1666176, -30
12, R12I19, -26,59142, 0,84545, -30
12, R12I19, -26,48035, 1,99328, -30
12, R12I19, -26,34458, 3,141109, -30
12, R12I19, -26,34458, 4,190202, -30
12, R12I19, -26,43097, 5,288667, -30
12, R12I19, -26,60377, 6,411811, -30
12, R12I19, -26,80124, 7,510276, -30
12, R12I19, -26,83827, 8,547022, -30
12, R12I19, -26,69016, 9,546751, -30
12, R12I19, -26,11008, 10,48476, -30
12, R12I19, -24,82648, 10,69458, -30
12, R12I19, -23,46883, 10,84269, -30
12, R12I19, -22,35803, 11,02782, -30
12, R12I19, -21,48173, 11,63259, -30
12, R12I19, -20,71651, 12,58295, -30
12, R12I19, -20,25984, 13,47159, -30
12, R12I19, -19,91426, 14,64411, -30
12, R12I19, -19,97597, 15,73023, -30
12, R12I19, -19,97597, 16,75463, -30
12, R12I19, -19,16138, 17,55688, -30
12, R12I19, -18,2357, 18,13697, -30
12, R12I19, -17,28536, 18,68003, -30
12, R12I19, -16,23626, 19,27246, -30
12, R12I19, -15,27356, 19,88957, -30
12, R12I19, -14,47131, 20,482, -30
12, R12I19, -13,6197, 21,24722, -30
12, R12I19, -12,74339, 22,07416, -30
12, R12I19, -11,96583, 22,82703, -30
12, R12I19, -11,17593, 23,62928, -30
12, R12I19, -10,37368, 24,40684, -30
12, R12I19, -9,608462, 25,04864, -30
12, R12I19, -8,559369, 25,64107, -30
12, R12I19, -7,460904, 25,85089, -30
12, R12I19, -6,263702, 25,88791, -30
12, R12I19, -5,165245, 25,86323, -30
12, R12I19, -4,05444, 26,19647, -30
12, R12I19, -3,104084, 26,66548, -30
12, R12I19, -2,190753, 27,29493, -30
12, R12I19, -1,425538, 28,09718, -30
12, R12I19, -0,796078, 28,8624, -30
12, R12I19, -4,320247E-02, 29,68934, -30
12, R12I19, 1,079949, 29,7387, -30
12, R12I19, 2,06733, 29,14627, -30
12, R12I19, 2,943629, 28,56619, -30
12, R12I19, 3,795248, 27,92439, -30
12, R12I19, 4,78263, 27,25791, -30
12, R12I19, 5,646589, 26,62845, -30
12, R12I19, 6,510548, 26,06071, -30
12, R12I19, 7,312795, 25,43125, -30
12, R12I19, 8,102696, 24,70306, -30
12, R12I19, 8,818546, 23,99955, -30
12, R12I19, 9,670166, 23,13559, -30
12, R12I19, 10,47241, 22,20992, -30
12, R12I19, 11,22529, 21,30893, -30
12, R12I19, 11,96583, 20,2475, -30
12, R12I19, 12,69402, 19,24777, -30
12, R12I19, 13,33582, 18,22337, -30
12, R12I19, 13,95294, 17,23598, -30
12, R12I19, 14,66879, 16,22392, -30
12, R12I19, 15,47103, 14,95266, -30
12, R12I19, 16,27328, 13,75546, -30
12, R12I19, 17,07553, 12,63232, -30
12, R12I19, 17,79138, 11,71899, -30
12, R12I19, 18,63065, 10,86738, -30
12, R12I19, 19,59336, 10,08981, -30
12, R12I19, 20,58074, 9,287559, -30
12, R12I19, 21,5928, 8,472972, -30
12, R12I19, 22,4691, 7,683064, -30
12, R12I19, 23,259, 6,819104, -30
12, R12I19, 23,95017, 5,794697, -30
12, R12I19, 24,48089, 4,794977, -30
12, R12I19, 24,93755, 3,671825, -30
12, R12I19, 25,39422, 2,49931, -30
12, R12I19, 25,7398, 1,536614, -30
12, R12I19, 26,18413, 0,4875212, -30
12, R12I19, 26,67782, -0,4628351, -30
12, R12I19, 27,27024, -1,499581, -30
12, R12I19, 27,93673, -2,474624, -30
12, R12I19, 28,52916, -3,462005, -30
12, R12I19, 29,05987, -4,387676, -30
12, R12I19, 29,76339, -5,338032, -30
12, R12I19, 30,45455, -6,362439, -30
12, R12I19, 30,98526, -7,078289, -30
12, R12I19, 31,31851, -7,732428, -30
12, R12I19, 31,45427, -7,14, -35
12, R12I19, 32,21949, -8,040985, -35
12, R12I19, 32,77489, -9,164136, -35
12, R12I19, 33,31795, -10,27494, -35
12, R12I19, 33,78696, -11,29935, -35
12, R12I19, 34,33003, -12,45952, -35
12, R12I19, 34,79903, -13,48393, -35
12, R12I19, 35,2557, -14,4096, -35
12, R12I19, 35,76173, -15,55743, -35
12, R12I19, 36,26776, -16,58184, -35
12, R12I19, 36,79848, -17,42111, -35
12, R12I19, 37,5637, -18,39615, -35
12, R12I19, 38,09442, -19,23543, -35
12, R12I19, 38,72387, -20,28452, -35
12, R12I19, 39,25458, -21,14848, -35
12, R12I19, 39,80999, -22,04946, -35
12, R12I19, 39,89639, -23,14793, -35
12, R12I19, 39,00774, -24,09828, -35
12, R12I19, 37,95864, -24,81413, -35
12, R12I19, 36,93425, -25,43125, -35
12, R12I19, 35,78641, -26,01133, -35
12, R12I19, 34,81136, -26,36926, -35
12, R12I19, 33,74993, -26,64079, -35
12, R12I19, 32,76255, -26,89998, -35
12, R12I19, 31,60238, -27,24556, -35
12, R12I19, 30,30644, -27,64051, -35
12, R12I19, 28,71429, -28,07249, -35
12, R12I19, 26,96168, -28,57853, -35
12, R12I19, 25,30782, -29,12159, -35
12, R12I19, 23,54288, -29,72635, -35
12, R12I19, 21,85198, -30,33113, -35
12, R12I19, 20,55604, -30,78779, -35
12, R12I19, 19,50695, -31,20743, -35
12, R12I19, 18,45786, -31,59004, -35
12, R12I19, 17,1249, -32,12075, -35
12, R12I19, 15,70554, -32,66381, -35
12, R12I19, 14,26149, -33,14516, -35
12, R12I19, 12,97789, -33,58949, -35
12, R12I19, 11,71898, -34,05849, -35
12, R12I19, 10,63286, -34,45344, -35
12, R12I19, 9,509718, -34,9348, -35
12, R12I19, 8,547022, -35,34209, -35
12, R12I19, 7,448557, -35,81109, -35
12, R12I19, 6,288381, -36,32947, -35
12, R12I19, 5,103526, -36,65037, -35
12, R12I19, 4,017407, -36,94658, -35
12, R12I19, 3,030026, -37,14406, -35
12, R12I19, 2,042644, -37,09469, -35
12, R12I19, 1,030577, -36,71208, -35
12, R12I19, 0,3640909, -35,88515, -35
12, R12I19, -0,2653618, -34,83606, -35
12, R12I19, -0,9071614, -33,9721, -35
12, R12I19, -1,882196, -33,10814, -35
12, R12I19, -2,807867, -32,52805, -35
12, R12I19, -3,795248, -31,98499, -35
12, R12I19, -4,77029, -31,4913, -35
12, R12I19, -5,671275, -30,87419, -35
12, R12I19, -6,325414, -30,02257, -35
12, R12I19, -6,399472, -28,776, -35
12, R12I19, -6,658657, -27,5788, -35
12, R12I19, -7,053611, -26,44331, -35
12, R12I19, -7,522615, -25,51764, -35
12, R12I19, -8,189101, -24,71539, -35
12, R12I19, -8,954323, -23,77738, -35
12, R12I19, -9,744224, -22,97513, -35
12, R12I19, -10,47242, -22,28397, -35
12, R12I19, -11,29935, -21,71622, -35
12, R12I19, -12,32376, -21,14848, -35
12, R12I19, -13,27412, -20,61776, -35
12, R12I19, -13,66906, -19,64272, -35
12, R12I19, -13,86655, -18,39615, -35
12, R12I19, -13,98997, -17,37174, -35
12, R12I19, -14,34789, -16,40905, -35
12, R12I19, -14,87861, -15,53274, -35
12, R12I19, -15,63149, -14,58239, -35
12, R12I19, -16,38436, -13,7678, -35
12, R12I19, -17,14959, -12,87916, -35
12, R12I19, -17,79139, -11,87943, -35
12, R12I19, -18,43319, -10,74395, -35
12, R12I19, -19,02561, -9,707191, -35
12, R12I19, -19,53164, -8,806207, -35
12, R12I19, -19,9266, -7,794139, -35
12, R12I19, -20,2475, -6,63397, -35
12, R12I19, -20,5684, -5,461455, -35
12, R12I19, -21,02506, -4,486413, -35
12, R12I19, -21,53109, -3,536056, -35
12, R12I19, -22,30865, -2,548674, -35
12, R12I19, -23,09856, -1,548953, -35
12, R12I19, -23,86378, -0,4875137, -35
12, R12I19, -24,53026, 0,5739186, -35
12, R12I19, -25,01161, 1,474903, -35
12, R12I19, -25,40657, 2,511657, -35
12, R12I19, -25,60404, 3,511377, -35
12, R12I19, -25,80152, 4,708579, -35
12, R12I19, -25,97431, 5,683621, -35
12, R12I19, -26,11008, 6,745054, -35
12, R12I19, -26,04837, 7,769461, -35
12, R12I19, -25,60404, 8,670445, -35
12, R12I19, -24,64135, 9,201169, -35
12, R12I19, -23,70334, 9,620801, -35
12, R12I19, -22,71596, 10,2626, -35
12, R12I19, -21,82731, 11,15125, -35
12, R12I19, -21,04975, 12,37313, -35
12, R12I19, -20,74119, 13,32348, -35
12, R12I19, -20,61777, 14,39726, -35
12, R12I19, -20,51902, 15,42167, -35
12, R12I19, -20,33389, 16,40905, -35
12, R12I19, -19,98831, 17,38409, -35
12, R12I19, -19,17372, 18,13697, -35
12, R12I19, -18,34679, 18,76643, -35
12, R12I19, -17,4458, 19,50696, -35
12, R12I19, -16,50779, 20,17344, -35
12, R12I19, -15,63149, 20,86461, -35
12, R12I19, -14,86627, 21,53109, -35
12, R12I19, -14,15042, 22,22226, -35
12, R12I19, -13,21241, 23,04919, -35
12, R12I19, -12,28674, 23,60459, -35
12, R12I19, -11,21296, 23,97486, -35
12, R12I19, -10,00342, 24,11063, -35
12, R12I19, -8,781528, 24,0736, -35
12, R12I19, -7,658385, 23,93784, -35
12, R12I19, -6,510548, 23,82676, -35
12, R12I19, -5,486141, 23,86378, -35
12, R12I19, -4,683893, 24,46855, -35
12, R12I19, -4,103805, 25,45593, -35
12, R12I19, -3,486691, 26,24584, -35
12, R12I19, -2,894264, 27,15917, -35
12, R12I19, -2,227786, 28,18358, -35
12, R12I19, -1,57364, 29,01051, -35
12, R12I19, -0,7096806, 29,52888, -35
12, R12I19, 0,3764378, 29,40546, -35
12, R12I19, 1,524267, 28,8624, -35
12, R12I19, 2,659758, 28,2206, -35
12, R12I19, 3,536056, 27,64052, -35
12, R12I19, 4,535784, 26,94935, -35
12, R12I19, 5,547844, 26,3816, -35
12, R12I19, 6,621624, 25,83855, -35
12, R12I19, 7,633691, 25,46828, -35
12, R12I19, 8,70747, 25,5917, -35
12, R12I19, 9,892325, 25,92495, -35
12, R12I19, 10,97844, 26,22116, -35
12, R12I19, 12,02754, 25,9126, -35
12, R12I19, 12,16331, 24,85117, -35
12, R12I19, 13,01492, 24,17234, -35
12, R12I19, 14,02699, 23,80207, -35
12, R12I19, 14,89094, 23,14793, -35
12, R12I19, 15,91535, 22,49379, -35
12, R12I19, 16,72995, 21,60515, -35
12, R12I19, 17,3594, 20,72885, -35
12, R12I19, 17,9148, 19,87723, -35
12, R12I19, 18,61831, 18,65534, -35
12, R12I19, 19,39588, 17,26067, -35
12, R12I19, 20,01299, 16,06347, -35
12, R12I19, 20,5437, 14,82924, -35
12, R12I19, 21,16082, 13,52096, -35
12, R12I19, 21,8273, 12,15097, -35
12, R12I19, 22,4691, 10,73161, -35
12, R12I19, 23,13558, 9,312244, -35
12, R12I19, 23,8391, 7,979281, -35
12, R12I19, 24,55494, 6,819104, -35
12, R12I19, 25,36953, 5,375065, -35
12, R12I19, 26,1471, 3,992729, -35
12, R12I19, 26,86296, 2,561021, -35
12, R12I19, 27,406, 1,400852, -35
12, R12I19, 27,99844, 0,4134706, -35
12, R12I19, 28,61555, -0,5739111, -35
12, R12I19, 29,03519, -1,623004, -35
12, R12I19, 29,0969, -2,78318, -35
12, R12I19, 29,2697, -3,881638, -35
12, R12I19, 29,76339, -4,992443, -35
12, R12I19, 30,57797, -5,79469, -35
12, R12I19, 31,15806, -6,337753, -35
12, R12I19, 31,45427, -7,14, -35
12, R12I19, 31,91093, -7,64603, -40
12, R12I19, 32,12076, -8,781521, -40
12, R12I19, 32,49103, -9,719534, -40
12, R12I19, 32,87363, -10,78097, -40
12, R12I19, 33,33029, -11,89177, -40
12, R12I19, 33,67588, -12,99024, -40
12, R12I19, 34,21894, -13,92825, -40
12, R12I19, 34,86074, -14,80455, -40
12, R12I19, 35,63831, -15,80428, -40
12, R12I19, 36,44055, -16,65589, -40
12, R12I19, 37,18109, -17,4458, -40
12, R12I19, 37,99568, -18,34678, -40
12, R12I19, 38,46469, -19,26011, -40
12, R12I19, 38,8473, -20,3956, -40
12, R12I19, 39,06945, -21,53109, -40
12, R12I19, 39,03243, -22,69126, -40
12, R12I19, 38,71153, -23,83909, -40
12, R12I19, 38,1191, -24,76476, -40
12, R12I19, 37,29217, -25,30782, -40
12, R12I19, 36,20605, -25,65341, -40
12, R12I19, 35,04587, -25,52998, -40
12, R12I19, 34,02147, -25,15972, -40
12, R12I19, 32,99706, -25,01161, -40
12, R12I19, 31,92329, -25,30782, -40
12, R12I19, 30,65203, -25,70277, -40
12, R12I19, 29,38077, -26,17178, -40
12, R12I19, 27,99844, -26,7025, -40
12, R12I19, 26,28286, -27,29493, -40
12, R12I19, 24,67836, -27,88736, -40
12, R12I19, 22,97514, -28,56618, -40
12, R12I19, 21,37064, -29,24501, -40
12, R12I19, 19,8402, -29,96086, -40
12, R12I19, 18,42084, -30,46689, -40
12, R12I19, 16,87806, -30,94824, -40
12, R12I19, 15,44635, -31,30616, -40
12, R12I19, 13,80483, -31,65175, -40
12, R12I19, 12,3978, -31,87391, -40
12, R12I19, 11,21295, -31,92328, -40
12, R12I19, 10,05277, -32,00967, -40
12, R12I19, 8,979002, -32,37994, -40
12, R12I19, 8,016298, -32,87363, -40
12, R12I19, 6,967206, -33,35498, -40
12, R12I19, 5,955145, -33,73759, -40
12, R12I19, 4,819655, -34,23129, -40
12, R12I19, 3,585428, -34,63858, -40
12, R12I19, 2,338854, -34,71263, -40
12, R12I19, 1,265083, -34,55219, -40
12, R12I19, 0,4134631, -33,8857, -40
12, R12I19, -0,4258098, -33,21922, -40
12, R12I19, -1,35148, -32,47868, -40
12, R12I19, -2,2031, -31,63941, -40
12, R12I19, -3,017687, -30,55329, -40
12, R12I19, -3,893992, -29,49185, -40
12, R12I19, -4,634529, -28,5415, -40
12, R12I19, -5,338032, -27,55412, -40
12, R12I19, -6,066229, -26,69016, -40
12, R12I19, -6,757393, -25,83854, -40
12, R12I19, -7,337481, -24,88818, -40
12, R12I19, -7,596673, -23,92549, -40
12, R12I19, -7,942255, -22,7036, -40
12, R12I19, -8,374235, -21,72857, -40
12, R12I19, -8,892612, -20,79055, -40
12, R12I19, -9,633148, -19,70443, -40
12, R12I19, -10,50945, -18,66768, -40
12, R12I19, -11,41043, -17,85309, -40
12, R12I19, -12,18799, -17,23598, -40
12, R12I19, -13,00259, -16,54481, -40
12, R12I19, -13,92826, -15,59446, -40
12, R12I19, -14,89095, -14,59473, -40
12, R12I19, -15,66851, -13,63204, -40
12, R12I19, -16,39671, -12,76808, -40
12, R12I19, -17,13725, -11,84241, -40
12, R12I19, -18,02589, -10,7316, -40
12, R12I19, -19,09966, -9,299898, -40
12, R12I19, -20,01299, -7,917562, -40
12, R12I19, -20,60542, -6,708021, -40
12, R12I19, -21,08677, -5,621902, -40
12, R12I19, -21,61749, -4,412362, -40
12, R12I19, -22,09884, -3,375608, -40
12, R12I19, -22,6419, -2,474624, -40
12, R12I19, -23,22198, -1,511928, -40
12, R12I19, -23,85144, -0,4381491, -40
12, R12I19, -24,55495, 0,8084248, -40
12, R12I19, -25,32017, 2,104363, -40
12, R12I19, -26,04837, 3,289218, -40
12, R12I19, -26,59142, 4,251914, -40
12, R12I19, -27,09746, 5,301007, -40
12, R12I19, -27,48007, 6,33776, -40
12, R12I19, -27,73925, 7,362167, -40
12, R12I19, -27,68989, 8,361888, -40
12, R12I19, -26,69016, 8,732157, -40
12, R12I19, -25,46828, 8,781528, -40
12, R12I19, -24,38216, 9,040713, -40
12, R12I19, -23,27136, 9,657826, -40
12, R12I19, -22,54316, 10,349, -40
12, R12I19, -22,08649, 11,27467, -40
12, R12I19, -21,71623, 12,27439, -40
12, R12I19, -21,45704, 13,26177, -40
12, R12I19, -21,28425, 14,52068, -40
12, R12I19, -21,14849, 15,58212, -40
12, R12I19, -20,8029, 16,53247, -40
12, R12I19, -20,03768, 17,34707, -40
12, R12I19, -18,91453, 17,84076, -40
12, R12I19, -17,98886, 18,2357, -40
12, R12I19, -17,13725, 18,74174, -40
12, R12I19, -16,335, 19,37119, -40
12, R12I19, -15,6068, 20,18579, -40
12, R12I19, -14,965, 21,11146, -40
12, R12I19, -14,12573, 21,97542, -40
12, R12I19, -13,07664, 22,53082, -40
12, R12I19, -11,80538, 22,85172, -40
12, R12I19, -10,75629, 22,8764, -40
12, R12I19, -9,55909, 22,80235, -40
12, R12I19, -8,386575, 22,86406, -40
12, R12I19, -7,238745, 22,97514, -40
12, R12I19, -6,05389, 23,1973, -40
12, R12I19, -4,844341, 23,55523, -40
12, R12I19, -3,918671, 24,19703, -40
12, R12I19, -3,190481, 25,1227, -40
12, R12I19, -2,585707, 26,2335, -40
12, R12I19, -2,054991, 27,09746, -40
12, R12I19, -1,277429, 28,03547, -40
12, R12I19, -0,4134706, 28,52916, -40
12, R12I19, 0,9194931, 28,40574, -40
12, R12I19, 2,203092, 27,838, -40
12, R12I19, 3,326236, 27,17151, -40
12, R12I19, 4,424701, 26,43097, -40
12, R12I19, 5,473794, 25,71512, -40
12, R12I19, 6,337753, 25,06099, -40
12, R12I19, 7,127661, 24,43153, -40
12, R12I19, 7,929909, 23,61694, -40
12, R12I19, 8,695124, 22,56785, -40
12, R12I19, 9,312237, 21,39533, -40
12, R12I19, 9,793589, 20,13642, -40
12, R12I19, 10,43539, 18,98859, -40
12, R12I19, 11,1389, 17,97652, -40
12, R12I19, 11,80538, 16,9768, -40
12, R12I19, 12,4842, 16,14987, -40
12, R12I19, 13,31114, 15,48338, -40
12, R12I19, 14,47131, 15,00204, -40
12, R12I19, 15,54508, 14,70582, -40
12, R12I19, 16,5695, 14,44663, -40
12, R12I19, 17,54453, 14,16276, -40
12, R12I19, 18,80345, 13,96528, -40
12, R12I19, 19,9883, 13,91591, -40
12, R12I19, 21,03739, 13,90357, -40
12, R12I19, 22,17289, 13,54564, -40
12, R12I19, 23,03685, 12,9779, -40
12, R12I19, 23,72802, 12,07692, -40
12, R12I19, 24,23405, 11,01548, -40
12, R12I19, 24,76477, 9,929358, -40
12, R12I19, 25,22143, 8,84324, -40
12, R12I19, 25,76449, 7,868197, -40
12, R12I19, 26,3816, 7,041271, -40
12, R12I19, 26,86296, 6,164966, -40
12, R12I19, 27,4307, 5,12822, -40
12, R12I19, 28,03547, 4,214889, -40
12, R12I19, 28,51681, 3,067059, -40
12, R12I19, 28,76365, 1,869857, -40
12, R12I19, 28,92411, 0,7713919, -40
12, R12I19, 29,10924, -0,4504884, -40
12, R12I19, 29,22033, -1,511928, -40
12, R12I19, 29,38077, -2,635072, -40
12, R12I19, 29,66464, -3,745876, -40
12, R12I19, 30,03491, -4,720919, -40
12, R12I19, 30,54094, -5,597217, -40
12, R12I19, 31,19509, -6,64631, -40
12, R12I19, 31,38022, -6,954866, -40
12, R12I19, 31,91093, -7,64603, -40
12, R12I19, 30,49157, -8,176754, -45
12, R12I19, 30,88653, -9,151789, -45
12, R12I19, 31,47895, -10,01575, -45
12, R12I19, 31,985, -11,00313, -45
12, R12I19, 32,57742, -11,89177, -45
12, R12I19, 33,16985, -12,90384, -45
12, R12I19, 33,87336, -13,7678, -45
12, R12I19, 34,61389, -14,63176, -45
12, R12I19, 35,29272, -15,61914, -45
12, R12I19, 36,04559, -16,35968, -45
12, R12I19, 36,79848, -17,08787, -45
12, R12I19, 37,18109, -18,24804, -45
12, R12I19, 37,14406, -19,32182, -45
12, R12I19, 36,94658, -20,38326, -45
12, R12I19, 36,52694, -21,28424, -45
12, R12I19, 35,87281, -22,0618, -45
12, R12I19, 34,88543, -22,71595, -45
12, R12I19, 33,78696, -22,88874, -45
12, R12I19, 32,73787, -22,85171, -45
12, R12I19, 31,5777, -23,09855, -45
12, R12I19, 30,50393, -23,62927, -45
12, R12I19, 29,65231, -24,14765, -45
12, R12I19, 28,81302, -24,69071, -45
12, R12I19, 28,02312, -25,28314, -45
12, R12I19, 26,97402, -25,87556, -45
12, R12I19, 26,02367, -26,40629, -45
12, R12I19, 24,9499, -26,98637, -45
12, R12I19, 23,77739, -27,52943, -45
12, R12I19, 22,71594, -28,04781, -45
12, R12I19, 21,71622, -28,57853, -45
12, R12I19, 20,61775, -29,10924, -45
12, R12I19, 19,58101, -29,68933, -45
12, R12I19, 18,61831, -30,10897, -45
12, R12I19, 17,4458, -30,51626, -45
12, R12I19, 16,38436, -30,8495, -45
12, R12I19, 15,31059, -31,10869, -45
12, R12I19, 14,12572, -31,26914, -45
12, R12I19, 12,97789, -31,60238, -45
12, R12I19, 12,00286, -31,97265, -45
12, R12I19, 10,90439, -32,52805, -45
12, R12I19, 9,879986, -33,04642, -45
12, R12I19, 8,732157, -33,5648, -45
12, R12I19, 7,868197, -34,04615, -45
12, R12I19, 6,942527, -34,51516, -45
12, R12I19, 6,053882, -34,97182, -45
12, R12I19, 4,955417, -35,41614, -45
12, R12I19, 3,795248, -35,62596, -45
12, R12I19, 2,770834, -35,57659, -45
12, R12I19, 1,57364, -35,1693, -45
12, R12I19, 0,6232831, -34,65092, -45
12, R12I19, -0,2159897, -34,1202, -45
12, R12I19, -1,215718, -33,52777, -45
12, R12I19, -2,141388, -33,18219, -45
12, R12I19, -3,116423, -32,923, -45
12, R12I19, -4,227228, -32,6021, -45
12, R12I19, -5,301007, -31,94796, -45
12, R12I19, -5,992178, -30,99761, -45
12, R12I19, -6,14028, -29,99789, -45
12, R12I19, -6,029203, -28,87474, -45
12, R12I19, -5,955145, -27,6652, -45
12, R12I19, -6,152627, -26,54205, -45
12, R12I19, -6,473522, -25,46827, -45
12, R12I19, -6,991899, -24,33278, -45
12, R12I19, -7,448565, -23,44414, -45
12, R12I19, -8,016306, -22,3827, -45
12, R12I19, -8,744503, -21,34595, -45
12, R12I19, -9,534404, -20,45731, -45
12, R12I19, -10,53413, -19,80317, -45
12, R12I19, -11,64494, -19,49461, -45
12, R12I19, -12,71872, -19,32182, -45
12, R12I19, -13,76781, -19,112, -45
12, R12I19, -14,50834, -18,28507, -45
12, R12I19, -15,16248, -17,22364, -45
12, R12I19, -15,74257, -16,26094, -45
12, R12I19, -16,29797, -15,34761, -45
12, R12I19, -16,77932, -14,12573, -45
12, R12I19, -17,28536, -12,58294, -45
12, R12I19, -17,84076, -11,23764, -45
12, R12I19, -18,3221, -10,20088, -45
12, R12I19, -18,80345, -9,201161, -45
12, R12I19, -19,32183, -8,201432, -45
12, R12I19, -19,85255, -7,263423, -45
12, R12I19, -20,482, -6,053882, -45
12, R12I19, -21,13614, -4,943078, -45
12, R12I19, -21,72857, -4,054433, -45
12, R12I19, -22,34569, -3,178135, -45
12, R12I19, -23,02451, -2,351201, -45
12, R12I19, -23,76505, -1,450217, -45
12, R12I19, -24,55495, -0,3270656, -45
12, R12I19, -25,2708, 0,84545, -45
12, R12I19, -25,86323, 1,857518, -45
12, R12I19, -26,25818, 2,783188, -45
12, R12I19, -26,57908, 3,733537, -45
12, R12I19, -26,99872, 4,683893, -45
12, R12I19, -27,45538, 5,807045, -45
12, R12I19, -27,85034, 6,856137, -45
12, R12I19, -27,85034, 8,053331, -45
12, R12I19, -27,0234, 8,62108, -45
12, R12I19, -25,92495, 8,84324, -45
12, R12I19, -25,01161, 9,324592, -45
12, R12I19, -23,88847, 9,867647, -45
12, R12I19, -22,92577, 10,36134, -45
12, R12I19, -21,98776, 10,9908, -45
12, R12I19, -21,29659, 11,79305, -45
12, R12I19, -20,96335, 12,74339, -45
12, R12I19, -21,30893, 13,80483, -45
12, R12I19, -21,6792, 14,86627, -45
12, R12I19, -21,45704, 15,84131, -45
12, R12I19, -20,66713, 16,77932, -45
12, R12I19, -19,65507, 17,16193, -45
12, R12I19, -18,56895, 17,59391, -45
12, R12I19, -17,50751, 18,30976, -45
12, R12I19, -16,66824, 18,95156, -45
12, R12I19, -15,91536, 19,63039, -45
12, R12I19, -15,11311, 20,53137, -45
12, R12I19, -14,43429, 21,25956, -45
12, R12I19, -13,5333, 21,79029, -45
12, R12I19, -12,57061, 22,04947, -45
12, R12I19, -11,58323, 22,17289, -45
12, R12I19, -10,53413, 22,29631, -45
12, R12I19, -9,522064, 22,37037, -45
12, R12I19, -8,300177, 22,51847, -45
12, R12I19, -7,152347, 22,70361, -45
12, R12I19, -6,14028, 22,88874, -45
12, R12I19, -5,12822, 23,18496, -45
12, R12I19, -4,103805, 23,62928, -45
12, R12I19, -3,178135, 24,29576, -45
12, R12I19, -2,425259, 25,18441, -45
12, R12I19, -1,623012, 25,93728, -45
12, R12I19, -0,7713919, 26,72719, -45
12, R12I19, 0,1789569, 27,64052, -45
12, R12I19, 0,9812045, 28,40574, -45
12, R12I19, 1,746427, 29,04754, -45
12, R12I19, 2,672097, 29,63997, -45
12, R12I19, 3,573081, 30,05961, -45
12, R12I19, 4,560463, 30,34348, -45
12, R12I19, 5,634242, 30,30645, -45
12, R12I19, 6,572259, 29,96086, -45
12, R12I19, 7,547294, 29,23267, -45
12, R12I19, 8,164408, 28,43042, -45
12, R12I19, 8,571701, 27,25791, -45
12, R12I19, 8,818546, 26,28287, -45
12, R12I19, 8,880258, 25,25846, -45
12, R12I19, 8,991341, 24,15999, -45
12, R12I19, 9,299898, 23,22198, -45
12, R12I19, 10,1762, 22,25929, -45
12, R12I19, 11,0525, 21,58047, -45
12, R12I19, 11,81772, 20,82758, -45
12, R12I19, 12,49655, 20,07471, -45
12, R12I19, 13,11366, 18,93921, -45
12, R12I19, 13,63203, 18,02589, -45
12, R12I19, 14,17509, 17,13725, -45
12, R12I19, 14,76752, 16,21158, -45
12, R12I19, 15,33527, 15,3723, -45
12, R12I19, 16,18688, 14,75519, -45
12, R12I19, 17,10021, 14,15042, -45
12, R12I19, 18,09994, 13,44691, -45
12, R12I19, 18,75407, 12,70637, -45
12, R12I19, 19,34651, 11,81772, -45
12, R12I19, 19,9883, 10,80566, -45
12, R12I19, 20,64245, 9,793596, -45
12, R12I19, 21,19785, 8,867926, -45
12, R12I19, 21,86434, 7,954595, -45
12, R12I19, 22,59252, 6,991899, -45
12, R12I19, 23,14792, 6,05389, -45
12, R12I19, 23,71568, 5,066508, -45
12, R12I19, 24,19701, 4,190202, -45
12, R12I19, 24,7154, 3,116423, -45
12, R12I19, 25,11034, 2,030305, -45
12, R12I19, 25,48061, 0,9688727, -45
12, R12I19, 25,87557, 6,177162E-03, -45
12, R12I19, 26,41862, -1,104627, -45
12, R12I19, 26,91231, -1,968586, -45
12, R12I19, 27,50475, -2,894256, -45
12, R12I19, 28,01078, -3,745876, -45
12, R12I19, 28,66492, -4,745597, -45
12, R12I19, 29,23266, -5,7083, -45
12, R12I19, 29,72635, -6,658649, -45
12, R12I19, 30,1213, -7,411532, -45
12, R12I19, 30,49157, -8,176754, -45
12, R12I19, 30,10896, -8,164408, -50
12, R12I19, 30,88653, -8,843232, -50
12, R12I19, 31,50364, -9,694852, -50
12, R12I19, 32,55274, -10,10215, -50
12, R12I19, 33,47841, -10,85502, -50
12, R12I19, 34,45345, -11,23764, -50
12, R12I19, 35,35443, -11,80538, -50
12, R12I19, 35,84812, -12,68168, -50
12, R12I19, 35,87281, -13,78014, -50
12, R12I19, 35,10758, -14,6441, -50
12, R12I19, 34,28065, -15,54509, -50
12, R12I19, 33,94741, -16,59418, -50
12, R12I19, 33,77463, -17,63093, -50
12, R12I19, 33,4167, -18,5566, -50
12, R12I19, 32,94769, -19,46993, -50
12, R12I19, 31,92329, -20,06236, -50
12, R12I19, 30,86184, -20,34623, -50
12, R12I19, 29,7387, -20,70415, -50
12, R12I19, 28,61555, -21,08677, -50
12, R12I19, 27,6652, -21,58046, -50
12, R12I19, 26,71484, -22,13586, -50
12, R12I19, 25,66574, -22,77766, -50
12, R12I19, 24,87584, -23,40711, -50
12, R12I19, 24,06125, -24,11062, -50
12, R12I19, 23,29604, -24,97458, -50
12, R12I19, 22,54316, -26,03602, -50
12, R12I19, 21,75325, -26,76421, -50
12, R12I19, 20,76587, -27,35664, -50
12, R12I19, 19,90191, -27,92438, -50
12, R12I19, 19,09966, -28,50447, -50
12, R12I19, 18,02588, -29,02284, -50
12, R12I19, 16,98913, -29,5042, -50
12, R12I19, 16,0141, -29,96086, -50
12, R12I19, 15,1131, -30,36815, -50
12, R12I19, 13,98996, -30,87419, -50
12, R12I19, 12,94087, -31,28148, -50
12, R12I19, 11,79304, -31,66409, -50
12, R12I19, 10,65755, -32,09607, -50
12, R12I19, 9,781249, -32,6021, -50
12, R12I19, 8,830893, -33,25624, -50
12, R12I19, 7,942248, -33,91039, -50
12, R12I19, 7,06595, -34,56453, -50
12, R12I19, 6,127933, -35,04588, -50
12, R12I19, 5,07884, -35,13227, -50
12, R12I19, 4,005061, -34,83606, -50
12, R12I19, 3,067051, -34,33002, -50
12, R12I19, 2,400566, -33,57714, -50
12, R12I19, 1,635351, -32,86129, -50
12, R12I19, 0,7343591, -32,1331, -50
12, R12I19, -0,2283365, -31,68878, -50
12, R12I19, -1,252743, -31,40491, -50
12, R12I19, -2,338862, -31,08401, -50
12, R12I19, -3,363269, -30,54095, -50
12, R12I19, -4,177863, -29,83743, -50
12, R12I19, -4,844341, -29,01051, -50
12, R12I19, -5,436776, -27,82565, -50
12, R12I19, -5,770011, -26,77655, -50
12, R12I19, -6,05389, -25,59169, -50
12, R12I19, -6,572259, -24,41918, -50
12, R12I19, -7,288117, -23,46882, -50
12, R12I19, -8,139729, -22,54315, -50
12, R12I19, -8,917291, -21,86433, -50
12, R12I19, -9,744224, -21,32127, -50
12, R12I19, -10,70692, -20,92632, -50
12, R12I19, -11,71899, -20,53136, -50
12, R12I19, -12,78043, -20,0747, -50
12, R12I19, -13,66906, -19,59335, -50
12, R12I19, -14,42195, -18,86516, -50
12, R12I19, -14,80455, -17,79138, -50
12, R12I19, -15,1378, -16,81634, -50
12, R12I19, -15,45869, -15,8413, -50
12, R12I19, -15,73023, -14,71815, -50
12, R12I19, -16,2486, -13,57032, -50
12, R12I19, -16,81634, -12,49654, -50
12, R12I19, -17,33472, -11,47214, -50
12, R12I19, -17,81607, -10,4971, -50
12, R12I19, -18,26039, -9,497375, -50
12, R12I19, -18,77877, -8,386567, -50
12, R12I19, -19,46993, -7,078289, -50
12, R12I19, -20,08705, -5,868748, -50
12, R12I19, -20,64245, -4,794969, -50
12, R12I19, -21,23488, -3,474345, -50
12, R12I19, -21,90136, -2,054984, -50
12, R12I19, -22,59253, -0,7343591, -50
12, R12I19, -23,18496, 0,4381566, -50
12, R12I19, -23,78973, 1,437878, -50
12, R12I19, -24,35748, 2,523996, -50
12, R12I19, -24,78946, 3,622461, -50
12, R12I19, -25,22143, 4,745605, -50
12, R12I19, -25,55468, 5,695961, -50
12, R12I19, -25,9126, 6,745054, -50
12, R12I19, -26,28287, 7,942255, -50
12, R12I19, -26,468, 8,929637, -50
12, R12I19, -26,18413, 9,97873, -50
12, R12I19, -25,24612, 10,73161, -50
12, R12I19, -24,32045, 11,16358, -50
12, R12I19, -23,29604, 11,64494, -50
12, R12I19, -22,35803, 12,11394, -50
12, R12I19, -21,30893, 12,71872, -50
12, R12I19, -20,28453, 13,08898, -50
12, R12I19, -19,14904, 13,08898, -50
12, R12I19, -17,95183, 13,20006, -50
12, R12I19, -16,8904, 13,38519, -50
12, R12I19, -15,92771, 13,64439, -50
12, R12I19, -14,92798, 14,18744, -50
12, R12I19, -14,38492, 15,15014, -50
12, R12I19, -14,29852, 16,22392, -50
12, R12I19, -14,12573, 17,33472, -50
12, R12I19, -13,8542, 18,39616, -50
12, R12I19, -12,99024, 19,08732, -50
12, R12I19, -11,90412, 19,39588, -50
12, R12I19, -10,75629, 19,56868, -50
12, R12I19, -9,657826, 19,53164, -50
12, R12I19, -8,608733, 19,19841, -50
12, R12I19, -7,510276, 18,95156, -50
12, R12I19, -6,263702, 18,95156, -50
12, R12I19, -5,27632, 19,2848, -50
12, R12I19, -4,671554, 20,22281, -50
12, R12I19, -4,313625, 21,25956, -50
12, R12I19, -3,893992, 22,28398, -50
12, R12I19, -2,881925, 22,88874, -50
12, R12I19, -1,746434, 22,88874, -50
12, R12I19, -0,7467134, 23,02451, -50
12, R12I19, 0,1666176, 23,55523, -50
12, R12I19, 1,092288, 24,33279, -50
12, R12I19, 1,882196, 25,04864, -50
12, R12I19, 2,968315, 25,43125, -50
12, R12I19, 4,128483, 25,30783, -50
12, R12I19, 5,350371, 24,88819, -50
12, R12I19, 6,276042, 24,51792, -50
12, R12I19, 7,275763, 23,93784, -50
12, R12I19, 8,201432, 23,33307, -50
12, R12I19, 9,164136, 22,67892, -50
12, R12I19, 9,941697, 22,01244, -50
12, R12I19, 10,78097, 21,23488, -50
12, R12I19, 11,66961, 20,50669, -50
12, R12I19, 12,37313, 19,54399, -50
12, R12I19, 12,76807, 18,47021, -50
12, R12I19, 12,85447, 17,26067, -50
12, R12I19, 12,80511, 16,17455, -50
12, R12I19, 12,71871, 15,02671, -50
12, R12I19, 12,55826, 13,90357, -50
12, R12I19, 12,36078, 12,92853, -50
12, R12I19, 12,23736, 11,80538, -50
12, R12I19, 12,10159, 10,80566, -50
12, R12I19, 11,89177, 9,76891, -50
12, R12I19, 11,59556, 8,732157, -50
12, R12I19, 11,44746, 7,744775, -50
12, R12I19, 11,34871, 6,658657, -50
12, R12I19, 11,71898, 5,62191, -50
12, R12I19, 12,657, 5,029475, -50
12, R12I19, 13,7678, 4,683893, -50
12, R12I19, 14,95266, 4,609842, -50
12, R12I19, 16,0141, 4,622182, -50
12, R12I19, 17,18661, 4,78263, -50
12, R12I19, 18,4085, 4,893713, -50
12, R12I19, 19,56866, 4,930738, -50
12, R12I19, 20,70416, 4,881374, -50
12, R12I19, 21,70388, 4,720919, -50
12, R12I19, 22,71594, 4,461734, -50
12, R12I19, 23,72802, 4,103805, -50
12, R12I19, 24,55494, 3,412641, -50
12, R12I19, 25,14738, 2,573368, -50
12, R12I19, 25,59169, 1,635351, -50
12, R12I19, 26,01134, 0,7343666, -50
12, R12I19, 26,56674, -0,3517517, -50
12, R12I19, 27,09745, -1,215711, -50
12, R12I19, 27,6652, -2,240118, -50
12, R12I19, 28,18357, -3,091737, -50
12, R12I19, 28,8624, -3,968035, -50
12, R12I19, 29,23266, -4,955417, -50
12, R12I19, 29,38077, -6,103247, -50
12, R12I19, 29,77573, -7,214051, -50
12, R12I19, 29,86212, -7,436218, -50
12, R12I19, 30,10896, -8,164408, -50
12, R12I19, 33,02174, -7,547294, -55
12, R12I19, 32,46634, -8,50999, -55
12, R12I19, 31,86157, -9,522058, -55
12, R12I19, 31,33085, -10,53412, -55
12, R12I19, 30,99762, -11,50916, -55
12, R12I19, 30,8495, -12,54591, -55
12, R12I19, 30,7014, -13,53329, -55
12, R12I19, 30,46689, -14,60707, -55
12, R12I19, 30,33113, -15,7549, -55
12, R12I19, 30,25708, -16,804, -55
12, R12I19, 29,87446, -17,86543, -55
12, R12I19, 29,245, -18,82813, -55
12, R12I19, 28,47979, -19,59335, -55
12, R12I19, 27,44304, -20,21046, -55
12, R12I19, 26,50503, -20,53136, -55
12, R12I19, 25,5053, -20,74118, -55
12, R12I19, 24,51792, -21,02505, -55
12, R12I19, 23,40712, -21,55577, -55
12, R12I19, 22,51847, -22,03712, -55
12, R12I19, 21,42, -22,51847, -55
12, R12I19, 20,19813, -22,83937, -55
12, R12I19, 19,00092, -23,17261, -55
12, R12I19, 17,93949, -23,46882, -55
12, R12I19, 16,87806, -23,74035, -55
12, R12I19, 15,85364, -24,01189, -55
12, R12I19, 14,92797, -24,5426, -55
12, R12I19, 14,16276, -25,29548, -55
12, R12I19, 13,37285, -26,09773, -55
12, R12I19, 12,84213, -27,01105, -55
12, R12I19, 12,43484, -27,9861, -55
12, R12I19, 11,63259, -28,76366, -55
12, R12I19, 10,64521, -28,92411, -55
12, R12I19, 9,386295, -28,97348, -55
12, R12I19, 8,386567, -28,67726, -55
12, R12I19, 7,621352, -27,87502, -55
12, R12I19, 6,868469, -26,937, -55
12, R12I19, 6,201991, -26,04836, -55
12, R12I19, 5,436769, -25,30782, -55
12, R12I19, 4,597496, -24,70305, -55
12, R12I19, 3,610114, -24,14765, -55
12, R12I19, 2,400566, -23,85143, -55
12, R12I19, 1,314447, -23,7527, -55
12, R12I19, 0,3147264, -23,40711, -55
12, R12I19, -0,7590526, -23,14793, -55
12, R12I19, -1,919229, -23,30837, -55
12, R12I19, -2,758502, -23,95017, -55
12, R12I19, -3,313904, -25,08566, -55
12, R12I19, -4,005068, -25,92494, -55
12, R12I19, -4,819663, -26,51736, -55
12, R12I19, -5,658936, -25,80152, -55
12, R12I19, -5,844069, -24,82647, -55
12, R12I19, -6,177312, -23,61693, -55
12, R12I19, -6,621631, -22,71595, -55
12, R12I19, -7,041271, -21,77793, -55
12, R12I19, -7,683064, -20,76587, -55
12, R12I19, -8,361888, -19,91425, -55
12, R12I19, -9,090085, -18,96389, -55
12, R12I19, -9,84296, -17,90246, -55
12, R12I19, -10,53413, -16,86571, -55
12, R12I19, -11,20061, -15,86599, -55
12, R12I19, -11,85476, -14,76752, -55
12, R12I19, -12,47187, -13,74312, -55
12, R12I19, -13,20006, -12,4842, -55
12, R12I19, -14,06402, -11,16358, -55
12, R12I19, -14,82924, -9,904668, -55
12, R12I19, -15,48338, -8,658098, -55
12, R12I19, -16,13752, -7,275763, -55
12, R12I19, -16,68058, -5,732979, -55
12, R12I19, -17,02616, -4,486413, -55
12, R12I19, -17,26067, -3,338583, -55
12, R12I19, -17,48283, -2,15372, -55
12, R12I19, -17,72968, -0,9935513, -55
12, R12I19, -17,92715, 0,1049138, -55
12, R12I19, -18,07526, 1,326794, -55
12, R12I19, -18,18634, 2,351208, -55
12, R12I19, -18,34679, 3,585436, -55
12, R12I19, -18,60597, 4,708579, -55
12, R12I19, -18,81579, 5,770011, -55
12, R12I19, -19,00093, 6,794426, -55
12, R12I19, -19,03795, 8,078017, -55
12, R12I19, -18,79111, 9,12711, -55
12, R12I19, -18,00121, 9,954044, -55
12, R12I19, -17,10022, 10,5835, -55
12, R12I19, -16,28563, 11,26232, -55
12, R12I19, -15,43402, 12,11394, -55
12, R12I19, -14,79222, 12,92853, -55
12, R12I19, -14,24915, 13,75546, -55
12, R12I19, -13,81717, 14,64411, -55
12, R12I19, -13,55799, 15,61915, -55
12, R12I19, -13,50862, 16,6559, -55
12, R12I19, -13,59501, 17,64328, -55
12, R12I19, -13,57033, 18,86517, -55
12, R12I19, -13,20006, 19,8402, -55
12, R12I19, -12,55826, 20,66713, -55
12, R12I19, -11,68196, 21,40767, -55
12, R12I19, -10,54647, 21,69154, -55
12, R12I19, -9,460353, 21,51875, -55
12, R12I19, -8,423599, 21,00038, -55
12, R12I19, -7,596673, 20,32155, -55
12, R12I19, -6,806765, 19,67975, -55
12, R12I19, -5,770011, 19,16138, -55
12, R12I19, -4,955425, 18,59363, -55
12, R12I19, -3,906332, 18,27274, -55
12, R12I19, -2,832553, 18,69237, -55
12, R12I19, -1,610672, 19,44525, -55
12, R12I19, -0,820764, 20,13642, -55
12, R12I19, -0,3270732, 21,00038, -55
12, R12I19, 0,1666176, 21,95073, -55
12, R12I19, 0,6726477, 22,97514, -55
12, R12I19, 1,203371, 23,96252, -55
12, R12I19, 1,64769, 24,97459, -55
12, R12I19, 2,215431, 26,08539, -55
12, R12I19, 2,869578, 27,18385, -55
12, R12I19, 3,462005, 28,25763, -55
12, R12I19, 4,103805, 29,35609, -55
12, R12I19, 4,745597, 30,17068, -55
12, R12I19, 5,486133, 30,89888, -55
12, R12I19, 6,498201, 30,86185, -55
12, R12I19, 7,325134, 29,89915, -55
12, R12I19, 7,868197, 28,83772, -55
12, R12I19, 8,411253, 27,85034, -55
12, R12I19, 8,966655, 26,72719, -55
12, R12I19, 9,410981, 25,5917, -55
12, R12I19, 9,682506, 24,60432, -55
12, R12I19, 10,01575, 23,64162, -55
12, R12I19, 10,47241, 22,75298, -55
12, R12I19, 10,99079, 21,81496, -55
12, R12I19, 11,75601, 20,85227, -55
12, R12I19, 12,3978, 20,03768, -55
12, R12I19, 12,99024, 19,23543, -55
12, R12I19, 13,53329, 18,24805, -55
12, R12I19, 13,97762, 17,08788, -55
12, R12I19, 14,27383, 15,97707, -55
12, R12I19, 14,4096, 14,97735, -55
12, R12I19, 14,43428, 13,75546, -55
12, R12I19, 14,44663, 12,71872, -55
12, R12I19, 14,76752, 11,65728, -55
12, R12I19, 15,71788, 11,05251, -55
12, R12I19, 16,72995, 10,80566, -55
12, R12I19, 17,79138, 10,49711, -55
12, R12I19, 18,75407, 10,18855, -55
12, R12I19, 19,86488, 9,830622, -55
12, R12I19, 21,00038, 9,448014, -55
12, R12I19, 22,16054, 9,275219, -55
12, R12I19, 23,35775, 9,176482, -55
12, R12I19, 24,45621, 9,139458, -55
12, R12I19, 25,64107, 9,188822, -55
12, R12I19, 26,83826, 9,299906, -55
12, R12I19, 28,02312, 9,34927, -55
12, R12I19, 29,23266, 9,324592, -55
12, R12I19, 30,20771, 9,114771, -55
12, R12I19, 31,12104, 8,448286, -55
12, R12I19, 31,76283, 7,621352, -55
12, R12I19, 32,04671, 6,658657, -55
12, R12I19, 32,20715, 5,461455, -55
12, R12I19, 32,30589, 4,26426, -55
12, R12I19, 32,34291, 3,12877, -55
12, R12I19, 32,52805, 2,06733, -55
12, R12I19, 32,89831, 1,079949, -55
12, R12I19, 33,51543, 0,2159897, -55
12, R12I19, 34,2066, -0,6109363, -55
12, R12I19, 34,71264, -1,64769, -55
12, R12I19, 35,00885, -2,659758, -55
12, R12I19, 35,03353, -3,733537, -55
12, R12I19, 34,93479, -4,733258, -55
12, R12I19, 34,50281, -5,720639, -55
12, R12I19, 33,86102, -6,535226, -55
12, R12I19, 33,36732, -7,090628, -55
12, R12I19, 33,02174, -7,547294, -55
12, R12I19, 28,92411, -7,670717, -60
12, R12I19, 29,25734, -8,71981, -60
12, R12I19, 29,36843, -10,11449, -60
12, R12I19, 29,20799, -11,48448, -60
12, R12I19, 28,82536, -12,45952, -60
12, R12I19, 28,38104, -13,40987, -60
12, R12I19, 27,78863, -14,27383, -60
12, R12I19, 26,97402, -14,98969, -60
12, R12I19, 26,11006, -15,56977, -60
12, R12I19, 25,19675, -15,98941, -60
12, R12I19, 24,07359, -16,44607, -60
12, R12I19, 23,13558, -16,97679, -60
12, R12I19, 22,34567, -17,60625, -60
12, R12I19, 21,61749, -18,28507, -60
12, R12I19, 20,87695, -18,96389, -60
12, R12I19, 19,96362, -19,56867, -60
12, R12I19, 19,17371, -20,24749, -60
12, R12I19, 18,43318, -20,93866, -60
12, R12I19, 17,60625, -21,79028, -60
12, R12I19, 17,00148, -22,59253, -60
12, R12I19, 16,37202, -23,44414, -60
12, R12I19, 15,71788, -24,28341, -60
12, R12I19, 14,90329, -24,8635, -60
12, R12I19, 13,92825, -25,03629, -60
12, R12I19, 12,86682, -24,81413, -60
12, R12I19, 11,89177, -24,55494, -60
12, R12I19, 10,97844, -24,14765, -60
12, R12I19, 10,04043, -23,62927, -60
12, R12I19, 9,151789, -23,18495, -60
12, R12I19, 8,115043, -22,5555, -60
12, R12I19, 7,226398, -21,93838, -60
12, R12I19, 6,387125, -21,21019, -60
12, R12I19, 5,49848, -20,44497, -60
12, R12I19, 4,659207, -19,77848, -60
12, R12I19, 3,832273, -19,112, -60
12, R12I19, 2,881917, -18,3221, -60
12, R12I19, 2,054984, -17,77904, -60
12, R12I19, 1,191025, -17,273, -60
12, R12I19, 0,2159897, -16,70526, -60
12, R12I19, -0,5368933, -16,00175, -60
12, R12I19, -1,178693, -15,10077, -60
12, R12I19, -1,820485, -14,26149, -60
12, R12I19, -2,585707, -13,33582, -60
12, R12I19, -3,42498, -12,45952, -60
12, R12I19, -4,301286, -11,70664, -60
12, R12I19, -4,955425, -10,95376, -60
12, R12I19, -5,399744, -9,867643, -60
12, R12I19, -5,523166, -8,682784, -60
12, R12I19, -5,572538, -6,967206, -60
12, R12I19, -5,597224, -5,510819, -60
12, R12I19, -5,473802, -4,227228, -60
12, R12I19, -5,288667, -3,030026, -60
12, R12I19, -4,955425, -1,919222, -60
12, R12I19, -4,560471, -0,956526, -60
12, R12I19, -3,819934, 0,2036505, -60
12, R12I19, -2,844899, 1,178693, -60
12, R12I19, -1,832832, 2,06733, -60
12, R12I19, -0,7220274, 3,017687, -60
12, R12I19, 0,2159897, 3,671825, -60
12, R12I19, 1,314447, 4,325972, -60
12, R12I19, 2,78318, 4,930738, -60
12, R12I19, 4,43704, 5,720647, -60
12, R12I19, 5,782351, 6,189651, -60
12, R12I19, 6,782072, 6,399472, -60
12, R12I19, 8,090357, 6,757393, -60
12, R12I19, 9,485032, 7,078297, -60
12, R12I19, 10,89205, 7,337481, -60
12, R12I19, 12,20033, 7,41154, -60
12, R12I19, 13,39753, 7,399193, -60
12, R12I19, 14,70581, 7,325142, -60
12, R12I19, 16,08815, 7,177033, -60
12, R12I19, 17,21129, 7,004239, -60
12, R12I19, 18,34679, 6,819104, -60
12, R12I19, 19,53164, 6,63397, -60
12, R12I19, 20,64245, 6,313075, -60
12, R12I19, 21,58046, 5,745333, -60
12, R12I19, 22,54316, 5,004797, -60
12, R12I19, 23,55522, 4,05444, -60
12, R12I19, 24,38215, 2,993001, -60
12, R12I19, 25,14738, 2,017966, -60
12, R12I19, 25,8262, 1,14166, -60
12, R12I19, 26,36926, 0,2653618, -60
12, R12I19, 26,92467, -0,7343591, -60
12, R12I19, 27,31961, -1,832824, -60
12, R12I19, 27,6652, -2,770834, -60
12, R12I19, 27,9614, -3,758215, -60
12, R12I19, 28,15889, -4,770283, -60
12, R12I19, 28,31933, -5,856401, -60
12, R12I19, 28,47979, -6,942527, -60
12, R12I19, 28,92411, -7,670717, -60
