Report_Number, Iceberg_Number, X_Value, Y_Value, Z_Value
12, R12I29, 49,87228, 29,67321, -5
12, R12I29, 51,40307, 29,35585, -5
12, R12I29, 52,97121, 28,88914, -5
12, R12I29, 54,42732, 28,29176, -5
12, R12I29, 56,05147, 27,39568, -5
12, R12I29, 57,45159, 26,49961, -5
12, R12I29, 58,96372, 25,71554, -5
12, R12I29, 60,55052, 25,24883, -5
12, R12I29, 62,15599, 24,83813, -5
12, R12I29, 63,64945, 24,29675, -5
12, R12I29, 65,10558, 23,58736, -5
12, R12I29, 66,63637, 22,9153, -5
12, R12I29, 68,07384, 22,35525, -5
12, R12I29, 69,62329, 21,58986, -5
12, R12I29, 71,00475, 20,74978, -5
12, R12I29, 72,33019, 19,96571, -5
12, R12I29, 73,46895, 18,73361, -5
12, R12I29, 74,21568, 17,31482, -5
12, R12I29, 74,57038, 15,8587, -5
12, R12I29, 74,94375, 14,34657, -5
12, R12I29, 75,35446, 12,61041, -5
12, R12I29, 75,65315, 11,06095, -5
12, R12I29, 75,76516, 9,268799, -5
12, R12I29, 75,78382, 7,56998, -5
12, R12I29, 75,83984, 5,852509, -5
12, R12I29, 75,39179, 4,097687, -5
12, R12I29, 74,3837, 2,697567, -5
12, R12I29, 72,98358, 1,876159, -5
12, R12I29, 72,10618, 0,3640335, -5
12, R12I29, 71,75148, -1,092089, -5
12, R12I29, 71,97549, -2,305526, -5
12, R12I29, 70,81807, -3,220276, -5
12, R12I29, 69,5673, -2,697567, -10
12, R12I29, 68,89523, -4,396375, -10
12, R12I29, 68,16718, -6,225863, -10
12, R12I29, 67,10308, -8,036687, -10
12, R12I29, 66,31902, -9,642153, -10
12, R12I29, 65,75897, -11,24763, -10
12, R12I29, 64,88155, -12,7971, -10
12, R12I29, 63,98549, -14,51458, -10
12, R12I29, 63,0894, -15,8587, -10
12, R12I29, 62,23066, -17,40816, -10
12, R12I29, 61,59594, -18,84562, -10
12, R12I29, 60,88656, -20,63777, -10
12, R12I29, 60,13983, -22,41125, -10
12, R12I29, 59,31842, -24,03539, -10
12, R12I29, 58,59035, -25,65953, -10
12, R12I29, 57,75028, -27,35834, -10
12, R12I29, 56,83553, -28,96382, -10
12, R12I29, 55,75278, -30,12124, -10
12, R12I29, 54,37133, -31,03599, -10
12, R12I29, 53,13923, -31,89473, -10
12, R12I29, 51,66443, -32,69747, -10
12, R12I29, 50,28297, -33,5002, -10
12, R12I29, 48,62149, -34,07892, -10
12, R12I29, 46,90402, -34,54563, -10
12, R12I29, 45,41056, -35,031, -10
12, R12I29, 43,87975, -35,3857, -10
12, R12I29, 42,16228, -35,68439, -10
12, R12I29, 40,59414, -36,03909, -10
12, R12I29, 39,11934, -36,31911, -10
12, R12I29, 37,51387, -36,44979, -10
12, R12I29, 35,96442, -36,71115, -10
12, R12I29, 70,81807, -3,220276, -5
12, R12I29, 70,93007, -4,863081, -5
12, R12I29, 70,48203, -6,431221, -5
12, R12I29, 69,95933, -7,887343, -5
12, R12I29, 69,15659, -9,268787, -5
12, R12I29, 68,52186, -10,74359, -5
12, R12I29, 67,83115, -12,31172, -5
12, R12I29, 66,93506, -13,99187, -5
12, R12I29, 66,35635, -15,41065, -5
12, R12I29, 65,49761, -17,07213, -5
12, R12I29, 64,71355, -18,56559, -5
12, R12I29, 64,11616, -20,07772, -5
12, R12I29, 63,40677, -21,68319, -5
12, R12I29, 62,62269, -23,25132, -5
12, R12I29, 61,83863, -24,78213, -5
12, R12I29, 61,03589, -26,33159, -5
12, R12I29, 60,06515, -27,76905, -5
12, R12I29, 59,03839, -29,03849, -5
12, R12I29, 57,89964, -30,23326, -5
12, R12I29, 56,76085, -31,29735, -5
12, R12I29, 55,45407, -32,24943, -5
12, R12I29, 54,07264, -33,16418, -5
12, R12I29, 52,63517, -33,94824, -5
12, R12I29, 51,25372, -35,10567, -5
12, R12I29, 49,74159, -35,68439, -5
12, R12I29, 48,17345, -36,11376, -5
12, R12I29, 46,56798, -35,64705, -5
12, R12I29, 45,2612, -34,58297, -5
12, R12I29, 43,58106, -34,41495, -5
12, R12I29, 42,36762, -35,64705, -5
12, R12I29, 41,07951, -36,59914, -5
12, R12I29, 39,79142, -37,49521, -5
12, R12I29, 38,2606, -38,20461, -5
12, R12I29, 36,54313, -38,52197, -5
12, R12I29, 35,06834, -38,83933, -5
12, R12I29, 33,29485, -38,93267, -5
12, R12I29, 31,59604, -38,78333, -5
12, R12I29, 30,00924, -38,914, -5
12, R12I29, 28,10507, -38,93267, -5
12, R12I29, 26,51827, -38,98867, -5
12, R12I29, 24,91279, -39,04468, -5
12, R12I29, 23,08331, -39,00734, -5
12, R12I29, 21,34716, -38,858, -5
12, R12I29, 19,55501, -38,44729, -5
12, R12I29, 17,76285, -38,16727, -5
12, R12I29, 16,28806, -37,86858, -5
12, R12I29, 14,58924, -37,21519, -5
12, R12I29, 13,11446, -36,48713, -5
12, R12I29, 11,789, -35,42304, -5
12, R12I29, 10,83693, -34,11626, -5
12, R12I29, 9,884838, -32,51079, -5
12, R12I29, 9,250124, -31,12934, -5
12, R12I29, 8,783418, -29,31851, -5
12, R12I29, 8,578059, -27,65704, -5
12, R12I29, 8,242033, -26,10757, -5
12, R12I29, 7,999348, -24,57677, -5
12, R12I29, 8,18603, -22,95263, -5
12, R12I29, 8,540732, -21,34716, -5
12, R12I29, 7,513978, -19,87237, -5
12, R12I29, 6,207199, -18,7336, -5
12, R12I29, 5,236447, -17,4455, -5
12, R12I29, 4,377699, -16,21338, -5
12, R12I29, 4,060348, -14,66392, -5
12, R12I29, 3,72431, -12,77843, -5
12, R12I29, 3,5003, -10,98627, -5
12, R12I29, 3,126935, -9,231461, -5
12, R12I29, 2,660228, -7,756663, -5
12, R12I29, 1,988164, -5,964514, -5
12, R12I29, 1,204094, -4,284369, -5
12, R12I29, 0,7560626, -2,828236, -5
12, R12I29, 0,3640221, -1,260108, -5
12, R12I29, -2,800696E-02, 0,4573748, -5
12, R12I29, -0,4387111, 2,174858, -5
12, R12I29, -0,8494152, 3,855002, -5
12, R12I29, -1,409463, 5,572484, -5
12, R12I29, -1,857495, 7,177951, -5
12, R12I29, -2,286863, 8,914098, -5
12, R12I29, -2,604226, 10,63158, -5
12, R12I29, -2,604226, 12,27439, -5
12, R12I29, -2,49222, 13,76785, -5
12, R12I29, -0,868079, 14,3839, -5
12, R12I29, 0,8120651, 13,73051, -5
12, R12I29, 2,398868, 12,85311, -5
12, R12I29, 3,761649, 12,0317, -5
12, R12I29, 4,993762, 11,13563, -5
12, R12I29, 6,412545, 10,10887, -5
12, R12I29, 7,812665, 9,194121, -5
12, R12I29, 9,231449, 8,522069, -5
12, R12I29, 10,81825, 8,335386, -5
12, R12I29, 11,99436, 9,567487, -5
12, R12I29, 12,25571, 11,17297, -5
12, R12I29, 11,99436, 12,81577, -5
12, R12I29, 12,36773, 14,30923, -5
12, R12I29, 13,05844, 15,74669, -5
12, R12I29, 13,39448, 17,40816, -5
12, R12I29, 12,53573, 18,9203, -5
12, R12I29, 11,3223, 19,90971, -5
12, R12I29, 10,57557, 21,57118, -5
12, R12I29, 10,44489, 23,36334, -5
12, R12I29, 10,66891, 25,17417, -5
12, R12I29, 11,09828, 26,96631, -5
12, R12I29, 11,63966, 28,57178, -5
12, R12I29, 12,57307, 30,17726, -5
12, R12I29, 13,86119, 31,37202, -5
12, R12I29, 15,54133, 31,68938, -5
12, R12I29, 17,1468, 31,93207, -5
12, R12I29, 18,54692, 32,71614, -5
12, R12I29, 19,34965, 34,1536, -5
12, R12I29, 20,45108, 35,3857, -5
12, R12I29, 22,13123, 35,34837, -5
12, R12I29, 23,64335, 35,03101, -5
12, R12I29, 25,60352, 34,95633, -5
12, R12I29, 27,35834, 35,18035, -5
12, R12I29, 29,28117, 35,23635, -5
12, R12I29, 30,99866, 35,3297, -5
12, R12I29, 32,60413, 35,40437, -5
12, R12I29, 34,19094, 35,25503, -5
12, R12I29, 35,98309, 34,97501, -5
12, R12I29, 37,55122, 34,6203, -5
12, R12I29, 39,04469, 34,22828, -5
12, R12I29, 40,66882, 33,74289, -5
12, R12I29, 42,10626, 33,29486, -5
12, R12I29, 43,6744, 32,58546, -5
12, R12I29, 45,16786, 31,87607, -5
12, R12I29, 46,79202, 31,05467, -5
12, R12I29, 48,24813, 30,28926, -5
12, R12I29, 34,47096, -37,06584, -10
12, R12I29, 32,86547, -37,45788, -10
12, R12I29, 31,29735, -37,68189, -10
12, R12I29, 29,69188, -37,56989, -10
12, R12I29, 28,04907, -36,86049, -10
12, R12I29, 26,42493, -36,5618, -10
12, R12I29, 24,70745, -36,67381, -10
12, R12I29, 23,00864, -36,82316, -10
12, R12I29, 21,16048, -36,50579, -10
12, R12I29, 19,57367, -35,51638, -10
12, R12I29, 18,43491, -34,45229, -10
12, R12I29, 16,99746, -33,4442, -10
12, R12I29, 15,76534, -32,52946, -10
12, R12I29, 14,53324, -31,54003, -10
12, R12I29, 13,33847, -30,08391, -10
12, R12I29, 12,25571, -28,31043, -10
12, R12I29, 11,49032, -26,89164, -10
12, R12I29, 10,74359, -25,51019, -10
12, R12I29, 9,97818, -23,7367, -10
12, R12I29, 9,268787, -22,03789, -10
12, R12I29, 8,690076, -20,39508, -10
12, R12I29, 8,036687, -18,77094, -10
12, R12I29, 7,252617, -17,18414, -10
12, R12I29, 6,505887, -15,69068, -10
12, R12I29, 5,609812, -14,06653, -10
12, R12I29, 4,788404, -12,72242, -10
12, R12I29, 4,004334, -10,96761, -10
12, R12I29, 3,350945, -9,604826, -10
12, R12I29, 2,622889, -8,074025, -10
12, R12I29, 1,932161, -6,543225, -10
12, R12I29, 1,241433, -4,881745, -10
12, R12I29, 0,70006, -3,406959, -10
12, R12I29, 8,399808E-02, -1,521457, -10
12, R12I29, -0,420036, 0,2893559, -10
12, R12I29, -0,868079, 1,913497, -10
12, R12I29, -1,204105, 3,63098, -10
12, R12I29, -1,372124, 5,42313, -10
12, R12I29, -1,708151, 7,08461, -10
12, R12I29, -2,081516, 8,727415, -10
12, R12I29, -2,473545, 10,20221, -10
12, R12I29, -3,089607, 11,73301, -10
12, R12I29, -3,612317, 13,2078, -10
12, R12I29, -4,321708, 14,81328, -10
12, R12I29, -5,105778, 16,17606, -10
12, R12I29, -5,983189, 17,52018, -10
12, R12I29, -6,860588, 18,9203, -10
12, R12I29, -7,588655, 20,43242, -10
12, R12I29, -7,999359, 22,07523, -10
12, R12I29, -8,167367, 23,96073, -10
12, R12I29, -8,186042, 25,56619, -10
12, R12I29, -7,850016, 27,17166, -10
12, R12I29, -6,636578, 28,25443, -10
12, R12I29, -4,937759, 27,76905, -10
12, R12I29, -3,5003, 27,13433, -10
12, R12I29, -2,025514, 27,58237, -10
12, R12I29, -1,502805, 29,03849, -10
12, R12I29, -2,156194, 30,43861, -10
12, R12I29, -2,716242, 31,87607, -10
12, R12I29, -2,193521, 33,42553, -10
12, R12I29, -2,604226, 34,88166, -10
12, R12I29, -4,004345, 35,66572, -10
12, R12I29, -5,647151, 36,00176, -10
12, R12I29, -7,308631, 36,28178, -10
12, R12I29, -8,802093, 36,43113, -10
12, R12I29, -10,42623, 36,54313, -10
12, R12I29, -12,06904, 36,78582, -10
12, R12I29, -12,12504, 38,3913, -10
12, R12I29, -10,51958, 38,98868, -10
12, R12I29, -9,007439, 38,89534, -10
12, R12I29, -7,21529, 39,08202, -10
12, R12I29, -5,647151, 39,51139, -10
12, R12I29, -4,228367, 40,22078, -10
12, R12I29, -2,865586, 41,17286, -10
12, R12I29, -1,782829, 42,29296, -10
12, R12I29, -1,148103, 43,73042, -10
12, R12I29, -0,2706921, 45,0932, -10
12, R12I29, 0,8680676, 46,30663, -10
12, R12I29, 2,193521, 47,14671, -10
12, R12I29, 3,630969, 47,87477, -10
12, R12I29, 5,348452, 48,37882, -10
12, R12I29, 7,047271, 48,60284, -10
12, R12I29, 8,951425, 48,93887, -10
12, R12I29, 10,65024, 49,61092, -10
12, R12I29, 12,33039, 50,41365, -10
12, R12I29, 13,87985, 51,42175, -10
12, R12I29, 15,41065, 52,57918, -10
12, R12I29, 16,7361, 53,49392, -10
12, R12I29, 18,47224, 53,79262, -10
12, R12I29, 20,2644, 53,69928, -10
12, R12I29, 22,03789, 53,04589, -10
12, R12I29, 23,60601, 52,28048, -10
12, R12I29, 25,06215, 51,38441, -10
12, R12I29, 26,46227, 50,73101, -10
12, R12I29, 28,0864, 50,0963, -10
12, R12I29, 29,48652, 49,53625, -10
12, R12I29, 31,05466, 49,05087, -10
12, R12I29, 32,67879, 48,5095, -10
12, R12I29, 34,2096, 47,89344, -10
12, R12I29, 35,66571, 47,14671, -10
12, R12I29, 37,08452, 46,15729, -10
12, R12I29, 38,35395, 45,27988, -10
12, R12I29, 39,60473, 44,45848, -10
12, R12I29, 40,94884, 43,63707, -10
12, R12I29, 42,55431, 42,96502, -10
12, R12I29, 43,99178, 41,99427, -10
12, R12I29, 45,18653, 40,78083, -10
12, R12I29, 46,34397, 39,66074, -10
12, R12I29, 47,94944, 39,15669, -10
12, R12I29, 49,59225, 38,57798, -10
12, R12I29, 51,16037, 37,71923, -10
12, R12I29, 52,69118, 36,76715, -10
12, R12I29, 54,07264, 36,03909, -10
12, R12I29, 55,45407, 35,10567, -10
12, R12I29, 56,48083, 33,91091, -10
12, R12I29, 57,61961, 32,9215, -10
12, R12I29, 58,85171, 32,00674, -10
12, R12I29, 60,13983, 31,14801, -10
12, R12I29, 61,5026, 30,10258, -10
12, R12I29, 62,79071, 29,05716, -10
12, R12I29, 63,98549, 28,03041, -10
12, R12I29, 65,19892, 27,02232, -10
12, R12I29, 66,61771, 26,20092, -10
12, R12I29, 68,05515, 25,37951, -10
12, R12I29, 69,38062, 24,61412, -10
12, R12I29, 70,7994, 23,58736, -10
12, R12I29, 71,82616, 22,31791, -10
12, R12I29, 72,72222, 20,93647, -10
12, R12I29, 73,2636, 19,53635, -10
12, R12I29, 73,41296, 17,89354, -10
12, R12I29, 73,33828, 16,12006, -10
12, R12I29, 73,09559, 14,34657, -10
12, R12I29, 72,92759, 12,57308, -10
12, R12I29, 72,70356, 11,02361, -10
12, R12I29, 72,42353, 9,399479, -10
12, R12I29, 71,93816, 7,532653, -10
12, R12I29, 71,39678, 5,964514, -10
12, R12I29, 71,00475, 4,489716, -10
12, R12I29, 70,51938, 2,716231, -10
12, R12I29, 70,01532, 0,9427452, -10
12, R12I29, 69,60463, -0,6440575, -10
12, R12I29, 69,17525, -2,249524, -10
12, R12I29, 69,5673, -2,697567, -10
12, R12I29, 74,30902, -2,641553, -15
12, R12I29, 73,65563, -4,079012, -15
12, R12I29, 72,89024, -5,572473, -15
12, R12I29, 72,06883, -6,935255, -15
12, R12I29, 71,07943, -8,372713, -15
12, R12I29, 70,42604, -9,772833, -15
12, R12I29, 69,99666, -11,24763, -15
12, R12I29, 69,99666, -13,09578, -15
12, R12I29, 70,16468, -15,01862, -15
12, R12I29, 70,07133, -16,66143, -15
12, R12I29, 69,5673, -18,58426, -15
12, R12I29, 69,02592, -20,13372, -15
12, R12I29, 68,29785, -21,72052, -15
12, R12I29, 67,30843, -23,7367, -15
12, R12I29, 66,41236, -25,49152, -15
12, R12I29, 64,75088, -27,86239, -15
12, R12I29, 63,64945, -28,98248, -15
12, R12I29, 62,38002, -29,99057, -15
12, R12I29, 60,86787, -30,90531, -15
12, R12I29, 59,22508, -31,89473, -15
12, R12I29, 57,58226, -32,56679, -15
12, R12I29, 56,14481, -32,99616, -15
12, R12I29, 54,502, -33,46287, -15
12, R12I29, 52,84052, -34,02292, -15
12, R12I29, 51,01104, -34,67631, -15
12, R12I29, 49,61092, -35,3857, -15
12, R12I29, 48,02412, -36,07643, -15
12, R12I29, 46,3813, -36,50579, -15
12, R12I29, 44,70116, -36,39378, -15
12, R12I29, 42,81567, -35,7964, -15
12, R12I29, 41,19154, -35,21769, -15
12, R12I29, 39,69807, -35,10567, -15
12, R12I29, 38,05526, -35,19902, -15
12, R12I29, 36,48712, -35,36703, -15
12, R12I29, 34,76965, -35,98309, -15
12, R12I29, 33,10817, -36,44979, -15
12, R12I29, 31,37201, -36,71115, -15
12, R12I29, 29,46786, -36,86049, -15
12, R12I29, 27,61969, -36,86049, -15
12, R12I29, 26,0889, -36,65514, -15
12, R12I29, 24,52076, -36,41245, -15
12, R12I29, 22,6726, -36,09509, -15
12, R12I29, 20,80577, -35,75906, -15
12, R12I29, 19,21897, -35,51638, -15
12, R12I29, 17,44549, -34,99366, -15
12, R12I29, 15,78402, -34,09759, -15
12, R12I29, 14,3839, -32,92149, -15
12, R12I29, 12,9091, -31,89473, -15
12, R12I29, 11,621, -30,97999, -15
12, R12I29, 10,61291, -29,72922, -15
12, R12I29, 9,716831, -28,4411, -15
12, R12I29, 9,044766, -26,94764, -15
12, R12I29, 8,522058, -25,45418, -15
12, R12I29, 8,036687, -23,68069, -15
12, R12I29, 7,663321, -21,94455, -15
12, R12I29, 7,140612, -20,22706, -15
12, R12I29, 6,655231, -18,58426, -15
12, R12I29, 6,16986, -17,01612, -15
12, R12I29, 5,535134, -15,37331, -15
12, R12I29, 4,807079, -13,87985, -15
12, R12I29, 4,004334, -12,40507, -15
12, R12I29, 3,201601, -11,02361, -15
12, R12I29, 2,45487, -9,306127, -15
12, R12I29, 1,950825, -7,532641, -15
12, R12I29, 1,726815, -6,020516, -15
12, R12I29, 1,484118, -4,321697, -15
12, R12I29, 1,241433, -2,846911, -15
12, R12I29, 0,9614089, -1,278772, -15
12, R12I29, 0,6440461, 0,2893559, -15
12, R12I29, 0,2520171, 2,006839, -15
12, R12I29, 2,799556E-02, 3,649644, -15
12, R12I29, 2,799556E-02, 5,55381, -15
12, R12I29, -0,1586871, 7,308631, -15
12, R12I29, -0,3453698, 8,839432, -15
12, R12I29, -0,7373988, 10,61292, -15
12, R12I29, -1,465466, 12,14371, -15
12, R12I29, -2,342877, 13,78652, -15
12, R12I29, -3,201612, 15,24264, -15
12, R12I29, -4,060348, 16,54942, -15
12, R12I29, -4,713737, 18,08022, -15
12, R12I29, -5,441804, 19,81637, -15
12, R12I29, -5,460468, 21,57118, -15
12, R12I29, -4,527055, 23,36334, -15
12, R12I29, -3,911004, 24,78213, -15
12, R12I29, -4,265706, 26,49961, -15
12, R12I29, -5,124442, 27,97441, -15
12, R12I29, -6,30054, 29,39319, -15
12, R12I29, -7,252629, 30,60663, -15
12, R12I29, -8,223381, 31,98808, -15
12, R12I29, -9,212796, 33,14551, -15
12, R12I29, -10,14621, 34,34028, -15
12, R12I29, -10,65026, 35,88974, -15
12, R12I29, -10,3889, 37,43921, -15
12, R12I29, -9,362141, 38,802, -15
12, R12I29, -7,47665, 39,08202, -15
12, R12I29, -6,001853, 39,34337, -15
12, R12I29, -4,620396, 40,07144, -15
12, R12I29, -3,313617, 41,02352, -15
12, R12I29, -1,857495, 41,84492, -15
12, R12I29, -0,308031, 42,44231, -15
12, R12I29, 1,558796, 42,741, -15
12, R12I29, 3,462961, 42,741, -15
12, R12I29, 5,049764, 42,75966, -15
12, R12I29, 6,823249, 42,741, -15
12, R12I29, 8,634073, 42,87168, -15
12, R12I29, 10,38888, 43,07703, -15
12, R12I29, 11,91968, 43,0957, -15
12, R12I29, 13,74917, 43,17037, -15
12, R12I29, 15,41065, 43,18904, -15
12, R12I29, 17,03479, 43,11436, -15
12, R12I29, 18,60292, 43,0957, -15
12, R12I29, 20,37641, 42,98368, -15
12, R12I29, 22,76594, 42,89034, -15
12, R12I29, 24,68878, 42,70366, -15
12, R12I29, 26,38759, 42,55432, -15
12, R12I29, 28,34776, 42,05027, -15
12, R12I29, 29,9159, 41,47156, -15
12, R12I29, 31,54003, 40,81817, -15
12, R12I29, 32,9775, 40,18344, -15
12, R12I29, 34,32161, 39,30603, -15
12, R12I29, 35,62838, 38,48464, -15
12, R12I29, 37,10318, 37,70057, -15
12, R12I29, 38,48464, 36,74849, -15
12, R12I29, 39,026, 35,01233, -15
12, R12I29, 40,05275, 33,89223, -15
12, R12I29, 41,5649, 33,94825, -15
12, R12I29, 43,07703, 33,76157, -15
12, R12I29, 44,0291, 32,58546, -15
12, R12I29, 45,18653, 33,55621, -15
12, R12I29, 46,9787, 33,72423, -15
12, R12I29, 48,67751, 33,18285, -15
12, R12I29, 50,24565, 32,58546, -15
12, R12I29, 51,98178, 33,33219, -15
12, R12I29, 53,69928, 33,44421, -15
12, R12I29, 55,47276, 33,05217, -15
12, R12I29, 57,05956, 32,52946, -15
12, R12I29, 58,51567, 31,89474, -15
12, R12I29, 59,74778, 30,84931, -15
12, R12I29, 60,92389, 29,80389, -15
12, R12I29, 62,19334, 28,66512, -15
12, R12I29, 63,40677, 27,32102, -15
12, R12I29, 64,54553, 25,80888, -15
12, R12I29, 65,64697, 24,48344, -15
12, R12I29, 66,67372, 23,10198, -15
12, R12I29, 67,7378, 21,60852, -15
12, R12I29, 68,63389, 20,18974, -15
12, R12I29, 69,51129, 18,60293, -15
12, R12I29, 70,37003, 16,97879, -15
12, R12I29, 70,98608, 15,56001, -15
12, R12I29, 71,58346, 13,93587, -15
12, R12I29, 72,16217, 12,34906, -15
12, R12I29, 72,7969, 10,93027, -15
12, R12I29, 73,33828, 9,343466, -15
12, R12I29, 73,73031, 7,663321, -15
12, R12I29, 73,97301, 6,132533, -15
12, R12I29, 74,10368, 4,620396, -15
12, R12I29, 74,21568, 3,033593, -15
12, R12I29, 74,40237, 1,409452, -15
12, R12I29, 74,51439, -0,2333533, -15
12, R12I29, 74,53306, -1,633473, -15
12, R12I29, 74,30902, -2,641553, -15
12, R12I29, 66,37501, -3,070932, -20
12, R12I29, 66,74837, -4,863081, -20
12, R12I29, 66,95374, -6,711244, -20
12, R12I29, 66,87907, -8,690076, -20
12, R12I29, 66,71104, -10,81826, -20
12, R12I29, 66,69238, -12,53573, -20
12, R12I29, 66,74837, -14,19722, -20
12, R12I29, 66,58038, -15,8587, -20
12, R12I29, 65,9083, -17,9122, -20
12, R12I29, 65,42294, -19,46167, -20
12, R12I29, 64,93756, -21,23515, -20
12, R12I29, 64,37752, -22,76595, -20
12, R12I29, 63,63078, -24,37142, -20
12, R12I29, 62,79071, -26,0889, -20
12, R12I29, 62,08131, -27,41434, -20
12, R12I29, 61,1479, -29,07583, -20
12, R12I29, 60,25183, -30,56929, -20
12, R12I29, 58,96372, -32,51079, -20
12, R12I29, 57,69427, -34,2656, -20
12, R12I29, 56,46217, -35,51638, -20
12, R12I29, 55,06205, -36,67381, -20
12, R12I29, 53,77393, -37,62589, -20
12, R12I29, 52,09378, -38,40996, -20
12, R12I29, 50,28297, -38,82066, -20
12, R12I29, 48,52815, -39,11935, -20
12, R12I29, 47,05335, -39,56739, -20
12, R12I29, 45,48524, -39,84741, -20
12, R12I29, 43,6744, -39,97809, -20
12, R12I29, 41,86359, -39,95942, -20
12, R12I29, 40,07144, -39,82874, -20
12, R12I29, 38,54063, -39,69807, -20
12, R12I29, 37,04717, -39,36204, -20
12, R12I29, 35,46037, -39,06335, -20
12, R12I29, 33,78022, -38,78333, -20
12, R12I29, 32,13743, -38,52197, -20
12, R12I29, 30,47595, -38,24194, -20
12, R12I29, 28,98248, -38,07393, -20
12, R12I29, 27,30234, -37,90591, -20
12, R12I29, 25,43551, -37,7379, -20
12, R12I29, 23,51267, -37,62589, -20
12, R12I29, 21,86987, -37,53255, -20
12, R12I29, 20,3204, -37,42054, -20
12, R12I29, 18,47224, -37,19652, -20
12, R12I29, 16,96012, -36,82316, -20
12, R12I29, 15,48532, -36,1511, -20
12, R12I29, 14,25322, -35,04967, -20
12, R12I29, 13,24513, -33,81757, -20
12, R12I29, 12,12503, -32,2681, -20
12, R12I29, 11,3223, -30,86798, -20
12, R12I29, 10,53823, -29,35585, -20
12, R12I29, 9,679492, -27,86239, -20
12, R12I29, 8,895422, -26,40626, -20
12, R12I29, 8,148692, -24,89413, -20
12, R12I29, 7,30862, -23,06464, -20
12, R12I29, 6,449884, -21,21648, -20
12, R12I29, 5,609812, -19,31232, -20
12, R12I29, 4,788404, -17,35216, -20
12, R12I29, 3,985671, -15,14929, -20
12, R12I29, 3,089596, -12,74109, -20
12, R12I29, 2,174846, -10,18354, -20
12, R12I29, 1,278772, -7,607319, -20
12, R12I29, 0,6813849, -5,25511, -20
12, R12I29, 0,1213369, -3,294942, -20
12, R12I29, -0,3640335, -1,670812, -20
12, R12I29, -0,9054178, 6,534577E-02, -20
12, R12I29, -1,577471, 1,782817, -20
12, R12I29, -2,212197, 3,276278, -20
12, R12I29, -2,697567, 4,919095, -20
12, R12I29, -3,126935, 6,524561, -20
12, R12I29, -3,556314, 8,372725, -20
12, R12I29, -3,873665, 10,18354, -20
12, R12I29, -4,116362, 11,71434, -20
12, R12I29, -4,359047, 13,31982, -20
12, R12I29, -4,67641, 15,13063, -20
12, R12I29, -4,937759, 16,66143, -20
12, R12I29, -5,236458, 18,37891, -20
12, R12I29, -5,572484, 20,17106, -20
12, R12I29, -6,244538, 21,8512, -20
12, R12I29, -6,953929, 23,19532, -20
12, R12I29, -7,588655, 24,74479, -20
12, R12I29, -7,439312, 26,46227, -20
12, R12I29, -6,655242, 27,80639, -20
12, R12I29, -5,255122, 28,40377, -20
12, R12I29, -3,686983, 28,45978, -20
12, R12I29, -2,23086, 29,16917, -20
12, R12I29, -0,7187351, 29,89723, -20
12, R12I29, 0,8120651, 30,79331, -20
12, R12I29, 2,062841, 31,74539, -20
12, R12I29, 3,294942, 33,10818, -20
12, R12I29, 4,340372, 34,22828, -20
12, R12I29, 5,852497, 35,34837, -20
12, R12I29, 7,532641, 36,07643, -20
12, R12I29, 9,231449, 36,28178, -20
12, R12I29, 10,93027, 36,78582, -20
12, R12I29, 12,64775, 37,45788, -20
12, R12I29, 14,0292, 38,03659, -20
12, R12I29, 15,672, 38,82066, -20
12, R12I29, 17,2028, 39,69807, -20
12, R12I29, 18,50958, 40,7995, -20
12, R12I29, 20,02172, 41,77025, -20
12, R12I29, 21,4965, 42,18095, -20
12, R12I29, 23,26999, 42,19962, -20
12, R12I29, 24,93147, 42,14361, -20
12, R12I29, 26,81696, 41,97561, -20
12, R12I29, 28,29176, 41,65824, -20
12, R12I29, 29,93456, 41,09819, -20
12, R12I29, 31,57738, 40,31413, -20
12, R12I29, 32,90282, 39,60473, -20
12, R12I29, 34,2096, 38,67132, -20
12, R12I29, 35,51638, 37,55122, -20
12, R12I29, 36,95383, 36,37513, -20
12, R12I29, 38,42862, 35,23635, -20
12, R12I29, 39,77273, 34,13493, -20
12, R12I29, 41,07951, 32,82816, -20
12, R12I29, 42,25562, 31,57738, -20
12, R12I29, 43,09569, 30,28926, -20
12, R12I29, 44,0291, 29,0945, -20
12, R12I29, 45,18653, 27,67571, -20
12, R12I29, 46,47464, 26,81697, -20
12, R12I29, 48,19213, 26,14491, -20
12, R12I29, 49,6856, 25,73421, -20
12, R12I29, 51,16037, 25,36085, -20
12, R12I29, 52,78453, 24,78213, -20
12, R12I29, 54,20331, 24,03539, -20
12, R12I29, 55,60343, 23,30734, -20
12, R12I29, 56,98489, 22,28058, -20
12, R12I29, 58,19832, 21,30983, -20
12, R12I29, 59,41176, 20,32042, -20
12, R12I29, 60,49451, 19,10698, -20
12, R12I29, 61,37193, 17,74419, -20
12, R12I29, 62,17465, 16,04538, -20
12, R12I29, 62,7347, 14,15989, -20
12, R12I29, 63,16408, 12,40507, -20
12, R12I29, 63,46276, 10,78092, -20
12, R12I29, 63,70546, 8,951436, -20
12, R12I29, 63,92947, 7,327295, -20
12, R12I29, 64,09749, 5,628487, -20
12, R12I29, 64,43353, 3,929668, -20
12, R12I29, 64,69486, 2,380204, -20
12, R12I29, 65,04957, 0,9054178, -20
12, R12I29, 65,46028, -0,6067187, -20
12, R12I29, 65,77763, -1,913497, -20
12, R12I29, 66,37501, -3,070932, -20
12, R12I29, 68,18584, -3,201601, -25
12, R12I29, 68,35387, -4,732401, -25
12, R12I29, 68,46587, -6,225863, -25
12, R12I29, 68,54055, -8,05535, -25
12, R12I29, 68,24184, -10,05286, -25
12, R12I29, 67,70048, -12,18104, -25
12, R12I29, 67,21508, -13,71184, -25
12, R12I29, 66,67372, -15,11196, -25
12, R12I29, 66,13234, -16,81077, -25
12, R12I29, 65,6843, -18,24823, -25
12, R12I29, 65,18026, -19,87237, -25
12, R12I29, 64,69486, -21,49651, -25
12, R12I29, 64,1535, -23,04597, -25
12, R12I29, 63,46276, -24,72612, -25
12, R12I29, 62,66004, -26,36893, -25
12, R12I29, 61,89463, -27,65704, -25
12, R12I29, 60,9799, -29,16917, -25
12, R12I29, 59,91579, -30,47595, -25
12, R12I29, 58,62768, -31,83873, -25
12, R12I29, 57,24625, -32,97749, -25
12, R12I29, 56,07014, -33,91091, -25
12, R12I29, 54,70734, -34,69497, -25
12, R12I29, 53,34457, -35,3297, -25
12, R12I29, 51,81376, -36,18843, -25
12, R12I29, 50,37632, -36,67381, -25
12, R12I29, 48,60283, -37,00984, -25
12, R12I29, 46,88536, -37,3272, -25
12, R12I29, 45,35455, -37,34587, -25
12, R12I29, 43,61841, -37,06584, -25
12, R12I29, 41,88225, -36,69248, -25
12, R12I29, 40,35146, -36,31911, -25
12, R12I29, 38,82065, -35,74039, -25
12, R12I29, 37,25251, -35,12434, -25
12, R12I29, 35,66571, -34,43362, -25
12, R12I29, 34,19094, -33,61221, -25
12, R12I29, 32,7348, -32,90282, -25
12, R12I29, 31,092, -32,49212, -25
12, R12I29, 29,35585, -32,41745, -25
12, R12I29, 27,65703, -32,23076, -25
12, R12I29, 26,14491, -31,78272, -25
12, R12I29, 24,74479, -31,148, -25
12, R12I29, 23,21399, -30,88664, -25
12, R12I29, 21,57118, -30,86798, -25
12, R12I29, 19,76036, -30,41994, -25
12, R12I29, 18,21089, -30,45728, -25
12, R12I29, 16,3814, -30,53195, -25
12, R12I29, 14,7946, -30,21459, -25
12, R12I29, 13,41315, -29,39318, -25
12, R12I29, 11,97569, -28,70246, -25
12, R12I29, 10,5569, -27,91839, -25
12, R12I29, 8,820756, -27,19033, -25
12, R12I29, 7,177939, -26,76096, -25
12, R12I29, 5,404454, -26,64895, -25
12, R12I29, 3,817652, -26,92898, -25
12, R12I29, 2,436207, -25,92089, -25
12, R12I29, 1,670801, -24,39009, -25
12, R12I29, 1,092089, -22,95263, -25
12, R12I29, 0,4386997, -21,57118, -25
12, R12I29, -0,3266947, -20,13372, -25
12, R12I29, -1,185442, -18,71494, -25
12, R12I29, -1,988175, -17,27748, -25
12, R12I29, -2,678903, -15,616, -25
12, R12I29, -3,388295, -13,74917, -25
12, R12I29, -3,911004, -12,27439, -25
12, R12I29, -4,340372, -10,79959, -25
12, R12I29, -4,807079, -9,007439, -25
12, R12I29, -5,199119, -7,457975, -25
12, R12I29, -5,497807, -5,572473, -25
12, R12I29, -5,81517, -3,668308, -25
12, R12I29, -6,188535, -1,70814, -25
12, R12I29, -6,319215, 0,2706921, -25
12, R12I29, -6,449895, 2,081516, -25
12, R12I29, -6,711244, 3,668319, -25
12, R12I29, -6,972605, 5,255122, -25
12, R12I29, -7,271292, 6,897927, -25
12, R12I29, -7,513978, 8,578071, -25
12, R12I29, -7,663333, 10,20221, -25
12, R12I29, -7,924682, 11,86368, -25
12, R12I29, -8,204705, 13,6185, -25
12, R12I29, -8,372725, 15,33599, -25
12, R12I29, -8,522069, 17,05347, -25
12, R12I29, -8,708751, 18,88296, -25
12, R12I29, -8,839432, 20,6191, -25
12, R12I29, -8,970112, 22,46727, -25
12, R12I29, -9,063453, 24,11007, -25
12, R12I29, -9,156795, 25,65954, -25
12, R12I29, -9,194121, 27,47036, -25
12, R12I29, -9,194121, 29,05716, -25
12, R12I29, -9,156795, 30,62529, -25
12, R12I29, -8,858095, 32,41745, -25
12, R12I29, -8,35405, 33,85491, -25
12, R12I29, -6,785922, 34,24694, -25
12, R12I29, -5,012436, 33,87357, -25
12, R12I29, -3,388295, 33,94825, -25
12, R12I29, -1,913497, 34,93767, -25
12, R12I29, -0,4760499, 36,35645, -25
12, R12I29, 0,7747263, 37,86859, -25
12, R12I29, 2,342865, 38,26062, -25
12, R12I29, 3,910993, 37,94325, -25
12, R12I29, 5,51647, 37,38321, -25
12, R12I29, 7,289956, 36,9165, -25
12, R12I29, 9,231449, 36,61781, -25
12, R12I29, 10,89293, 36,33779, -25
12, R12I29, 12,57307, 36,16977, -25
12, R12I29, 14,25322, 36,26311, -25
12, R12I29, 16,00804, 36,69248, -25
12, R12I29, 17,70685, 37,45788, -25
12, R12I29, 19,03229, 38,54064, -25
12, R12I29, 20,18972, 39,58606, -25
12, R12I29, 21,40316, 40,53815, -25
12, R12I29, 22,85928, 40,98618, -25
12, R12I29, 24,44609, 41,04219, -25
12, R12I29, 25,97689, 41,11686, -25
12, R12I29, 27,48902, 41,93827, -25
12, R12I29, 28,98248, 42,92768, -25
12, R12I29, 30,27059, 43,78642, -25
12, R12I29, 31,68938, 44,43981, -25
12, R12I29, 33,38819, 44,98119, -25
12, R12I29, 35,3297, 44,57049, -25
12, R12I29, 36,76714, 43,65575, -25
12, R12I29, 37,92459, 42,70366, -25
12, R12I29, 38,89533, 41,47156, -25
12, R12I29, 39,77273, 40,18344, -25
12, R12I29, 40,29545, 38,52198, -25
12, R12I29, 40,66882, 36,8605, -25
12, R12I29, 40,98617, 35,14301, -25
12, R12I29, 41,37822, 33,55621, -25
12, R12I29, 42,14361, 32,10009, -25
12, R12I29, 42,92767, 30,53195, -25
12, R12I29, 43,9171, 29,33719, -25
12, R12I29, 45,22388, 28,29176, -25
12, R12I29, 46,60534, 27,45168, -25
12, R12I29, 47,81877, 26,51827, -25
12, R12I29, 49,21889, 25,65954, -25
12, R12I29, 50,563, 24,83813, -25
12, R12I29, 51,85111, 23,94205, -25
12, R12I29, 53,2699, 23,00864, -25
12, R12I29, 54,53935, 22,03789, -25
12, R12I29, 55,65944, 20,95513, -25
12, R12I29, 56,6862, 19,48034, -25
12, R12I29, 57,47026, 18,15489, -25
12, R12I29, 58,42233, 16,90411, -25
12, R12I29, 59,59844, 15,65335, -25
12, R12I29, 60,88656, 14,42124, -25
12, R12I29, 61,91331, 13,2638, -25
12, R12I29, 63,01472, 11,86368, -25
12, R12I29, 63,92947, 10,42623, -25
12, R12I29, 64,76955, 8,895433, -25
12, R12I29, 65,49761, 7,439312, -25
12, R12I29, 66,11367, 6,020516, -25
12, R12I29, 66,52437, 4,564394, -25
12, R12I29, 66,9164, 2,921588, -25
12, R12I29, 67,36444, 1,148103, -25
12, R12I29, 67,71914, -0,4573748, -25
12, R12I29, 68,01783, -1,83882, -25
12, R12I29, 68,18584, -3,201601, -25
12, R12I29, 61,72663, -2,790908, -30
12, R12I29, 61,78262, -4,527055, -30
12, R12I29, 61,25992, -6,412545, -30
12, R12I29, 60,36384, -8,09269, -30
12, R12I29, 58,92639, -10,29554, -30
12, R12I29, 58,04897, -11,77034, -30
12, R12I29, 57,07823, -13,2638, -30
12, R12I29, 56,20081, -14,58924, -30
12, R12I29, 55,17405, -15,98936, -30
12, R12I29, 54,07264, -17,22148, -30
12, R12I29, 52,67252, -18,7336, -30
12, R12I29, 51,34705, -20,04038, -30
12, R12I29, 49,87228, -21,10447, -30
12, R12I29, 48,45347, -21,92588, -30
12, R12I29, 47,07204, -22,57927, -30
12, R12I29, 45,55989, -23,36333, -30
12, R12I29, 44,0291, -24,05406, -30
12, R12I29, 42,51698, -24,67011, -30
12, R12I29, 41,13552, -25,26749, -30
12, R12I29, 39,64206, -25,93955, -30
12, R12I29, 38,12994, -26,31292, -30
12, R12I29, 36,35645, -26,51827, -30
12, R12I29, 34,67631, -26,70495, -30
12, R12I29, 32,82814, -26,7983, -30
12, R12I29, 31,27867, -26,63028, -30
12, R12I29, 29,69188, -26,53694, -30
12, R12I29, 27,80638, -26,4436, -30
12, R12I29, 26,10757, -26,40626, -30
12, R12I29, 24,24074, -26,38759, -30
12, R12I29, 22,52326, -26,14491, -30
12, R12I29, 20,80577, -25,7342, -30
12, R12I29, 19,38699, -25,19282, -30
12, R12I29, 17,72551, -24,52076, -30
12, R12I29, 16,00804, -23,7927, -30
12, R12I29, 14,47724, -23,28866, -30
12, R12I29, 12,98378, -22,63527, -30
12, R12I29, 11,677, -21,88854, -30
12, R12I29, 10,03419, -21,14181, -30
12, R12I29, 8,484718, -20,63777, -30
12, R12I29, 6,841913, -20,13372, -30
12, R12I29, 5,367127, -19,77903, -30
12, R12I29, 3,742985, -19,36833, -30
12, R12I29, 2,286863, -18,65894, -30
12, R12I29, 0,9427452, -17,93087, -30
12, R12I29, 4,667067E-02, -16,40007, -30
12, R12I29, -0,7373988, -14,75726, -30
12, R12I29, -1,782829, -13,50649, -30
12, R12I29, -2,828247, -12,31172, -30
12, R12I29, -3,76166, -10,76225, -30
12, R12I29, -4,471052, -9,231461, -30
12, R12I29, -5,049776, -7,756663, -30
12, R12I29, -5,759167, -6,132521, -30
12, R12I29, -6,375218, -4,489716, -30
12, R12I29, -6,711244, -2,772233, -30
12, R12I29, -6,841925, -1,204105, -30
12, R12I29, -6,953929, 0,4013723, -30
12, R12I29, -7,047271, 2,044178, -30
12, R12I29, -7,028607, 3,705658, -30
12, R12I29, -7,103285, 5,236447, -30
12, R12I29, -7,233953, 6,860588, -30
12, R12I29, -7,159287, 8,783418, -30
12, R12I29, -7,159287, 10,57558, -30
12, R12I29, -7,420636, 12,4424, -30
12, R12I29, -7,644658, 14,08521, -30
12, R12I29, -7,906018, 15,69068, -30
12, R12I29, -8,111364, 17,22148, -30
12, R12I29, -8,242044, 18,9763, -30
12, R12I29, -8,316722, 20,52576, -30
12, R12I29, -8,279384, 22,01922, -30
12, R12I29, -7,980684, 23,60603, -30
12, R12I29, -7,420636, 25,09949, -30
12, R12I29, -6,113857, 26,07024, -30
12, R12I29, -4,564394, 26,46227, -30
12, R12I29, -2,809583, 26,68629, -30
12, R12I29, -0,9987592, 26,7983, -30
12, R12I29, 0,70006, 27,17166, -30
12, R12I29, 2,10018, 27,73171, -30
12, R12I29, 3,630969, 28,49711, -30
12, R12I29, 5,217772, 29,33719, -30
12, R12I29, 6,748572, 30,08392, -30
12, R12I29, 8,410052, 30,77464, -30
12, R12I29, 10,07152, 31,48404, -30
12, R12I29, 11,65832, 32,08142, -30
12, R12I29, 13,37581, 32,49212, -30
12, R12I29, 14,90661, 32,77214, -30
12, R12I29, 16,49341, 32,43612, -30
12, R12I29, 17,98687, 31,18534, -30
12, R12I29, 19,16297, 30,13992, -30
12, R12I29, 20,54443, 31,01733, -30
12, R12I29, 21,58984, 32,10009, -30
12, R12I29, 23,0273, 33,31353, -30
12, R12I29, 24,46476, 34,22828, -30
12, R12I29, 26,14491, 34,75098, -30
12, R12I29, 27,67571, 35,14301, -30
12, R12I29, 29,28117, 35,21769, -30
12, R12I29, 30,90531, 34,99367, -30
12, R12I29, 32,43612, 34,48962, -30
12, R12I29, 33,70554, 33,63089, -30
12, R12I29, 34,82564, 32,60413, -30
12, R12I29, 35,83373, 31,48404, -30
12, R12I29, 36,76714, 30,19592, -30
12, R12I29, 37,60722, 28,88914, -30
12, R12I29, 38,40996, 27,35834, -30
12, R12I29, 39,2687, 25,95822, -30
12, R12I29, 40,12743, 24,68878, -30
12, R12I29, 40,87416, 23,30734, -30
12, R12I29, 41,69557, 21,96322, -30
12, R12I29, 42,92767, 20,67511, -30
12, R12I29, 44,3838, 19,72303, -30
12, R12I29, 45,83992, 19,06964, -30
12, R12I29, 47,52006, 18,30423, -30
12, R12I29, 48,97619, 17,52018, -30
12, R12I29, 50,37632, 16,60543, -30
12, R12I29, 51,7951, 15,63467, -30
12, R12I29, 53,04589, 14,53325, -30
12, R12I29, 54,16598, 13,39448, -30
12, R12I29, 55,45407, 12,06904, -30
12, R12I29, 56,63018, 10,74359, -30
12, R12I29, 57,54493, 9,268799, -30
12, R12I29, 58,25431, 7,943346, -30
12, R12I29, 59,03839, 6,505898, -30
12, R12I29, 59,74778, 5,16178, -30
12, R12I29, 60,40117, 3,593642, -30
12, R12I29, 60,94255, 1,857495, -30
12, R12I29, 61,39059, 0,308031, -30
12, R12I29, 61,59594, -1,372113, -30
12, R12I29, 61,72663, -2,790908, -30
12, R12I29, 57,35825, -2,753569, -35
12, R12I29, 56,70486, -4,209692, -35
12, R12I29, 55,79011, -5,777831, -35
12, R12I29, 54,91271, -7,196615, -35
12, R12I29, 54,07264, -8,615398, -35
12, R12I29, 53,23257, -9,922177, -35
12, R12I29, 52,28047, -11,17295, -35
12, R12I29, 50,89904, -12,87177, -35
12, R12I29, 49,89095, -14,15988, -35
12, R12I29, 48,75219, -15,46665, -35
12, R12I29, 47,65075, -16,75477, -35
12, R12I29, 46,47464, -18,13622, -35
12, R12I29, 45,16786, -19,46167, -35
12, R12I29, 43,78641, -20,80578, -35
12, R12I29, 42,64765, -21,7952, -35
12, R12I29, 40,93018, -22,67261, -35
12, R12I29, 39,45538, -23,47535, -35
12, R12I29, 37,77523, -24,16607, -35
12, R12I29, 36,05776, -24,74479, -35
12, R12I29, 34,5643, -25,11815, -35
12, R12I29, 33,10817, -25,45418, -35
12, R12I29, 31,27867, -25,64086, -35
12, R12I29, 29,5612, -25,69687, -35
12, R12I29, 28,04907, -25,52885, -35
12, R12I29, 26,51827, -25,17415, -35
12, R12I29, 24,93147, -24,67011, -35
12, R12I29, 23,45667, -24,24074, -35
12, R12I29, 22,03789, -23,7367, -35
12, R12I29, 20,61909, -23,12064, -35
12, R12I29, 18,86428, -22,48592, -35
12, R12I29, 17,2588, -21,77653, -35
12, R12I29, 15,63467, -20,82445, -35
12, R12I29, 14,21588, -19,87237, -35
12, R12I29, 12,8531, -18,7896, -35
12, R12I29, 11,621, -17,83753, -35
12, R12I29, 10,22088, -16,90411, -35
12, R12I29, 8,596735, -15,82136, -35
12, R12I29, 6,916591, -15,05595, -35
12, R12I29, 5,161769, -14,51458, -35
12, R12I29, 3,761649, -13,86119, -35
12, R12I29, 2,305526, -12,75976, -35
12, R12I29, 1,353449, -11,50898, -35
12, R12I29, 0,6253824, -9,772833, -35
12, R12I29, -4,667067E-02, -7,401961, -35
12, R12I29, -0,868079, -5,161769, -35
12, R12I29, -1,446791, -3,164274, -35
12, R12I29, -1,87617, -1,129428, -35
12, R12I29, -2,36154, 0,6813963, -35
12, R12I29, -2,828247, 2,212197, -35
12, R12I29, -3,369631, 3,836327, -35
12, R12I29, -3,89234, 5,497807, -35
12, R12I29, -4,452389, 7,289956, -35
12, R12I29, -4,975098, 9,044778, -35
12, R12I29, -5,367127, 10,5009, -35
12, R12I29, -5,497807, 12,29306, -35
12, R12I29, -5,404466, 14,04787, -35
12, R12I29, -5,0311, 15,72801, -35
12, R12I29, -4,359047, 17,16547, -35
12, R12I29, -2,958927, 18,58426, -35
12, R12I29, -8,400948E-02, 20,69378, -35
12, R12I29, 1,70814, 21,94455, -35
12, R12I29, 3,014918, 22,76595, -35
12, R12I29, 4,601721, 23,64336, -35
12, R12I29, 6,375206, 24,27808, -35
12, R12I29, 8,298036, 24,78213, -35
12, R12I29, 10,42622, 25,34217, -35
12, R12I29, 11,99436, 25,88356, -35
12, R12I29, 13,50649, 26,27559, -35
12, R12I29, 15,18663, 26,40627, -35
12, R12I29, 16,92278, 26,16358, -35
12, R12I29, 18,7336, 26,01424, -35
12, R12I29, 20,22706, 25,6782, -35
12, R12I29, 21,73919, 25,24883, -35
12, R12I29, 23,15798, 25,84622, -35
12, R12I29, 24,52076, 27,17166, -35
12, R12I29, 25,77154, 28,17975, -35
12, R12I29, 27,24633, 28,57178, -35
12, R12I29, 28,77713, 28,55312, -35
12, R12I29, 30,60662, 28,45978, -35
12, R12I29, 32,10007, 28,29176, -35
12, R12I29, 33,83624, 28,47844, -35
12, R12I29, 35,40437, 28,87048, -35
12, R12I29, 37,00984, 29,46787, -35
12, R12I29, 38,46595, 28,87048, -35
12, R12I29, 38,95134, 27,37702, -35
12, R12I29, 39,56738, 25,88356, -35
12, R12I29, 40,83683, 24,98748, -35
12, R12I29, 41,39688, 23,56869, -35
12, R12I29, 41,97559, 21,98188, -35
12, R12I29, 43,30104, 21,08581, -35
12, R12I29, 44,86917, 20,9738, -35
12, R12I29, 46,23197, 20,28308, -35
12, R12I29, 47,29605, 19,0323, -35
12, R12I29, 47,76276, 17,59484, -35
12, R12I29, 48,34147, 16,06404, -35
12, R12I29, 49,5549, 15,1493, -35
12, R12I29, 51,16037, 14,64526, -35
12, R12I29, 52,70985, 14,40257, -35
12, R12I29, 54,05396, 13,71184, -35
12, R12I29, 55,19274, 12,74109, -35
12, R12I29, 56,18214, 11,50899, -35
12, R12I29, 56,94754, 10,16487, -35
12, R12I29, 57,52627, 8,559407, -35
12, R12I29, 57,86229, 6,636567, -35
12, R12I29, 58,10498, 5,105778, -35
12, R12I29, 58,31033, 3,313617, -35
12, R12I29, 58,49701, 1,726815, -35
12, R12I29, 58,47835, 2,800696E-02, -35
12, R12I29, 58,16097, -1,633473, -35
12, R12I29, 57,35825, -2,753569, -35
12, R12I29, 40,12743, -2,529548, -40
12, R12I29, 39,17535, -4,172353, -40
12, R12I29, 38,44729, -5,665814, -40
12, R12I29, 37,68189, -7,196615, -40
12, R12I29, 36,6738, -8,70874, -40
12, R12I29, 35,59106, -10,35156, -40
12, R12I29, 34,41495, -11,80768, -40
12, R12I29, 33,20151, -13,13312, -40
12, R12I29, 32,13743, -14,30922, -40
12, R12I29, 30,84931, -15,616, -40
12, R12I29, 29,48652, -16,96012, -40
12, R12I29, 28,29176, -17,94953, -40
12, R12I29, 26,81696, -18,86428, -40
12, R12I29, 25,49152, -19,59234, -40
12, R12I29, 23,7927, -20,17106, -40
12, R12I29, 22,31791, -20,52576, -40
12, R12I29, 20,46975, -20,54443, -40
12, R12I29, 18,77094, -20,41375, -40
12, R12I29, 17,27748, -20,2644, -40
12, R12I29, 15,52266, -19,94704, -40
12, R12I29, 13,76785, -19,34966, -40
12, R12I29, 12,29305, -18,71494, -40
12, R12I29, 10,72491, -17,70685, -40
12, R12I29, 9,58615, -16,64275, -40
12, R12I29, 8,690076, -15,18663, -40
12, R12I29, 7,756663, -13,58116, -40
12, R12I29, 6,953929, -12,10637, -40
12, R12I29, 6,30054, -10,48223, -40
12, R12I29, 5,628476, -8,671412, -40
12, R12I29, 4,975086, -6,935255, -40
12, R12I29, 4,284358, -5,161769, -40
12, R12I29, 3,556303, -3,593642, -40
12, R12I29, 2,678892, -1,913497, -40
12, R12I29, 1,988164, -0,4573748, -40
12, R12I29, 1,260108, 1,222769, -40
12, R12I29, 0,7187237, 2,660228, -40
12, R12I29, 6,533438E-02, 4,359047, -40
12, R12I29, -0,4760499, 5,908511, -40
12, R12I29, -1,073425, 7,607319, -40
12, R12I29, -1,148103, 9,138119, -40
12, R12I29, 9,331855E-03, 10,61292, -40
12, R12I29, 1,18543, 11,78901, -40
12, R12I29, 2,436207, 12,98378, -40
12, R12I29, 3,873665, 14,3279, -40
12, R12I29, 5,441793, 15,63467, -40
12, R12I29, 7,065935, 16,64277, -40
12, R12I29, 8,83942, 17,63218, -40
12, R12I29, 10,35155, 18,49092, -40
12, R12I29, 12,01303, 19,23765, -40
12, R12I29, 13,82385, 19,70435, -40
12, R12I29, 15,39198, 19,90971, -40
12, R12I29, 17,31482, 20,22707, -40
12, R12I29, 18,92028, 20,2644, -40
12, R12I29, 20,69377, 20,13373, -40
12, R12I29, 22,28057, 20,02172, -40
12, R12I29, 23,83004, 20,60044, -40
12, R12I29, 25,45418, 20,52576, -40
12, R12I29, 26,98498, 19,98438, -40
12, R12I29, 28,23575, 18,9763, -40
12, R12I29, 29,2065, 17,42683, -40
12, R12I29, 29,89722, 15,95204, -40
12, R12I29, 30,97998, 14,57058, -40
12, R12I29, 32,32411, 13,45048, -40
12, R12I29, 33,50019, 12,14371, -40
12, R12I29, 34,50829, 10,83693, -40
12, R12I29, 35,55371, 9,604826, -40
12, R12I29, 36,54313, 8,22337, -40
12, R12I29, 37,2712, 6,897927, -40
12, R12I29, 37,98058, 5,255122, -40
12, R12I29, 38,858, 3,686983, -40
12, R12I29, 39,92208, 2,398879, -40
12, R12I29, 40,78082, 0,868079, -40
12, R12I29, 40,48213, -0,7187237, -40
12, R12I29, 40,29545, -1,166767, -40
12, R12I29, 40,12743, -2,529548, -40
12, R12I29, 39,10068, -2,716231, -45
12, R12I29, 38,03659, -4,340372, -45
12, R12I29, 37,06583, -5,871172, -45
12, R12I29, 36,09509, -7,401961, -45
12, R12I29, 35,087, -8,951436, -45
12, R12I29, 34,02292, -10,65024, -45
12, R12I29, 33,18285, -11,97569, -45
12, R12I29, 32,28676, -13,28246, -45
12, R12I29, 31,20401, -14,58924, -45
12, R12I29, 30,06524, -15,78402, -45
12, R12I29, 28,92647, -16,90411, -45
12, R12I29, 27,67571, -17,94953, -45
12, R12I29, 26,20091, -18,92028, -45
12, R12I29, 24,67011, -19,499, -45
12, R12I29, 23,13931, -19,81636, -45
12, R12I29, 21,42184, -20,04038, -45
12, R12I29, 19,62968, -20,05905, -45
12, R12I29, 18,08021, -19,90971, -45
12, R12I29, 16,3814, -19,61101, -45
12, R12I29, 14,81327, -19,20031, -45
12, R12I29, 13,56249, -18,09889, -45
12, R12I29, 12,68508, -16,56809, -45
12, R12I29, 10,98627, -15,87736, -45
12, R12I29, 9,567487, -15,31731, -45
12, R12I29, 8,05535, -14,19722, -45
12, R12I29, 6,655231, -13,00244, -45
12, R12I29, 5,740492, -11,65833, -45
12, R12I29, 5,180444, -10,10886, -45
12, R12I29, 4,90042, -8,615398, -45
12, R12I29, 4,396375, -7,028596, -45
12, R12I29, 3,873665, -5,55381, -45
12, R12I29, 3,462961, -4,097687, -45
12, R12I29, 2,772233, -2,249524, -45
12, R12I29, 2,156183, -0,7560626, -45
12, R12I29, 1,353449, 0,980084, -45
12, R12I29, 0,6440461, 2,678903, -45
12, R12I29, -8,400948E-02, 4,209692, -45
12, R12I29, -0,8120764, 5,833834, -45
12, R12I29, -1,540132, 7,420636, -45
12, R12I29, -2,36154, 9,138119, -45
12, R12I29, -2,958927, 10,5569, -45
12, R12I29, -3,444298, 12,18104, -45
12, R12I29, -2,921588, 13,74918, -45
12, R12I29, -1,820156, 14,88794, -45
12, R12I29, -0,2333533, 15,1493, -45
12, R12I29, 1,316111, 15,35465, -45
12, R12I29, 3,052257, 15,59733, -45
12, R12I29, 4,396375, 16,28806, -45
12, R12I29, 5,833834, 16,92279, -45
12, R12I29, 7,476639, 17,18414, -45
12, R12I29, 9,212786, 17,40816, -45
12, R12I29, 10,76225, 17,83753, -45
12, R12I29, 12,53573, 18,69627, -45
12, R12I29, 14,10387, 19,20032, -45
12, R12I29, 15,65334, 19,31232, -45
12, R12I29, 17,18414, 19,0883, -45
12, R12I29, 18,7336, 18,93896, -45
12, R12I29, 20,35774, 18,90162, -45
12, R12I29, 21,92587, 18,95762, -45
12, R12I29, 23,25132, 19,68569, -45
12, R12I29, 24,57677, 20,43242, -45
12, R12I29, 26,25691, 20,58176, -45
12, R12I29, 27,56369, 19,36833, -45
12, R12I29, 28,40376, 18,02421, -45
12, R12I29, 29,46786, 16,62409, -45
12, R12I29, 30,64395, 15,26131, -45
12, R12I29, 31,93206, 13,91719, -45
12, R12I29, 32,9775, 12,7971, -45
12, R12I29, 34,13492, 11,41565, -45
12, R12I29, 35,14301, 10,18354, -45
12, R12I29, 36,16977, 8,932773, -45
12, R12I29, 37,25251, 7,513978, -45
12, R12I29, 38,12994, 6,113857, -45
12, R12I29, 38,74598, 4,54573, -45
12, R12I29, 39,11934, 2,828247, -45
12, R12I29, 39,2687, 1,148103, -45
12, R12I29, 39,39936, -0,3640335, -45
12, R12I29, 39,17535, -1,70814, -45
12, R12I29, 39,10068, -2,716231, -45
12, R12I29, 31,65203, -2,828236, -50
12, R12I29, 30,66263, -4,359036, -50
12, R12I29, 29,74788, -5,759156, -50
12, R12I29, 28,68379, -7,215279, -50
12, R12I29, 27,63837, -8,447391, -50
12, R12I29, 26,36893, -9,623489, -50
12, R12I29, 25,11815, -10,63158, -50
12, R12I29, 23,88604, -11,56499, -50
12, R12I29, 22,39258, -12,21838, -50
12, R12I29, 20,76845, -12,83443, -50
12, R12I29, 19,03229, -13,35714, -50
12, R12I29, 17,22148, -14,08521, -50
12, R12I29, 15,52266, -14,3279, -50
12, R12I29, 13,93585, -14,15988, -50
12, R12I29, 12,21837, -13,84251, -50
12, R12I29, 10,65024, -13,09578, -50
12, R12I29, 9,250124, -12,06903, -50
12, R12I29, 8,09269, -10,89293, -50
12, R12I29, 7,252617, -9,474146, -50
12, R12I29, 6,319204, -8,018023, -50
12, R12I29, 5,329788, -6,841913, -50
12, R12I29, 4,471041, -5,460468, -50
12, R12I29, 4,489716, -3,892329, -50
12, R12I29, 4,937747, -2,361529, -50
12, R12I29, 4,396375, -0,9240815, -50
12, R12I29, 4,023009, 0,5320525, -50
12, R12I29, 4,919084, 1,801492, -50
12, R12I29, 4,116351, 3,238951, -50
12, R12I29, 4,583057, 4,713737, -50
12, R12I29, 4,191017, 6,263201, -50
12, R12I29, 4,041673, 7,906018, -50
12, R12I29, 5,497796, 8,260708, -50
12, R12I29, 6,132521, 9,698167, -50
12, R12I29, 7,625983, 10,10887, -50
12, R12I29, 9,119444, 9,828847, -50
12, R12I29, 10,18354, 10,96761, -50
12, R12I29, 11,3223, 11,93836, -50
12, R12I29, 12,87176, 11,71434, -50
12, R12I29, 14,4399, 12,10638, -50
12, R12I29, 15,16797, 13,41316, -50
12, R12I29, 16,71743, 13,45048, -50
12, R12I29, 18,24823, 13,45048, -50
12, R12I29, 19,77902, 13,74918, -50
12, R12I29, 20,93645, 14,83194, -50
12, R12I29, 22,39258, 15,22397, -50
12, R12I29, 23,77403, 14,53325, -50
12, R12I29, 25,24883, 14,83194, -50
12, R12I29, 26,70495, 14,49591, -50
12, R12I29, 28,23575, 13,73051, -50
12, R12I29, 29,50519, 12,66643, -50
12, R12I29, 30,3826, 11,39697, -50
12, R12I29, 31,12934, 9,88485, -50
12, R12I29, 31,54003, 8,35405, -50
12, R12I29, 32,0254, 6,935266, -50
12, R12I29, 32,56678, 5,51647, -50
12, R12I29, 33,07084, 3,76166, -50
12, R12I29, 33,20151, 2,137519, -50
12, R12I29, 32,92149, 0,420036, -50
12, R12I29, 32,51079, -1,017423, -50
12, R12I29, 32,28676, -1,540132, -50
12, R12I29, 31,65203, -2,828236, -50
